%!PS-Adobe-3.0 EPSF-3.0
%%Title: kcoll.eps
%%Creator: matplotlib version 2.0.0, http://matplotlib.org/
%%CreationDate: Sat May 13 11:42:30 2017
%%Orientation: portrait
%%BoundingBox: 40 263 571 528
%%EndComments
%%BeginProlog
/mpldict 9 dict def
mpldict begin
/m { moveto } bind def
/l { lineto } bind def
/r { rlineto } bind def
/c { curveto } bind def
/cl { closepath } bind def
/box {
m
1 index 0 r
0 exch r
neg 0 r
cl
} bind def
/clipbox {
box
clip
newpath
} bind def
%!PS-Adobe-3.0 Resource-Font
%%Title: DejaVu Sans
%%Copyright: Copyright (c) 2003 by Bitstream, Inc. All Rights Reserved. Copyright (c) 2006 by Tavmjong Bah. All Rights Reserved. DejaVu changes are in public domain 
%%Creator: Converted from TrueType to type 3 by PPR
25 dict begin
/_d{bind def}bind def
/_m{moveto}_d
/_l{lineto}_d
/_cl{closepath eofill}_d
/_c{curveto}_d
/_sc{7 -1 roll{setcachedevice}{pop pop pop pop pop pop}ifelse}_d
/_e{exec}_d
/FontName /DejaVuSans def
/PaintType 0 def
/FontMatrix[.001 0 0 .001 0 0]def
/FontBBox[-1021 -463 1793 1232]def
/FontType 3 def
/Encoding [ /space /parenleft /parenright /period /slash /zero /one /two /four /six /eight /B /C /D /I /T /V /a /e /i /k /l /m /n /o /p /s /t ] def
/FontInfo 10 dict dup begin
/FamilyName (DejaVu Sans) def
/FullName (DejaVu Sans) def
/Notice (Copyright (c) 2003 by Bitstream, Inc. All Rights Reserved. Copyright (c) 2006 by Tavmjong Bah. All Rights Reserved. DejaVu changes are in public domain ) def
/Weight (Book) def
/Version (Version 2.35) def
/ItalicAngle 0.0 def
/isFixedPitch false def
/UnderlinePosition -130 def
/UnderlineThickness 90 def
end readonly def
/CharStrings 28 dict dup begin
/space{318 0 0 0 0 0 _sc
}_d
/parenleft{390 0 86 -131 310 759 _sc
310 759 _m
266 683 234 609 213 536 _c
191 463 181 389 181 314 _c
181 238 191 164 213 91 _c
234 17 266 -56 310 -131 _c
232 -131 _l
183 -54 146 20 122 94 _c
98 168 86 241 86 314 _c
86 386 98 459 122 533 _c
146 607 182 682 232 759 _c
310 759 _l
_cl}_d
/parenright{390 0 80 -131 304 759 _sc
80 759 _m
158 759 _l
206 682 243 607 267 533 _c
291 459 304 386 304 314 _c
304 241 291 168 267 94 _c
243 20 206 -54 158 -131 _c
80 -131 _l
123 -56 155 17 177 91 _c
198 164 209 238 209 314 _c
209 389 198 463 177 536 _c
155 609 123 683 80 759 _c
_cl}_d
/period{318 0 107 0 210 124 _sc
107 124 _m
210 124 _l
210 0 _l
107 0 _l
107 124 _l
_cl}_d
/slash{337 0 0 -92 337 729 _sc
254 729 _m
337 729 _l
83 -92 _l
0 -92 _l
254 729 _l
_cl}_d
/zero{636 0 66 -13 570 742 _sc
318 664 _m
267 664 229 639 203 589 _c
177 539 165 464 165 364 _c
165 264 177 189 203 139 _c
229 89 267 64 318 64 _c
369 64 407 89 433 139 _c
458 189 471 264 471 364 _c
471 464 458 539 433 589 _c
407 639 369 664 318 664 _c
318 742 _m
399 742 461 709 505 645 _c
548 580 570 486 570 364 _c
570 241 548 147 505 83 _c
461 19 399 -13 318 -13 _c
236 -13 173 19 130 83 _c
87 147 66 241 66 364 _c
66 486 87 580 130 645 _c
173 709 236 742 318 742 _c
_cl}_d
/one{636 0 110 0 544 729 _sc
124 83 _m
285 83 _l
285 639 _l
110 604 _l
110 694 _l
284 729 _l
383 729 _l
383 83 _l
544 83 _l
544 0 _l
124 0 _l
124 83 _l
_cl}_d
/two{{636 0 73 0 536 742 _sc
192 83 _m
536 83 _l
536 0 _l
73 0 _l
73 83 _l
110 121 161 173 226 239 _c
290 304 331 346 348 365 _c
380 400 402 430 414 455 _c
426 479 433 504 433 528 _c
433 566 419 598 392 622 _c
365 646 330 659 286 659 _c
255 659 222 653 188 643 _c
154 632 117 616 78 594 _c
78 694 _l
118 710 155 722 189 730 _c
223 738 255 742 284 742 _c
}_e{359 742 419 723 464 685 _c
509 647 532 597 532 534 _c
532 504 526 475 515 449 _c
504 422 484 390 454 354 _c
446 344 420 317 376 272 _c
332 227 271 164 192 83 _c
_cl}_e}_d
/four{636 0 49 0 580 729 _sc
378 643 _m
129 254 _l
378 254 _l
378 643 _l
352 729 _m
476 729 _l
476 254 _l
580 254 _l
580 172 _l
476 172 _l
476 0 _l
378 0 _l
378 172 _l
49 172 _l
49 267 _l
352 729 _l
_cl}_d
/six{{636 0 70 -13 573 742 _sc
330 404 _m
286 404 251 388 225 358 _c
199 328 186 286 186 234 _c
186 181 199 139 225 109 _c
251 79 286 64 330 64 _c
374 64 409 79 435 109 _c
461 139 474 181 474 234 _c
474 286 461 328 435 358 _c
409 388 374 404 330 404 _c
526 713 _m
526 623 _l
501 635 476 644 451 650 _c
425 656 400 659 376 659 _c
310 659 260 637 226 593 _c
}_e{192 549 172 482 168 394 _c
187 422 211 444 240 459 _c
269 474 301 482 336 482 _c
409 482 467 459 509 415 _c
551 371 573 310 573 234 _c
573 159 550 99 506 54 _c
462 9 403 -13 330 -13 _c
246 -13 181 19 137 83 _c
92 147 70 241 70 364 _c
70 479 97 571 152 639 _c
206 707 280 742 372 742 _c
396 742 421 739 447 735 _c
472 730 498 723 526 713 _c
_cl}_e}_d
/eight{{636 0 68 -13 568 742 _sc
318 346 _m
271 346 234 333 207 308 _c
180 283 167 249 167 205 _c
167 161 180 126 207 101 _c
234 76 271 64 318 64 _c
364 64 401 76 428 102 _c
455 127 469 161 469 205 _c
469 249 455 283 429 308 _c
402 333 365 346 318 346 _c
219 388 _m
177 398 144 418 120 447 _c
96 476 85 511 85 553 _c
85 611 105 657 147 691 _c
188 725 245 742 318 742 _c
}_e{390 742 447 725 489 691 _c
530 657 551 611 551 553 _c
551 511 539 476 515 447 _c
491 418 459 398 417 388 _c
464 377 501 355 528 323 _c
554 291 568 251 568 205 _c
568 134 546 80 503 43 _c
459 5 398 -13 318 -13 _c
237 -13 175 5 132 43 _c
89 80 68 134 68 205 _c
68 251 81 291 108 323 _c
134 355 171 377 219 388 _c
183 544 _m
183 506 194 476 218 455 _c
}_e{242 434 275 424 318 424 _c
360 424 393 434 417 455 _c
441 476 453 506 453 544 _c
453 582 441 611 417 632 _c
393 653 360 664 318 664 _c
275 664 242 653 218 632 _c
194 611 183 582 183 544 _c
_cl}_e}_d
/B{{686 0 98 0 615 729 _sc
197 348 _m
197 81 _l
355 81 _l
408 81 447 92 473 114 _c
498 136 511 169 511 215 _c
511 260 498 293 473 315 _c
447 337 408 348 355 348 _c
197 348 _l
197 648 _m
197 428 _l
343 428 _l
391 428 426 437 450 455 _c
474 473 486 500 486 538 _c
486 574 474 602 450 620 _c
426 638 391 648 343 648 _c
197 648 _l
98 729 _m
350 729 _l
}_e{425 729 483 713 524 682 _c
564 650 585 606 585 549 _c
585 504 574 468 553 442 _c
532 416 502 399 462 393 _c
510 382 548 360 575 327 _c
601 294 615 253 615 204 _c
615 138 592 88 548 53 _c
504 17 441 0 360 0 _c
98 0 _l
98 729 _l
_cl}_e}_d
/C{{698 0 56 -13 644 742 _sc
644 673 _m
644 569 _l
610 599 575 622 537 638 _c
499 653 460 661 418 661 _c
334 661 270 635 226 584 _c
182 533 160 460 160 364 _c
160 268 182 194 226 143 _c
270 92 334 67 418 67 _c
460 67 499 74 537 90 _c
575 105 610 128 644 159 _c
644 56 _l
609 32 572 15 534 4 _c
496 -7 455 -13 412 -13 _c
302 -13 215 20 151 87 _c
}_e{87 154 56 246 56 364 _c
56 481 87 573 151 641 _c
215 708 302 742 412 742 _c
456 742 497 736 535 725 _c
573 713 610 696 644 673 _c
_cl}_e}_d
/D{770 0 98 0 711 729 _sc
197 648 _m
197 81 _l
316 81 _l
416 81 490 103 537 149 _c
583 195 607 267 607 365 _c
607 463 583 534 537 580 _c
490 625 416 648 316 648 _c
197 648 _l
98 729 _m
301 729 _l
442 729 546 699 612 641 _c
678 582 711 490 711 365 _c
711 239 677 147 611 88 _c
545 29 441 0 301 0 _c
98 0 _l
98 729 _l
_cl}_d
/I{295 0 98 0 197 729 _sc
98 729 _m
197 729 _l
197 0 _l
98 0 _l
98 729 _l
_cl}_d
/T{611 0 -2 0 614 729 _sc
-2 729 _m
614 729 _l
614 646 _l
355 646 _l
355 0 _l
256 0 _l
256 646 _l
-2 646 _l
-2 729 _l
_cl}_d
/V{684 0 8 0 676 729 _sc
286 0 _m
8 729 _l
111 729 _l
342 115 _l
573 729 _l
676 729 _l
398 0 _l
286 0 _l
_cl}_d
/a{{613 0 60 -13 522 560 _sc
343 275 _m
270 275 220 266 192 250 _c
164 233 150 205 150 165 _c
150 133 160 107 181 89 _c
202 70 231 61 267 61 _c
317 61 357 78 387 114 _c
417 149 432 196 432 255 _c
432 275 _l
343 275 _l
522 312 _m
522 0 _l
432 0 _l
432 83 _l
411 49 385 25 355 10 _c
325 -5 287 -13 243 -13 _c
187 -13 142 2 109 33 _c
76 64 60 106 60 159 _c
}_e{60 220 80 266 122 298 _c
163 329 224 345 306 345 _c
432 345 _l
432 354 _l
432 395 418 427 391 450 _c
364 472 326 484 277 484 _c
245 484 215 480 185 472 _c
155 464 127 453 100 439 _c
100 522 _l
132 534 164 544 195 550 _c
226 556 256 560 286 560 _c
365 560 424 539 463 498 _c
502 457 522 395 522 312 _c
_cl}_e}_d
/e{{615 0 55 -13 562 560 _sc
562 296 _m
562 252 _l
149 252 _l
153 190 171 142 205 110 _c
238 78 284 62 344 62 _c
378 62 412 66 444 74 _c
476 82 509 95 541 113 _c
541 28 _l
509 14 476 3 442 -3 _c
408 -9 373 -13 339 -13 _c
251 -13 182 12 131 62 _c
80 112 55 181 55 268 _c
55 357 79 428 127 481 _c
175 533 241 560 323 560 _c
397 560 455 536 498 489 _c
}_e{540 441 562 377 562 296 _c
472 322 _m
471 371 457 410 431 440 _c
404 469 368 484 324 484 _c
274 484 234 469 204 441 _c
174 413 156 373 152 322 _c
472 322 _l
_cl}_e}_d
/i{278 0 94 0 184 760 _sc
94 547 _m
184 547 _l
184 0 _l
94 0 _l
94 547 _l
94 760 _m
184 760 _l
184 646 _l
94 646 _l
94 760 _l
_cl}_d
/k{579 0 91 0 576 760 _sc
91 760 _m
181 760 _l
181 311 _l
449 547 _l
564 547 _l
274 291 _l
576 0 _l
459 0 _l
181 267 _l
181 0 _l
91 0 _l
91 760 _l
_cl}_d
/l{278 0 94 0 184 760 _sc
94 760 _m
184 760 _l
184 0 _l
94 0 _l
94 760 _l
_cl}_d
/m{{974 0 91 0 889 560 _sc
520 442 _m
542 482 569 511 600 531 _c
631 550 668 560 711 560 _c
767 560 811 540 842 500 _c
873 460 889 403 889 330 _c
889 0 _l
799 0 _l
799 327 _l
799 379 789 418 771 444 _c
752 469 724 482 686 482 _c
639 482 602 466 575 435 _c
548 404 535 362 535 309 _c
535 0 _l
445 0 _l
445 327 _l
445 379 435 418 417 444 _c
398 469 369 482 331 482 _c
}_e{285 482 248 466 221 435 _c
194 404 181 362 181 309 _c
181 0 _l
91 0 _l
91 547 _l
181 547 _l
181 462 _l
201 495 226 520 255 536 _c
283 552 317 560 357 560 _c
397 560 430 550 458 530 _c
486 510 506 480 520 442 _c
_cl}_e}_d
/n{634 0 91 0 549 560 _sc
549 330 _m
549 0 _l
459 0 _l
459 327 _l
459 379 448 417 428 443 _c
408 469 378 482 338 482 _c
289 482 251 466 223 435 _c
195 404 181 362 181 309 _c
181 0 _l
91 0 _l
91 547 _l
181 547 _l
181 462 _l
202 494 227 519 257 535 _c
286 551 320 560 358 560 _c
420 560 468 540 500 501 _c
532 462 549 405 549 330 _c
_cl}_d
/o{612 0 55 -13 557 560 _sc
306 484 _m
258 484 220 465 192 427 _c
164 389 150 338 150 273 _c
150 207 163 156 191 118 _c
219 80 257 62 306 62 _c
354 62 392 80 420 118 _c
448 156 462 207 462 273 _c
462 337 448 389 420 427 _c
392 465 354 484 306 484 _c
306 560 _m
384 560 445 534 490 484 _c
534 433 557 363 557 273 _c
557 183 534 113 490 63 _c
445 12 384 -13 306 -13 _c
227 -13 165 12 121 63 _c
77 113 55 183 55 273 _c
55 363 77 433 121 484 _c
165 534 227 560 306 560 _c
_cl}_d
/p{{635 0 91 -207 580 560 _sc
181 82 _m
181 -207 _l
91 -207 _l
91 547 _l
181 547 _l
181 464 _l
199 496 223 520 252 536 _c
281 552 316 560 356 560 _c
422 560 476 533 518 481 _c
559 428 580 359 580 273 _c
580 187 559 117 518 65 _c
476 13 422 -13 356 -13 _c
316 -13 281 -5 252 10 _c
223 25 199 49 181 82 _c
487 273 _m
487 339 473 390 446 428 _c
418 466 381 485 334 485 _c
}_e{286 485 249 466 222 428 _c
194 390 181 339 181 273 _c
181 207 194 155 222 117 _c
249 79 286 61 334 61 _c
381 61 418 79 446 117 _c
473 155 487 207 487 273 _c
_cl}_e}_d
/s{{521 0 54 -13 472 560 _sc
443 531 _m
443 446 _l
417 458 391 468 364 475 _c
336 481 308 485 279 485 _c
234 485 200 478 178 464 _c
156 450 145 430 145 403 _c
145 382 153 366 169 354 _c
185 342 217 330 265 320 _c
296 313 _l
360 299 405 279 432 255 _c
458 230 472 195 472 151 _c
472 100 452 60 412 31 _c
372 1 316 -13 246 -13 _c
216 -13 186 -10 154 -5 _c
}_e{122 0 89 8 54 20 _c
54 113 _l
87 95 120 82 152 74 _c
184 65 216 61 248 61 _c
290 61 323 68 346 82 _c
368 96 380 117 380 144 _c
380 168 371 187 355 200 _c
339 213 303 226 247 238 _c
216 245 _l
160 257 119 275 95 299 _c
70 323 58 356 58 399 _c
58 450 76 490 112 518 _c
148 546 200 560 268 560 _c
301 560 332 557 362 552 _c
391 547 418 540 443 531 _c
}_e{_cl}_e}_d
/t{392 0 27 0 368 702 _sc
183 702 _m
183 547 _l
368 547 _l
368 477 _l
183 477 _l
183 180 _l
183 135 189 106 201 94 _c
213 81 238 75 276 75 _c
368 75 _l
368 0 _l
276 0 _l
206 0 158 13 132 39 _c
106 65 93 112 93 180 _c
93 477 _l
27 477 _l
27 547 _l
93 547 _l
93 702 _l
183 702 _l
_cl}_d
end readonly def

/BuildGlyph
 {exch begin
 CharStrings exch
 2 copy known not{pop /.notdef}if
 true 3 1 roll get exec
 end}_d

/BuildChar {
 1 index /Encoding get exch get
 1 index /BuildGlyph get exec
}_d

FontName currentdict end definefont pop
%!PS-Adobe-3.0 Resource-Font
%%Title: DejaVu Sans Oblique
%%Copyright: Copyright (c) 2003 by Bitstream, Inc. All Rights Reserved. Copyright (c) 2006 by Tavmjong Bah. All Rights Reserved. DejaVu changes are in public domain 
%%Creator: Converted from TrueType to type 3 by PPR
25 dict begin
/_d{bind def}bind def
/_m{moveto}_d
/_l{lineto}_d
/_cl{closepath eofill}_d
/_c{curveto}_d
/_sc{7 -1 roll{setcachedevice}{pop pop pop pop pop pop}ifelse}_d
/_e{exec}_d
/FontName /DejaVuSans-Oblique def
/PaintType 0 def
/FontMatrix[.001 0 0 .001 0 0]def
/FontBBox[-1016 -350 1659 1068]def
/FontType 3 def
/Encoding [ /l /o /v ] def
/FontInfo 10 dict dup begin
/FamilyName (DejaVu Sans) def
/FullName (DejaVu Sans Oblique) def
/Notice (Copyright (c) 2003 by Bitstream, Inc. All Rights Reserved. Copyright (c) 2006 by Tavmjong Bah. All Rights Reserved. DejaVu changes are in public domain ) def
/Weight (Oblique) def
/Version (Version 2.35) def
/ItalicAngle -11.0 def
/isFixedPitch false def
/UnderlinePosition -130 def
/UnderlineThickness 90 def
end readonly def
/CharStrings 3 dict dup begin
/l{278 0 35 0 273 760 _sc
183 760 _m
273 760 _l
125 0 _l
35 0 _l
183 760 _l
_cl}_d
/o{{612 0 46 -13 566 560 _sc
254 -13 _m
190 -13 139 6 102 45 _c
64 84 46 138 46 207 _c
46 247 52 287 65 328 _c
77 369 94 404 115 432 _c
147 476 183 508 223 529 _c
263 549 308 560 358 560 _c
420 560 470 540 508 502 _c
546 463 566 412 566 350 _c
566 306 559 263 547 220 _c
534 177 517 142 497 114 _c
465 70 429 37 389 17 _c
349 -3 304 -13 254 -13 _c
139 210 _m
}_e{139 160 149 123 170 99 _c
190 74 222 62 264 62 _c
324 62 373 88 413 141 _c
453 193 473 260 473 341 _c
473 388 462 424 441 448 _c
420 472 389 484 348 484 _c
314 484 283 476 257 460 _c
231 444 207 420 187 388 _c
171 364 159 336 151 305 _c
143 274 139 242 139 210 _c
_cl}_e}_d
/v{592 0 72 0 604 547 _sc
72 547 _m
167 547 _l
247 82 _l
509 547 _l
604 547 _l
293 0 _l
172 0 _l
72 547 _l
_cl}_d
end readonly def

/BuildGlyph
 {exch begin
 CharStrings exch
 2 copy known not{pop /.notdef}if
 true 3 1 roll get exec
 end}_d

/BuildChar {
 1 index /Encoding get exch get
 1 index /BuildGlyph get exec
}_d

FontName currentdict end definefont pop
end
%%EndProlog
mpldict begin
40.882 263.01 translate
530.237 265.981 0 0 clipbox
gsave
0 0 m
530.236875 0 l
530.236875 265.980625 l
0 265.980625 l
cl
1.000 setgray
fill
grestore
gsave
44.10625 37.54375 m
378.90625 37.54375 l
378.90625 254.98375 l
44.10625 254.98375 l
cl
1.000 setgray
fill
grestore
1.500 setlinewidth
1 setlinejoin
2 setlinecap
[] 0 setdash
0.122 0.467 0.706 setrgbcolor
gsave
334.8 217.4 44.11 37.54 clipbox
44.130164 38.312118 m
47.891693 108.518439 l
51.653222 137.441765 l
55.414751 153.221775 l
59.17628 163.15866 l
62.93781 169.990861 l
66.699339 174.976826 l
70.460868 178.77583 l
74.222397 181.766639 l
77.983926 184.182361 l
81.745455 186.174318 l
85.506984 187.845022 l
89.268513 189.266391 l
93.030042 190.490364 l
96.791571 191.555392 l
100.5531 192.490548 l
104.314629 193.318223 l
108.076158 194.055939 l
111.837687 194.717606 l
115.599216 195.314408 l
119.360745 195.855438 l
123.122274 196.348164 l
126.883803 196.798778 l
130.645333 197.212459 l
134.406862 197.593568 l
138.168391 197.945807 l
141.92992 198.272336 l
145.691449 198.575871 l
149.452978 198.858758 l
153.214507 199.123035 l
156.976036 199.370479 l
160.737565 199.60265 l
164.499094 199.820919 l
168.260623 200.026498 l
172.022152 200.220463 l
175.783681 200.403771 l
179.54521 200.577277 l
183.306739 200.741746 l
187.068268 200.897867 l
190.829797 201.04626 l
194.591326 201.187483 l
198.352855 201.322046 l
202.114385 201.450408 l
205.875914 201.572987 l
209.637443 201.690167 l
213.398972 201.802296 l
217.160501 201.909694 l
220.92203 202.012655 l
224.683559 202.111447 l
228.445088 202.206318 l
232.206617 202.297499 l
235.968146 202.385199 l
239.729675 202.469615 l
243.491204 202.550927 l
247.252733 202.629304 l
251.014262 202.704901 l
254.775791 202.777865 l
258.53732 202.84833 l
262.298849 202.916422 l
266.060378 202.98226 l
269.821907 203.045953 l
273.583437 203.107605 l
277.344966 203.167312 l
281.106495 203.225164 l
284.868024 203.281248 l
288.629553 203.335642 l
292.391082 203.388422 l
296.152611 203.439659 l
299.91414 203.48942 l
303.675669 203.537767 l
307.437198 203.584759 l
311.198727 203.630454 l
314.960256 203.674903 l
318.721785 203.718158 l
322.483314 203.760265 l
326.244843 203.80127 l
330.006372 203.841216 l
333.767901 203.880142 l
337.52943 203.918088 l
341.290959 203.95509 l
345.052489 203.991183 l
348.814018 204.0264 l
352.575547 204.060772 l
356.337076 204.09433 l
360.098605 204.127102 l
363.860134 204.159116 l
367.621663 204.190396 l
371.383192 204.22097 l
375.144721 204.250859 l
378.90625 204.280087 l
stroke
grestore
1.000 0.498 0.055 setrgbcolor
gsave
334.8 217.4 44.11 37.54 clipbox
44.130164 38.453844 m
47.891693 121.609696 l
51.653222 155.86792 l
55.414751 174.558548 l
59.17628 186.328288 l
62.93781 194.420686 l
66.699339 200.326311 l
70.460868 204.826039 l
74.222397 208.368503 l
77.983926 211.229804 l
81.745455 213.589176 l
85.506984 215.568041 l
89.268513 217.251581 l
93.030042 218.701315 l
96.791571 219.962787 l
100.5531 221.070433 l
104.314629 222.050772 l
108.076158 222.924559 l
111.837687 223.708271 l
115.599216 224.415153 l
119.360745 225.055975 l
123.122274 225.639584 l
126.883803 226.173315 l
130.645333 226.663299 l
134.406862 227.114703 l
138.168391 227.531912 l
141.92992 227.918669 l
145.691449 228.278191 l
149.452978 228.613257 l
153.214507 228.926279 l
156.976036 229.219365 l
160.737565 229.49436 l
164.499094 229.752888 l
168.260623 229.996387 l
172.022152 230.226129 l
175.783681 230.443248 l
179.54521 230.648756 l
183.306739 230.843562 l
187.068268 231.028479 l
190.829797 231.204242 l
194.591326 231.371515 l
198.352855 231.530897 l
202.114385 231.682935 l
205.875914 231.828125 l
209.637443 231.966919 l
213.398972 232.09973 l
217.160501 232.226938 l
220.92203 232.348889 l
224.683559 232.465903 l
228.445088 232.578274 l
232.206617 232.686272 l
235.968146 232.790149 l
239.729675 232.890135 l
243.491204 232.986445 l
247.252733 233.079279 l
251.014262 233.16882 l
254.775791 233.255242 l
258.53732 233.338704 l
262.298849 233.419356 l
266.060378 233.497337 l
269.821907 233.572778 l
273.583437 233.645802 l
277.344966 233.716522 l
281.106495 233.785045 l
284.868024 233.851474 l
288.629553 233.915901 l
292.391082 233.978416 l
296.152611 234.039104 l
299.91414 234.098043 l
303.675669 234.155307 l
307.437198 234.210968 l
311.198727 234.265091 l
314.960256 234.317739 l
318.721785 234.368972 l
322.483314 234.418846 l
326.244843 234.467414 l
330.006372 234.514727 l
333.767901 234.560834 l
337.52943 234.605779 l
341.290959 234.649606 l
345.052489 234.692356 l
348.814018 234.734069 l
352.575547 234.774781 l
356.337076 234.814529 l
360.098605 234.853346 l
363.860134 234.891264 l
367.621663 234.928314 l
371.383192 234.964527 l
375.144721 234.999929 l
378.90625 235.034548 l
stroke
grestore
0.173 0.627 0.173 setrgbcolor
gsave
334.8 217.4 44.11 37.54 clipbox
44.130164 38.263707 m
47.891693 104.046646 l
51.653222 131.147644 l
55.414751 145.933427 l
59.17628 155.244234 l
62.93781 161.645969 l
66.699339 166.317791 l
70.460868 169.877437 l
74.222397 172.679809 l
77.983926 174.943327 l
81.745455 176.80978 l
85.506984 178.375221 l
89.268513 179.707035 l
93.030042 180.853891 l
96.791571 181.851817 l
100.5531 182.728053 l
104.314629 183.50358 l
108.076158 184.194816 l
111.837687 184.814795 l
115.599216 185.373995 l
119.360745 185.880936 l
123.122274 186.342618 l
126.883803 186.764841 l
130.645333 187.152458 l
134.406862 187.509555 l
138.168391 187.839601 l
141.92992 188.145557 l
145.691449 188.429967 l
149.452978 188.695031 l
153.214507 188.942657 l
156.976036 189.174511 l
160.737565 189.392054 l
164.499094 189.596571 l
168.260623 189.789197 l
172.022152 189.970942 l
175.783681 190.1427 l
179.54521 190.305274 l
183.306739 190.459381 l
187.068268 190.605665 l
190.829797 190.744708 l
194.591326 190.877034 l
198.352855 191.003118 l
202.114385 191.123392 l
205.875914 191.238249 l
209.637443 191.348046 l
213.398972 191.45311 l
217.160501 191.553742 l
220.92203 191.650215 l
224.683559 191.742783 l
228.445088 191.831677 l
232.206617 191.917112 l
235.968146 191.999287 l
239.729675 192.078384 l
243.491204 192.154573 l
247.252733 192.228012 l
251.014262 192.298846 l
254.775791 192.367213 l
258.53732 192.433238 l
262.298849 192.49704 l
266.060378 192.55873 l
269.821907 192.61841 l
273.583437 192.676177 l
277.344966 192.732122 l
281.106495 192.78633 l
284.868024 192.83888 l
288.629553 192.889847 l
292.391082 192.939302 l
296.152611 192.987311 l
299.91414 193.033936 l
303.675669 193.079237 l
307.437198 193.123269 l
311.198727 193.166084 l
314.960256 193.207733 l
318.721785 193.248262 l
322.483314 193.287717 l
326.244843 193.326138 l
330.006372 193.363567 l
333.767901 193.400041 l
337.52943 193.435596 l
341.290959 193.470266 l
345.052489 193.504085 l
348.814018 193.537083 l
352.575547 193.56929 l
356.337076 193.600734 l
360.098605 193.631441 l
363.860134 193.661437 l
367.621663 193.690747 l
371.383192 193.719394 l
375.144721 193.7474 l
378.90625 193.774786 l
stroke
grestore
0.839 0.153 0.157 setrgbcolor
gsave
334.8 217.4 44.11 37.54 clipbox
44.130164 38.460335 m
47.891693 122.20929 l
51.653222 156.711857 l
55.414751 175.535794 l
59.17628 187.389481 l
62.93781 195.539597 l
66.699339 201.487344 l
70.460868 206.019166 l
74.222397 209.586896 l
77.983926 212.468605 l
81.745455 214.844805 l
85.506984 216.837784 l
89.268513 218.533332 l
93.030042 219.993406 l
96.791571 221.263876 l
100.5531 222.379421 l
104.314629 223.366753 l
108.076158 224.246772 l
111.837687 225.036074 l
115.599216 225.747998 l
119.360745 226.39339 l
123.122274 226.981162 l
126.883803 227.518699 l
130.645333 228.012178 l
134.406862 228.466802 l
138.168391 228.886987 l
141.92992 229.276502 l
145.691449 229.638588 l
149.452978 229.976044 l
153.214507 230.291299 l
156.976036 230.586475 l
160.737565 230.863431 l
164.499094 231.123804 l
168.260623 231.369039 l
172.022152 231.600419 l
175.783681 231.819087 l
179.54521 232.026061 l
183.306739 232.222256 l
187.068268 232.408493 l
190.829797 232.585509 l
194.591326 232.753975 l
198.352855 232.914494 l
202.114385 233.067617 l
205.875914 233.213842 l
209.637443 233.353625 l
213.398972 233.487384 l
217.160501 233.615499 l
220.92203 233.73832 l
224.683559 233.856169 l
228.445088 233.969341 l
232.206617 234.07811 l
235.968146 234.182727 l
239.729675 234.283426 l
243.491204 234.380424 l
247.252733 234.473919 l
251.014262 234.564099 l
254.775791 234.651137 l
258.53732 234.735195 l
262.298849 234.816422 l
266.060378 234.894959 l
269.821907 234.970939 l
273.583437 235.044483 l
277.344966 235.115707 l
281.106495 235.18472 l
284.868024 235.251622 l
288.629553 235.316509 l
292.391082 235.37947 l
296.152611 235.440591 l
299.91414 235.49995 l
303.675669 235.557623 l
307.437198 235.61368 l
311.198727 235.668189 l
314.960256 235.721213 l
318.721785 235.772811 l
322.483314 235.82304 l
326.244843 235.871955 l
330.006372 235.919606 l
333.767901 235.966041 l
337.52943 236.011307 l
341.290959 236.055447 l
345.052489 236.098502 l
348.814018 236.140512 l
352.575547 236.181515 l
356.337076 236.221546 l
360.098605 236.260639 l
363.860134 236.298828 l
367.621663 236.336143 l
371.383192 236.372614 l
375.144721 236.408268 l
378.90625 236.443134 l
stroke
grestore
0.580 0.404 0.741 setrgbcolor
gsave
334.8 217.4 44.11 37.54 clipbox
44.130164 38.21045 m
47.891693 99.12727 l
51.653222 124.223544 l
55.414751 137.915588 l
59.17628 146.537652 l
62.93781 152.465836 l
66.699339 156.792073 l
70.460868 160.088403 l
74.222397 162.683477 l
77.983926 164.779558 l
81.745455 166.507944 l
85.506984 167.957586 l
89.268513 169.190883 l
93.030042 170.252903 l
96.791571 171.17701 l
100.5531 171.988429 l
104.314629 172.706588 l
108.076158 173.346691 l
111.837687 173.920809 l
115.599216 174.438644 l
119.360745 174.908086 l
123.122274 175.335616 l
126.883803 175.726606 l
130.645333 176.08555 l
134.406862 176.416232 l
138.168391 176.721863 l
141.92992 177.005187 l
145.691449 177.268559 l
149.452978 177.514015 l
153.214507 177.743324 l
156.976036 177.958027 l
160.737565 178.159478 l
164.499094 178.348866 l
168.260623 178.527244 l
172.022152 178.695544 l
175.783681 178.854597 l
179.54521 179.005145 l
183.306739 179.147852 l
187.068268 179.283315 l
190.829797 179.412073 l
194.591326 179.53461 l
198.352855 179.651368 l
202.114385 179.762745 l
205.875914 179.869106 l
209.637443 179.970781 l
213.398972 180.068073 l
217.160501 180.161261 l
220.92203 180.250597 l
224.683559 180.336318 l
228.445088 180.418636 l
232.206617 180.497752 l
235.968146 180.573848 l
239.729675 180.647094 l
243.491204 180.717647 l
247.252733 180.785653 l
251.014262 180.851248 l
254.775791 180.914557 l
258.53732 180.975698 l
262.298849 181.034781 l
266.060378 181.091907 l
269.821907 181.147172 l
273.583437 181.200667 l
277.344966 181.252473 l
281.106495 181.302671 l
284.868024 181.351334 l
288.629553 181.398531 l
292.391082 181.444327 l
296.152611 181.488785 l
299.91414 181.531961 l
303.675669 181.573911 l
307.437198 181.614686 l
311.198727 181.654334 l
314.960256 181.692902 l
318.721785 181.730433 l
322.483314 181.766969 l
326.244843 181.802548 l
330.006372 181.837208 l
333.767901 181.870984 l
337.52943 181.903909 l
341.290959 181.936015 l
345.052489 181.967333 l
348.814018 181.99789 l
352.575547 182.027714 l
356.337076 182.056832 l
360.098605 182.085267 l
363.860134 182.113045 l
367.621663 182.140187 l
371.383192 182.166714 l
375.144721 182.192649 l
378.90625 182.218009 l
stroke
grestore
0.549 0.337 0.294 setrgbcolor
gsave
334.8 217.4 44.11 37.54 clipbox
44.130164 38.380349 m
47.891693 114.820959 l
51.653222 146.312663 l
55.414751 163.493932 l
59.17628 174.313207 l
62.93781 181.752105 l
66.699339 187.180821 l
70.460868 191.317175 l
74.222397 194.573567 l
77.983926 197.203804 l
81.745455 199.372645 l
85.506984 201.191707 l
89.268513 202.739293 l
93.030042 204.071954 l
96.791571 205.231556 l
100.5531 206.249754 l
104.314629 207.150926 l
108.076158 207.954151 l
111.837687 208.674574 l
115.599216 209.324372 l
119.360745 209.913444 l
123.122274 210.449924 l
126.883803 210.940553 l
130.645333 211.390969 l
134.406862 211.80592 l
138.168391 212.189437 l
141.92992 212.544962 l
145.691449 212.87545 l
149.452978 213.183458 l
153.214507 213.471202 l
156.976036 213.74062 l
160.737565 213.993407 l
164.499094 214.231059 l
168.260623 214.454893 l
172.022152 214.666082 l
175.783681 214.865668 l
179.54521 215.054581 l
183.306739 215.233655 l
187.068268 215.403639 l
190.829797 215.565209 l
194.591326 215.718973 l
198.352855 215.865485 l
202.114385 216.005245 l
205.875914 216.13871 l
209.637443 216.266295 l
213.398972 216.388381 l
217.160501 216.505316 l
220.92203 216.617419 l
224.683559 216.724984 l
228.445088 216.82828 l
232.206617 216.927557 l
235.968146 217.023045 l
239.729675 217.114957 l
243.491204 217.20349 l
247.252733 217.288826 l
251.014262 217.371137 l
254.775791 217.45058 l
258.53732 217.527302 l
262.298849 217.601441 l
266.060378 217.673125 l
269.821907 217.742474 l
273.583437 217.8096 l
277.344966 217.874609 l
281.106495 217.937599 l
284.868024 217.998663 l
288.629553 218.057887 l
292.391082 218.115355 l
296.152611 218.171141 l
299.91414 218.225321 l
303.675669 218.277961 l
307.437198 218.329126 l
311.198727 218.378878 l
314.960256 218.427275 l
318.721785 218.474371 l
322.483314 218.520217 l
326.244843 218.564863 l
330.006372 218.608356 l
333.767901 218.650739 l
337.52943 218.692054 l
341.290959 218.732342 l
345.052489 218.77164 l
348.814018 218.809984 l
352.575547 218.847409 l
356.337076 218.883947 l
360.098605 218.919629 l
363.860134 218.954485 l
367.621663 218.988544 l
371.383192 219.021832 l
375.144721 219.054375 l
378.90625 219.086198 l
stroke
grestore
0.890 0.467 0.761 setrgbcolor
gsave
334.8 217.4 44.11 37.54 clipbox
44.130164 38.273336 m
47.891693 104.936098 l
51.653222 132.399562 l
55.414751 147.3831 l
59.17628 156.818436 l
62.93781 163.305792 l
66.699339 168.040098 l
70.460868 171.647352 l
74.222397 174.487206 l
77.983926 176.780997 l
81.745455 178.672413 l
85.506984 180.258791 l
89.268513 181.608418 l
93.030042 182.770613 l
96.791571 183.781885 l
100.5531 184.669841 l
104.314629 185.45574 l
108.076158 186.156221 l
111.837687 186.784492 l
115.599216 187.351171 l
119.360745 187.864893 l
123.122274 188.332749 l
126.883803 188.76062 l
130.645333 189.153421 l
134.406862 189.515294 l
138.168391 189.849754 l
141.92992 190.159802 l
145.691449 190.448016 l
149.452978 190.716625 l
153.214507 190.967563 l
156.976036 191.202518 l
160.737565 191.42297 l
164.499094 191.630222 l
168.260623 191.825425 l
172.022152 192.0096 l
175.783681 192.183656 l
179.54521 192.348405 l
183.306739 192.504572 l
187.068268 192.652813 l
190.829797 192.793716 l
194.591326 192.927811 l
198.352855 193.055582 l
202.114385 193.177465 l
205.875914 193.293858 l
209.637443 193.405123 l
213.398972 193.511593 l
217.160501 193.61357 l
220.92203 193.711334 l
224.683559 193.805139 l
228.445088 193.895222 l
232.206617 193.9818 l
235.968146 194.065074 l
239.729675 194.145229 l
243.491204 194.222437 l
247.252733 194.296858 l
251.014262 194.36864 l
254.775791 194.437921 l
258.53732 194.504829 l
262.298849 194.569484 l
266.060378 194.631999 l
269.821907 194.692477 l
273.583437 194.751017 l
277.344966 194.807711 l
281.106495 194.862643 l
284.868024 194.915896 l
288.629553 194.967545 l
292.391082 195.017661 l
296.152611 195.066312 l
299.91414 195.113561 l
303.675669 195.159468 l
307.437198 195.204089 l
311.198727 195.247477 l
314.960256 195.289683 l
318.721785 195.330754 l
322.483314 195.370736 l
326.244843 195.409671 l
330.006372 195.447601 l
333.767901 195.484562 l
337.52943 195.520593 l
341.290959 195.555728 l
345.052489 195.589999 l
348.814018 195.623438 l
352.575547 195.656076 l
356.337076 195.68794 l
360.098605 195.719058 l
363.860134 195.749455 l
367.621663 195.779157 l
371.383192 195.808187 l
375.144721 195.836568 l
378.90625 195.86432 l
stroke
grestore
0.498 setgray
gsave
334.8 217.4 44.11 37.54 clipbox
44.130164 38.484938 m
47.891693 124.481879 l
51.653222 159.910563 l
55.414751 179.239772 l
59.17628 191.411635 l
62.93781 199.780517 l
66.699339 205.887912 l
70.460868 210.541377 l
74.222397 214.204872 l
77.983926 217.163932 l
81.745455 219.603914 l
85.506984 221.650389 l
89.268513 223.391448 l
93.030042 224.890714 l
96.791571 226.195285 l
100.5531 227.340774 l
104.314629 228.354607 l
108.076158 229.258248 l
111.837687 230.068736 l
115.599216 230.79977 l
119.360745 231.462486 l
123.122274 232.066034 l
126.883803 232.618 l
130.645333 233.124725 l
134.406862 233.591552 l
138.168391 234.023015 l
141.92992 234.422986 l
145.691449 234.794791 l
149.452978 235.141305 l
153.214507 235.465022 l
156.976036 235.768121 l
160.737565 236.052511 l
164.499094 236.319873 l
168.260623 236.57169 l
172.022152 236.809282 l
175.783681 237.033819 l
179.54521 237.246349 l
183.306739 237.44781 l
187.068268 237.639045 l
190.829797 237.820814 l
194.591326 237.993801 l
198.352855 238.158629 l
202.114385 238.315862 l
205.875914 238.466012 l
209.637443 238.609547 l
213.398972 238.746896 l
217.160501 238.87845 l
220.92203 239.004568 l
224.683559 239.12558 l
228.445088 239.24179 l
232.206617 239.353478 l
235.968146 239.460904 l
239.729675 239.564306 l
243.491204 239.663907 l
247.252733 239.759912 l
251.014262 239.852513 l
254.775791 239.941887 l
258.53732 240.028201 l
262.298849 240.111608 l
266.060378 240.192254 l
269.821907 240.270273 l
273.583437 240.345791 l
277.344966 240.418927 l
281.106495 240.489792 l
284.868024 240.55849 l
288.629553 240.625118 l
292.391082 240.68977 l
296.152611 240.752531 l
299.91414 240.813483 l
303.675669 240.872704 l
307.437198 240.930266 l
311.198727 240.986238 l
314.960256 241.040685 l
318.721785 241.093668 l
322.483314 241.145246 l
326.244843 241.195474 l
330.006372 241.244404 l
333.767901 241.292086 l
337.52943 241.338566 l
341.290959 241.383891 l
345.052489 241.428102 l
348.814018 241.471239 l
352.575547 241.513343 l
356.337076 241.554448 l
360.098605 241.594591 l
363.860134 241.633805 l
367.621663 241.672122 l
371.383192 241.709571 l
375.144721 241.746183 l
378.90625 241.781985 l
stroke
grestore
0.800 setlinewidth
0 setlinecap
0.000 setgray
gsave
/o {
gsave
newpath
translate
0.8 setlinewidth
1 setlinejoin
0 setlinecap
0 0 m
0 -3.5 l

gsave
0.000 setgray
fill
grestore
stroke
grestore
} bind def
44.1063 37.5438 o
grestore
/DejaVuSans findfont
10.000 scalefont
setfont
gsave
40.926563 22.950000 translate
0.000000 rotate
0.000000 0.000000 m /zero glyphshow
grestore
gsave
/o {
gsave
newpath
translate
0.8 setlinewidth
1 setlinejoin
0 setlinecap
0 0 m
0 -3.5 l

gsave
0.000 setgray
fill
grestore
stroke
grestore
} bind def
91.9348 37.5438 o
grestore
gsave
85.575446 22.950000 translate
0.000000 rotate
0.000000 0.000000 m /two glyphshow
6.362305 0.000000 m /zero glyphshow
grestore
gsave
/o {
gsave
newpath
translate
0.8 setlinewidth
1 setlinejoin
0 setlinecap
0 0 m
0 -3.5 l

gsave
0.000 setgray
fill
grestore
stroke
grestore
} bind def
139.763 37.5438 o
grestore
gsave
133.404018 22.950000 translate
0.000000 rotate
0.000000 0.000000 m /four glyphshow
6.362305 0.000000 m /zero glyphshow
grestore
gsave
/o {
gsave
newpath
translate
0.8 setlinewidth
1 setlinejoin
0 setlinecap
0 0 m
0 -3.5 l

gsave
0.000 setgray
fill
grestore
stroke
grestore
} bind def
187.592 37.5438 o
grestore
gsave
181.232589 22.950000 translate
0.000000 rotate
0.000000 0.000000 m /six glyphshow
6.362305 0.000000 m /zero glyphshow
grestore
gsave
/o {
gsave
newpath
translate
0.8 setlinewidth
1 setlinejoin
0 setlinecap
0 0 m
0 -3.5 l

gsave
0.000 setgray
fill
grestore
stroke
grestore
} bind def
235.421 37.5438 o
grestore
gsave
229.061161 22.950000 translate
0.000000 rotate
0.000000 0.000000 m /eight glyphshow
6.362305 0.000000 m /zero glyphshow
grestore
gsave
/o {
gsave
newpath
translate
0.8 setlinewidth
1 setlinejoin
0 setlinecap
0 0 m
0 -3.5 l

gsave
0.000 setgray
fill
grestore
stroke
grestore
} bind def
283.249 37.5438 o
grestore
gsave
273.710045 22.950000 translate
0.000000 rotate
0.000000 0.000000 m /one glyphshow
6.362305 0.000000 m /zero glyphshow
12.724609 0.000000 m /zero glyphshow
grestore
gsave
/o {
gsave
newpath
translate
0.8 setlinewidth
1 setlinejoin
0 setlinecap
0 0 m
0 -3.5 l

gsave
0.000 setgray
fill
grestore
stroke
grestore
} bind def
331.078 37.5438 o
grestore
gsave
321.538616 22.950000 translate
0.000000 rotate
0.000000 0.000000 m /one glyphshow
6.362305 0.000000 m /two glyphshow
12.724609 0.000000 m /zero glyphshow
grestore
gsave
/o {
gsave
newpath
translate
0.8 setlinewidth
1 setlinejoin
0 setlinecap
0 0 m
0 -3.5 l

gsave
0.000 setgray
fill
grestore
stroke
grestore
} bind def
378.906 37.5438 o
grestore
gsave
369.367188 22.950000 translate
0.000000 rotate
0.000000 0.000000 m /one glyphshow
6.362305 0.000000 m /four glyphshow
12.724609 0.000000 m /zero glyphshow
grestore
gsave
151.967188 9.278125 translate
0.000000 rotate
0.000000 0.000000 m /B glyphshow
6.860352 0.000000 m /e glyphshow
13.012695 0.000000 m /a glyphshow
19.140625 0.000000 m /m glyphshow
28.881836 0.000000 m /space glyphshow
32.060547 0.000000 m /C glyphshow
39.042969 0.000000 m /o glyphshow
45.161133 0.000000 m /l glyphshow
47.939453 0.000000 m /l glyphshow
50.717773 0.000000 m /i glyphshow
53.496094 0.000000 m /m glyphshow
63.237305 0.000000 m /a glyphshow
69.365234 0.000000 m /t glyphshow
73.286133 0.000000 m /i glyphshow
76.064453 0.000000 m /o glyphshow
82.182617 0.000000 m /n glyphshow
88.520508 0.000000 m /space glyphshow
91.699219 0.000000 m /parenleft glyphshow
95.600586 0.000000 m /m glyphshow
105.341797 0.000000 m /m glyphshow
115.083008 0.000000 m /parenright glyphshow
grestore
gsave
/o {
gsave
newpath
translate
0.8 setlinewidth
1 setlinejoin
0 setlinecap
0 0 m
-3.5 0 l

gsave
0.000 setgray
fill
grestore
stroke
grestore
} bind def
44.1063 37.5438 o
grestore
gsave
21.200000 33.746875 translate
0.000000 rotate
0.000000 0.000000 m /zero glyphshow
6.362305 0.000000 m /period glyphshow
9.541016 0.000000 m /zero glyphshow
grestore
gsave
/o {
gsave
newpath
translate
0.8 setlinewidth
1 setlinejoin
0 setlinecap
0 0 m
-3.5 0 l

gsave
0.000 setgray
fill
grestore
stroke
grestore
} bind def
44.1063 61.7037 o
grestore
gsave
21.200000 57.906875 translate
0.000000 rotate
0.000000 0.000000 m /zero glyphshow
6.362305 0.000000 m /period glyphshow
9.541016 0.000000 m /two glyphshow
grestore
gsave
/o {
gsave
newpath
translate
0.8 setlinewidth
1 setlinejoin
0 setlinecap
0 0 m
-3.5 0 l

gsave
0.000 setgray
fill
grestore
stroke
grestore
} bind def
44.1063 85.8638 o
grestore
gsave
21.200000 82.066875 translate
0.000000 rotate
0.000000 0.000000 m /zero glyphshow
6.362305 0.000000 m /period glyphshow
9.541016 0.000000 m /four glyphshow
grestore
gsave
/o {
gsave
newpath
translate
0.8 setlinewidth
1 setlinejoin
0 setlinecap
0 0 m
-3.5 0 l

gsave
0.000 setgray
fill
grestore
stroke
grestore
} bind def
44.1063 110.024 o
grestore
gsave
21.200000 106.226875 translate
0.000000 rotate
0.000000 0.000000 m /zero glyphshow
6.362305 0.000000 m /period glyphshow
9.541016 0.000000 m /six glyphshow
grestore
gsave
/o {
gsave
newpath
translate
0.8 setlinewidth
1 setlinejoin
0 setlinecap
0 0 m
-3.5 0 l

gsave
0.000 setgray
fill
grestore
stroke
grestore
} bind def
44.1063 134.184 o
grestore
gsave
21.200000 130.386875 translate
0.000000 rotate
0.000000 0.000000 m /zero glyphshow
6.362305 0.000000 m /period glyphshow
9.541016 0.000000 m /eight glyphshow
grestore
gsave
/o {
gsave
newpath
translate
0.8 setlinewidth
1 setlinejoin
0 setlinecap
0 0 m
-3.5 0 l

gsave
0.000 setgray
fill
grestore
stroke
grestore
} bind def
44.1063 158.344 o
grestore
gsave
21.200000 154.546875 translate
0.000000 rotate
0.000000 0.000000 m /one glyphshow
6.362305 0.000000 m /period glyphshow
9.541016 0.000000 m /zero glyphshow
grestore
gsave
/o {
gsave
newpath
translate
0.8 setlinewidth
1 setlinejoin
0 setlinecap
0 0 m
-3.5 0 l

gsave
0.000 setgray
fill
grestore
stroke
grestore
} bind def
44.1063 182.504 o
grestore
gsave
21.200000 178.706875 translate
0.000000 rotate
0.000000 0.000000 m /one glyphshow
6.362305 0.000000 m /period glyphshow
9.541016 0.000000 m /two glyphshow
grestore
gsave
/o {
gsave
newpath
translate
0.8 setlinewidth
1 setlinejoin
0 setlinecap
0 0 m
-3.5 0 l

gsave
0.000 setgray
fill
grestore
stroke
grestore
} bind def
44.1063 206.664 o
grestore
gsave
21.200000 202.866875 translate
0.000000 rotate
0.000000 0.000000 m /one glyphshow
6.362305 0.000000 m /period glyphshow
9.541016 0.000000 m /four glyphshow
grestore
gsave
/o {
gsave
newpath
translate
0.8 setlinewidth
1 setlinejoin
0 setlinecap
0 0 m
-3.5 0 l

gsave
0.000 setgray
fill
grestore
stroke
grestore
} bind def
44.1063 230.824 o
grestore
gsave
21.200000 227.026875 translate
0.000000 rotate
0.000000 0.000000 m /one glyphshow
6.362305 0.000000 m /period glyphshow
9.541016 0.000000 m /six glyphshow
grestore
gsave
/o {
gsave
newpath
translate
0.8 setlinewidth
1 setlinejoin
0 setlinecap
0 0 m
-3.5 0 l

gsave
0.000 setgray
fill
grestore
stroke
grestore
} bind def
44.1063 254.984 o
grestore
gsave
21.200000 251.186875 translate
0.000000 rotate
0.000000 0.000000 m /one glyphshow
6.362305 0.000000 m /period glyphshow
9.541016 0.000000 m /eight glyphshow
grestore
gsave
15.121875 114.263750 translate
90.000000 rotate
/DejaVuSans findfont
10.0 scalefont
setfont
0.000000 0.578125 moveto
/D glyphshow

7.700195 0.578125 moveto
/o glyphshow

13.818359 0.578125 moveto
/s glyphshow

19.028320 0.578125 moveto
/e glyphshow

25.180664 0.578125 moveto
/slash glyphshow

28.549805 0.578125 moveto
/C glyphshow

35.532227 0.578125 moveto
/T glyphshow

41.640625 0.578125 moveto
/D glyphshow

49.340820 0.578125 moveto
/I glyphshow

/DejaVuSans-Oblique findfont
7.0 scalefont
setfont
52.385742 -1.062500 moveto
/v glyphshow

56.528320 -1.062500 moveto
/o glyphshow

60.811035 -1.062500 moveto
/l glyphshow


grestore
1.000 setlinewidth
0.122 0.467 0.706 setrgbcolor
gsave
334.8 217.4 44.11 37.54 clipbox
/o {
gsave
newpath
translate
1.0 setlinewidth
1 setlinejoin
0 setlinecap
0 -2.5 m
0.663008 -2.5 1.29895 -2.236584 1.767767 -1.767767 c
2.236584 -1.29895 2.5 -0.663008 2.5 0 c
2.5 0.663008 2.236584 1.29895 1.767767 1.767767 c
1.29895 2.236584 0.663008 2.5 0 2.5 c
-0.663008 2.5 -1.29895 2.236584 -1.767767 1.767767 c
-2.236584 1.29895 -2.5 0.663008 -2.5 0 c
-2.5 -0.663008 -2.236584 -1.29895 -1.767767 -1.767767 c
-1.29895 -2.236584 -0.663008 -2.5 0 -2.5 c
cl

gsave
0.122 0.467 0.706 setrgbcolor
fill
grestore
stroke
grestore
} bind def
139.763 205.862 o
91.9348 184.358 o
68.0205 173.801 o
grestore
1.000 0.498 0.055 setrgbcolor
gsave
334.8 217.4 44.11 37.54 clipbox
/o {
gsave
newpath
translate
1.0 setlinewidth
1 setlinejoin
0 setlinecap
0 -2.5 m
0.663008 -2.5 1.29895 -2.236584 1.767767 -1.767767 c
2.236584 -1.29895 2.5 -0.663008 2.5 0 c
2.5 0.663008 2.236584 1.29895 1.767767 1.767767 c
1.29895 2.236584 0.663008 2.5 0 2.5 c
-0.663008 2.5 -1.29895 2.236584 -1.767767 1.767767 c
-2.236584 1.29895 -2.5 0.663008 -2.5 0 c
-2.5 -0.663008 -2.236584 -1.29895 -1.767767 -1.767767 c
-1.29895 -2.236584 -0.663008 -2.5 0 -2.5 c
cl

gsave
1.000 0.498 0.055 setrgbcolor
fill
grestore
stroke
grestore
} bind def
139.763 234.052 o
91.9348 213.57 o
68.0205 199.892 o
grestore
0.173 0.627 0.173 setrgbcolor
gsave
334.8 217.4 44.11 37.54 clipbox
/o {
gsave
newpath
translate
1.0 setlinewidth
1 setlinejoin
0 setlinecap
0 -2.5 m
0.663008 -2.5 1.29895 -2.236584 1.767767 -1.767767 c
2.236584 -1.29895 2.5 -0.663008 2.5 0 c
2.5 0.663008 2.236584 1.29895 1.767767 1.767767 c
1.29895 2.236584 0.663008 2.5 0 2.5 c
-0.663008 2.5 -1.29895 2.236584 -1.767767 1.767767 c
-2.236584 1.29895 -2.5 0.663008 -2.5 0 c
-2.5 -0.663008 -2.236584 -1.29895 -1.767767 -1.767767 c
-1.29895 -2.236584 -0.663008 -2.5 0 -2.5 c
cl

gsave
0.173 0.627 0.173 setrgbcolor
fill
grestore
stroke
grestore
} bind def
139.763 200.183 o
91.9348 168.395 o
68.0205 166.897 o
grestore
0.839 0.153 0.157 setrgbcolor
gsave
334.8 217.4 44.11 37.54 clipbox
/o {
gsave
newpath
translate
1.0 setlinewidth
1 setlinejoin
0 setlinecap
0 -2.5 m
0.663008 -2.5 1.29895 -2.236584 1.767767 -1.767767 c
2.236584 -1.29895 2.5 -0.663008 2.5 0 c
2.5 0.663008 2.236584 1.29895 1.767767 1.767767 c
1.29895 2.236584 0.663008 2.5 0 2.5 c
-0.663008 2.5 -1.29895 2.236584 -1.767767 1.767767 c
-2.236584 1.29895 -2.5 0.663008 -2.5 0 c
-2.5 -0.663008 -2.236584 -1.29895 -1.767767 -1.767767 c
-1.29895 -2.236584 -0.663008 -2.5 0 -2.5 c
cl

gsave
0.839 0.153 0.157 setrgbcolor
fill
grestore
stroke
grestore
} bind def
139.763 225.695 o
91.9348 217.304 o
68.0205 209.613 o
grestore
0.580 0.404 0.741 setrgbcolor
gsave
334.8 217.4 44.11 37.54 clipbox
/o {
gsave
newpath
translate
1.0 setlinewidth
1 setlinejoin
0 setlinecap
0 -2.5 m
0.663008 -2.5 1.29895 -2.236584 1.767767 -1.767767 c
2.236584 -1.29895 2.5 -0.663008 2.5 0 c
2.5 0.663008 2.236584 1.29895 1.767767 1.767767 c
1.29895 2.236584 0.663008 2.5 0 2.5 c
-0.663008 2.5 -1.29895 2.236584 -1.767767 1.767767 c
-2.236584 1.29895 -2.5 0.663008 -2.5 0 c
-2.5 -0.663008 -2.236584 -1.29895 -1.767767 -1.767767 c
-1.29895 -2.236584 -0.663008 -2.5 0 -2.5 c
cl

gsave
0.580 0.404 0.741 setrgbcolor
fill
grestore
stroke
grestore
} bind def
139.763 175.296 o
91.9348 169.354 o
68.0205 160.502 o
grestore
0.549 0.337 0.294 setrgbcolor
gsave
334.8 217.4 44.11 37.54 clipbox
/o {
gsave
newpath
translate
1.0 setlinewidth
1 setlinejoin
0 setlinecap
0 -2.5 m
0.663008 -2.5 1.29895 -2.236584 1.767767 -1.767767 c
2.236584 -1.29895 2.5 -0.663008 2.5 0 c
2.5 0.663008 2.236584 1.29895 1.767767 1.767767 c
1.29895 2.236584 0.663008 2.5 0 2.5 c
-0.663008 2.5 -1.29895 2.236584 -1.767767 1.767767 c
-2.236584 1.29895 -2.5 0.663008 -2.5 0 c
-2.5 -0.663008 -2.236584 -1.29895 -1.767767 -1.767767 c
-1.29895 -2.236584 -0.663008 -2.5 0 -2.5 c
cl

gsave
0.549 0.337 0.294 setrgbcolor
fill
grestore
stroke
grestore
} bind def
139.763 210.522 o
91.9348 200.724 o
68.0205 194.137 o
grestore
0.890 0.467 0.761 setrgbcolor
gsave
334.8 217.4 44.11 37.54 clipbox
/o {
gsave
newpath
translate
1.0 setlinewidth
1 setlinejoin
0 setlinecap
0 -2.5 m
0.663008 -2.5 1.29895 -2.236584 1.767767 -1.767767 c
2.236584 -1.29895 2.5 -0.663008 2.5 0 c
2.5 0.663008 2.236584 1.29895 1.767767 1.767767 c
1.29895 2.236584 0.663008 2.5 0 2.5 c
-0.663008 2.5 -1.29895 2.236584 -1.767767 1.767767 c
-2.236584 1.29895 -2.5 0.663008 -2.5 0 c
-2.5 -0.663008 -2.236584 -1.29895 -1.767767 -1.767767 c
-1.29895 -2.236584 -0.663008 -2.5 0 -2.5 c
cl

gsave
0.890 0.467 0.761 setrgbcolor
fill
grestore
stroke
grestore
} bind def
139.763 195.854 o
91.9348 181.175 o
68.0205 164.026 o
grestore
0.498 setgray
gsave
334.8 217.4 44.11 37.54 clipbox
/o {
gsave
newpath
translate
1.0 setlinewidth
1 setlinejoin
0 setlinecap
0 -2.5 m
0.663008 -2.5 1.29895 -2.236584 1.767767 -1.767767 c
2.236584 -1.29895 2.5 -0.663008 2.5 0 c
2.5 0.663008 2.236584 1.29895 1.767767 1.767767 c
1.29895 2.236584 0.663008 2.5 0 2.5 c
-0.663008 2.5 -1.29895 2.236584 -1.767767 1.767767 c
-2.236584 1.29895 -2.5 0.663008 -2.5 0 c
-2.5 -0.663008 -2.236584 -1.29895 -1.767767 -1.767767 c
-1.29895 -2.236584 -0.663008 -2.5 0 -2.5 c
cl

gsave
0.498 setgray
fill
grestore
stroke
grestore
} bind def
139.763 227.94 o
91.9348 225.887 o
68.0205 213.345 o
grestore
0.800 setlinewidth
0 setlinejoin
2 setlinecap
[] 0 setdash
0.000 setgray
gsave
44.10625 37.54375 m
44.10625 254.98375 l
stroke
grestore
gsave
378.90625 37.54375 m
378.90625 254.98375 l
stroke
grestore
gsave
44.10625 37.54375 m
378.90625 37.54375 l
stroke
grestore
gsave
44.10625 254.98375 m
378.90625 254.98375 l
stroke
grestore
1.000 setlinewidth
0 setlinecap
0.800 setgray
gsave
402.64625 129.60875 m
521.036875 129.60875 l
522.370208 129.60875 523.036875 130.275417 523.036875 131.60875 c
523.036875 247.98375 l
523.036875 249.317083 522.370208 249.98375 521.036875 249.98375 c
402.64625 249.98375 l
401.312917 249.98375 400.64625 249.317083 400.64625 247.98375 c
400.64625 131.60875 l
400.64625 130.275417 401.312917 129.60875 402.64625 129.60875 c
cl
gsave
1.000 setgray
fill
grestore
stroke
grestore
1.500 setlinewidth
1 setlinejoin
2 setlinecap
[] 0 setdash
0.122 0.467 0.706 setrgbcolor
gsave
404.64625 241.89 m
424.64625 241.89 l
stroke
grestore
0.000 setgray
gsave
432.646250 238.390000 translate
0.000000 rotate
0.000000 0.000000 m /four glyphshow
6.362305 0.000000 m /zero glyphshow
12.724609 0.000000 m /space glyphshow
15.903320 0.000000 m /m glyphshow
25.644531 0.000000 m /m glyphshow
35.385742 0.000000 m /slash glyphshow
38.754883 0.000000 m /eight glyphshow
45.117188 0.000000 m /zero glyphshow
51.479492 0.000000 m /space glyphshow
54.658203 0.000000 m /k glyphshow
60.449219 0.000000 m /V glyphshow
67.290039 0.000000 m /p glyphshow
grestore
1.000 0.498 0.055 setrgbcolor
gsave
404.64625 227.218125 m
424.64625 227.218125 l
stroke
grestore
0.000 setgray
gsave
432.646250 223.718125 translate
0.000000 rotate
0.000000 0.000000 m /one glyphshow
6.362305 0.000000 m /two glyphshow
12.724609 0.000000 m /zero glyphshow
19.086914 0.000000 m /space glyphshow
22.265625 0.000000 m /m glyphshow
32.006836 0.000000 m /m glyphshow
41.748047 0.000000 m /slash glyphshow
45.117188 0.000000 m /eight glyphshow
51.479492 0.000000 m /zero glyphshow
57.841797 0.000000 m /space glyphshow
61.020508 0.000000 m /k glyphshow
66.811523 0.000000 m /V glyphshow
73.652344 0.000000 m /p glyphshow
grestore
0.173 0.627 0.173 setrgbcolor
gsave
404.64625 212.54625 m
424.64625 212.54625 l
stroke
grestore
0.000 setgray
gsave
432.646250 209.046250 translate
0.000000 rotate
0.000000 0.000000 m /four glyphshow
6.362305 0.000000 m /zero glyphshow
12.724609 0.000000 m /space glyphshow
15.903320 0.000000 m /m glyphshow
25.644531 0.000000 m /m glyphshow
35.385742 0.000000 m /slash glyphshow
38.754883 0.000000 m /one glyphshow
45.117188 0.000000 m /zero glyphshow
51.479492 0.000000 m /zero glyphshow
57.841797 0.000000 m /space glyphshow
61.020508 0.000000 m /k glyphshow
66.811523 0.000000 m /V glyphshow
73.652344 0.000000 m /p glyphshow
grestore
0.839 0.153 0.157 setrgbcolor
gsave
404.64625 197.874375 m
424.64625 197.874375 l
stroke
grestore
0.000 setgray
gsave
432.646250 194.374375 translate
0.000000 rotate
0.000000 0.000000 m /one glyphshow
6.362305 0.000000 m /two glyphshow
12.724609 0.000000 m /zero glyphshow
19.086914 0.000000 m /space glyphshow
22.265625 0.000000 m /m glyphshow
32.006836 0.000000 m /m glyphshow
41.748047 0.000000 m /slash glyphshow
45.117188 0.000000 m /one glyphshow
51.479492 0.000000 m /zero glyphshow
57.841797 0.000000 m /zero glyphshow
64.204102 0.000000 m /space glyphshow
67.382812 0.000000 m /k glyphshow
73.173828 0.000000 m /V glyphshow
80.014648 0.000000 m /p glyphshow
grestore
0.580 0.404 0.741 setrgbcolor
gsave
404.64625 183.2025 m
424.64625 183.2025 l
stroke
grestore
0.000 setgray
gsave
432.646250 179.702500 translate
0.000000 rotate
0.000000 0.000000 m /four glyphshow
6.362305 0.000000 m /zero glyphshow
12.724609 0.000000 m /space glyphshow
15.903320 0.000000 m /m glyphshow
25.644531 0.000000 m /m glyphshow
35.385742 0.000000 m /slash glyphshow
38.754883 0.000000 m /one glyphshow
45.117188 0.000000 m /two glyphshow
51.479492 0.000000 m /zero glyphshow
57.841797 0.000000 m /space glyphshow
61.020508 0.000000 m /k glyphshow
66.811523 0.000000 m /V glyphshow
73.652344 0.000000 m /p glyphshow
grestore
0.549 0.337 0.294 setrgbcolor
gsave
404.64625 168.530625 m
424.64625 168.530625 l
stroke
grestore
0.000 setgray
gsave
432.646250 165.030625 translate
0.000000 rotate
0.000000 0.000000 m /one glyphshow
6.362305 0.000000 m /two glyphshow
12.724609 0.000000 m /zero glyphshow
19.086914 0.000000 m /space glyphshow
22.265625 0.000000 m /m glyphshow
32.006836 0.000000 m /m glyphshow
41.748047 0.000000 m /slash glyphshow
45.117188 0.000000 m /one glyphshow
51.479492 0.000000 m /two glyphshow
57.841797 0.000000 m /zero glyphshow
64.204102 0.000000 m /space glyphshow
67.382812 0.000000 m /k glyphshow
73.173828 0.000000 m /V glyphshow
80.014648 0.000000 m /p glyphshow
grestore
0.890 0.467 0.761 setrgbcolor
gsave
404.64625 153.85875 m
424.64625 153.85875 l
stroke
grestore
0.000 setgray
gsave
432.646250 150.358750 translate
0.000000 rotate
0.000000 0.000000 m /four glyphshow
6.362305 0.000000 m /zero glyphshow
12.724609 0.000000 m /space glyphshow
15.903320 0.000000 m /m glyphshow
25.644531 0.000000 m /m glyphshow
35.385742 0.000000 m /slash glyphshow
38.754883 0.000000 m /one glyphshow
45.117188 0.000000 m /four glyphshow
51.479492 0.000000 m /zero glyphshow
57.841797 0.000000 m /space glyphshow
61.020508 0.000000 m /k glyphshow
66.811523 0.000000 m /V glyphshow
73.652344 0.000000 m /p glyphshow
grestore
0.498 setgray
gsave
404.64625 139.186875 m
424.64625 139.186875 l
stroke
grestore
0.000 setgray
gsave
432.646250 135.686875 translate
0.000000 rotate
0.000000 0.000000 m /one glyphshow
6.362305 0.000000 m /two glyphshow
12.724609 0.000000 m /zero glyphshow
19.086914 0.000000 m /space glyphshow
22.265625 0.000000 m /m glyphshow
32.006836 0.000000 m /m glyphshow
41.748047 0.000000 m /slash glyphshow
45.117188 0.000000 m /one glyphshow
51.479492 0.000000 m /four glyphshow
57.841797 0.000000 m /zero glyphshow
64.204102 0.000000 m /space glyphshow
67.382812 0.000000 m /k glyphshow
73.173828 0.000000 m /V glyphshow
80.014648 0.000000 m /p glyphshow
grestore

end
showpage
