%!PS-Adobe-3.0 EPSF-3.0
%%Title: klength.eps
%%Creator: matplotlib version 2.0.0, http://matplotlib.org/
%%CreationDate: Sat May 13 11:42:30 2017
%%Orientation: portrait
%%BoundingBox: 44 263 567 528
%%EndComments
%%BeginProlog
/mpldict 9 dict def
mpldict begin
/m { moveto } bind def
/l { lineto } bind def
/r { rlineto } bind def
/c { curveto } bind def
/cl { closepath } bind def
/box {
m
1 index 0 r
0 exch r
neg 0 r
cl
} bind def
/clipbox {
box
clip
newpath
} bind def
%!PS-Adobe-3.0 Resource-Font
%%Title: DejaVu Sans
%%Copyright: Copyright (c) 2003 by Bitstream, Inc. All Rights Reserved. Copyright (c) 2006 by Tavmjong Bah. All Rights Reserved. DejaVu changes are in public domain 
%%Creator: Converted from TrueType to type 3 by PPR
25 dict begin
/_d{bind def}bind def
/_m{moveto}_d
/_l{lineto}_d
/_cl{closepath eofill}_d
/_c{curveto}_d
/_sc{7 -1 roll{setcachedevice}{pop pop pop pop pop pop}ifelse}_d
/_e{exec}_d
/FontName /DejaVuSans def
/PaintType 0 def
/FontMatrix[.001 0 0 .001 0 0]def
/FontBBox[-1021 -463 1793 1232]def
/FontType 3 def
/Encoding [ /space /parenleft /parenright /period /slash /zero /one /two /four /six /eight /C /D /I /S /T /V /a /c /e /g /h /k /l /m /n /o /p /s /t ] def
/FontInfo 10 dict dup begin
/FamilyName (DejaVu Sans) def
/FullName (DejaVu Sans) def
/Notice (Copyright (c) 2003 by Bitstream, Inc. All Rights Reserved. Copyright (c) 2006 by Tavmjong Bah. All Rights Reserved. DejaVu changes are in public domain ) def
/Weight (Book) def
/Version (Version 2.35) def
/ItalicAngle 0.0 def
/isFixedPitch false def
/UnderlinePosition -130 def
/UnderlineThickness 90 def
end readonly def
/CharStrings 30 dict dup begin
/space{318 0 0 0 0 0 _sc
}_d
/parenleft{390 0 86 -131 310 759 _sc
310 759 _m
266 683 234 609 213 536 _c
191 463 181 389 181 314 _c
181 238 191 164 213 91 _c
234 17 266 -56 310 -131 _c
232 -131 _l
183 -54 146 20 122 94 _c
98 168 86 241 86 314 _c
86 386 98 459 122 533 _c
146 607 182 682 232 759 _c
310 759 _l
_cl}_d
/parenright{390 0 80 -131 304 759 _sc
80 759 _m
158 759 _l
206 682 243 607 267 533 _c
291 459 304 386 304 314 _c
304 241 291 168 267 94 _c
243 20 206 -54 158 -131 _c
80 -131 _l
123 -56 155 17 177 91 _c
198 164 209 238 209 314 _c
209 389 198 463 177 536 _c
155 609 123 683 80 759 _c
_cl}_d
/period{318 0 107 0 210 124 _sc
107 124 _m
210 124 _l
210 0 _l
107 0 _l
107 124 _l
_cl}_d
/slash{337 0 0 -92 337 729 _sc
254 729 _m
337 729 _l
83 -92 _l
0 -92 _l
254 729 _l
_cl}_d
/zero{636 0 66 -13 570 742 _sc
318 664 _m
267 664 229 639 203 589 _c
177 539 165 464 165 364 _c
165 264 177 189 203 139 _c
229 89 267 64 318 64 _c
369 64 407 89 433 139 _c
458 189 471 264 471 364 _c
471 464 458 539 433 589 _c
407 639 369 664 318 664 _c
318 742 _m
399 742 461 709 505 645 _c
548 580 570 486 570 364 _c
570 241 548 147 505 83 _c
461 19 399 -13 318 -13 _c
236 -13 173 19 130 83 _c
87 147 66 241 66 364 _c
66 486 87 580 130 645 _c
173 709 236 742 318 742 _c
_cl}_d
/one{636 0 110 0 544 729 _sc
124 83 _m
285 83 _l
285 639 _l
110 604 _l
110 694 _l
284 729 _l
383 729 _l
383 83 _l
544 83 _l
544 0 _l
124 0 _l
124 83 _l
_cl}_d
/two{{636 0 73 0 536 742 _sc
192 83 _m
536 83 _l
536 0 _l
73 0 _l
73 83 _l
110 121 161 173 226 239 _c
290 304 331 346 348 365 _c
380 400 402 430 414 455 _c
426 479 433 504 433 528 _c
433 566 419 598 392 622 _c
365 646 330 659 286 659 _c
255 659 222 653 188 643 _c
154 632 117 616 78 594 _c
78 694 _l
118 710 155 722 189 730 _c
223 738 255 742 284 742 _c
}_e{359 742 419 723 464 685 _c
509 647 532 597 532 534 _c
532 504 526 475 515 449 _c
504 422 484 390 454 354 _c
446 344 420 317 376 272 _c
332 227 271 164 192 83 _c
_cl}_e}_d
/four{636 0 49 0 580 729 _sc
378 643 _m
129 254 _l
378 254 _l
378 643 _l
352 729 _m
476 729 _l
476 254 _l
580 254 _l
580 172 _l
476 172 _l
476 0 _l
378 0 _l
378 172 _l
49 172 _l
49 267 _l
352 729 _l
_cl}_d
/six{{636 0 70 -13 573 742 _sc
330 404 _m
286 404 251 388 225 358 _c
199 328 186 286 186 234 _c
186 181 199 139 225 109 _c
251 79 286 64 330 64 _c
374 64 409 79 435 109 _c
461 139 474 181 474 234 _c
474 286 461 328 435 358 _c
409 388 374 404 330 404 _c
526 713 _m
526 623 _l
501 635 476 644 451 650 _c
425 656 400 659 376 659 _c
310 659 260 637 226 593 _c
}_e{192 549 172 482 168 394 _c
187 422 211 444 240 459 _c
269 474 301 482 336 482 _c
409 482 467 459 509 415 _c
551 371 573 310 573 234 _c
573 159 550 99 506 54 _c
462 9 403 -13 330 -13 _c
246 -13 181 19 137 83 _c
92 147 70 241 70 364 _c
70 479 97 571 152 639 _c
206 707 280 742 372 742 _c
396 742 421 739 447 735 _c
472 730 498 723 526 713 _c
_cl}_e}_d
/eight{{636 0 68 -13 568 742 _sc
318 346 _m
271 346 234 333 207 308 _c
180 283 167 249 167 205 _c
167 161 180 126 207 101 _c
234 76 271 64 318 64 _c
364 64 401 76 428 102 _c
455 127 469 161 469 205 _c
469 249 455 283 429 308 _c
402 333 365 346 318 346 _c
219 388 _m
177 398 144 418 120 447 _c
96 476 85 511 85 553 _c
85 611 105 657 147 691 _c
188 725 245 742 318 742 _c
}_e{390 742 447 725 489 691 _c
530 657 551 611 551 553 _c
551 511 539 476 515 447 _c
491 418 459 398 417 388 _c
464 377 501 355 528 323 _c
554 291 568 251 568 205 _c
568 134 546 80 503 43 _c
459 5 398 -13 318 -13 _c
237 -13 175 5 132 43 _c
89 80 68 134 68 205 _c
68 251 81 291 108 323 _c
134 355 171 377 219 388 _c
183 544 _m
183 506 194 476 218 455 _c
}_e{242 434 275 424 318 424 _c
360 424 393 434 417 455 _c
441 476 453 506 453 544 _c
453 582 441 611 417 632 _c
393 653 360 664 318 664 _c
275 664 242 653 218 632 _c
194 611 183 582 183 544 _c
_cl}_e}_d
/C{{698 0 56 -13 644 742 _sc
644 673 _m
644 569 _l
610 599 575 622 537 638 _c
499 653 460 661 418 661 _c
334 661 270 635 226 584 _c
182 533 160 460 160 364 _c
160 268 182 194 226 143 _c
270 92 334 67 418 67 _c
460 67 499 74 537 90 _c
575 105 610 128 644 159 _c
644 56 _l
609 32 572 15 534 4 _c
496 -7 455 -13 412 -13 _c
302 -13 215 20 151 87 _c
}_e{87 154 56 246 56 364 _c
56 481 87 573 151 641 _c
215 708 302 742 412 742 _c
456 742 497 736 535 725 _c
573 713 610 696 644 673 _c
_cl}_e}_d
/D{770 0 98 0 711 729 _sc
197 648 _m
197 81 _l
316 81 _l
416 81 490 103 537 149 _c
583 195 607 267 607 365 _c
607 463 583 534 537 580 _c
490 625 416 648 316 648 _c
197 648 _l
98 729 _m
301 729 _l
442 729 546 699 612 641 _c
678 582 711 490 711 365 _c
711 239 677 147 611 88 _c
545 29 441 0 301 0 _c
98 0 _l
98 729 _l
_cl}_d
/I{295 0 98 0 197 729 _sc
98 729 _m
197 729 _l
197 0 _l
98 0 _l
98 729 _l
_cl}_d
/S{{635 0 66 -13 579 742 _sc
535 705 _m
535 609 _l
497 627 462 640 429 649 _c
395 657 363 662 333 662 _c
279 662 237 651 208 631 _c
179 610 165 580 165 542 _c
165 510 174 485 194 469 _c
213 452 250 439 304 429 _c
364 417 _l
437 403 491 378 526 343 _c
561 307 579 260 579 201 _c
579 130 555 77 508 41 _c
460 5 391 -13 300 -13 _c
265 -13 228 -9 189 -2 _c
}_e{150 5 110 16 69 32 _c
69 134 _l
109 111 148 94 186 83 _c
224 71 262 66 300 66 _c
356 66 399 77 430 99 _c
460 121 476 152 476 194 _c
476 230 465 258 443 278 _c
421 298 385 313 335 323 _c
275 335 _l
201 349 148 372 115 404 _c
82 435 66 478 66 534 _c
66 598 88 649 134 686 _c
179 723 242 742 322 742 _c
356 742 390 739 426 733 _c
461 727 497 717 535 705 _c
}_e{_cl}_e}_d
/T{611 0 -2 0 614 729 _sc
-2 729 _m
614 729 _l
614 646 _l
355 646 _l
355 0 _l
256 0 _l
256 646 _l
-2 646 _l
-2 729 _l
_cl}_d
/V{684 0 8 0 676 729 _sc
286 0 _m
8 729 _l
111 729 _l
342 115 _l
573 729 _l
676 729 _l
398 0 _l
286 0 _l
_cl}_d
/a{{613 0 60 -13 522 560 _sc
343 275 _m
270 275 220 266 192 250 _c
164 233 150 205 150 165 _c
150 133 160 107 181 89 _c
202 70 231 61 267 61 _c
317 61 357 78 387 114 _c
417 149 432 196 432 255 _c
432 275 _l
343 275 _l
522 312 _m
522 0 _l
432 0 _l
432 83 _l
411 49 385 25 355 10 _c
325 -5 287 -13 243 -13 _c
187 -13 142 2 109 33 _c
76 64 60 106 60 159 _c
}_e{60 220 80 266 122 298 _c
163 329 224 345 306 345 _c
432 345 _l
432 354 _l
432 395 418 427 391 450 _c
364 472 326 484 277 484 _c
245 484 215 480 185 472 _c
155 464 127 453 100 439 _c
100 522 _l
132 534 164 544 195 550 _c
226 556 256 560 286 560 _c
365 560 424 539 463 498 _c
502 457 522 395 522 312 _c
_cl}_e}_d
/c{{550 0 55 -13 488 560 _sc
488 526 _m
488 442 _l
462 456 437 466 411 473 _c
385 480 360 484 334 484 _c
276 484 230 465 198 428 _c
166 391 150 339 150 273 _c
150 206 166 154 198 117 _c
230 80 276 62 334 62 _c
360 62 385 65 411 72 _c
437 79 462 90 488 104 _c
488 21 _l
462 9 436 0 410 -5 _c
383 -10 354 -13 324 -13 _c
242 -13 176 12 128 64 _c
}_e{79 115 55 185 55 273 _c
55 362 79 432 128 483 _c
177 534 244 560 330 560 _c
358 560 385 557 411 551 _c
437 545 463 537 488 526 _c
_cl}_e}_d
/e{{615 0 55 -13 562 560 _sc
562 296 _m
562 252 _l
149 252 _l
153 190 171 142 205 110 _c
238 78 284 62 344 62 _c
378 62 412 66 444 74 _c
476 82 509 95 541 113 _c
541 28 _l
509 14 476 3 442 -3 _c
408 -9 373 -13 339 -13 _c
251 -13 182 12 131 62 _c
80 112 55 181 55 268 _c
55 357 79 428 127 481 _c
175 533 241 560 323 560 _c
397 560 455 536 498 489 _c
}_e{540 441 562 377 562 296 _c
472 322 _m
471 371 457 410 431 440 _c
404 469 368 484 324 484 _c
274 484 234 469 204 441 _c
174 413 156 373 152 322 _c
472 322 _l
_cl}_e}_d
/g{{635 0 55 -207 544 560 _sc
454 280 _m
454 344 440 395 414 431 _c
387 467 349 485 301 485 _c
253 485 215 467 188 431 _c
161 395 148 344 148 280 _c
148 215 161 165 188 129 _c
215 93 253 75 301 75 _c
349 75 387 93 414 129 _c
440 165 454 215 454 280 _c
544 68 _m
544 -24 523 -93 482 -139 _c
440 -184 377 -207 292 -207 _c
260 -207 231 -204 203 -200 _c
175 -195 147 -188 121 -178 _c
}_e{121 -91 _l
147 -105 173 -115 199 -122 _c
225 -129 251 -133 278 -133 _c
336 -133 380 -117 410 -87 _c
439 -56 454 -10 454 52 _c
454 96 _l
435 64 411 40 382 24 _c
353 8 319 0 279 0 _c
211 0 157 25 116 76 _c
75 127 55 195 55 280 _c
55 364 75 432 116 483 _c
157 534 211 560 279 560 _c
319 560 353 552 382 536 _c
411 520 435 496 454 464 _c
454 547 _l
544 547 _l
}_e{544 68 _l
_cl}_e}_d
/h{634 0 91 0 549 760 _sc
549 330 _m
549 0 _l
459 0 _l
459 327 _l
459 379 448 417 428 443 _c
408 469 378 482 338 482 _c
289 482 251 466 223 435 _c
195 404 181 362 181 309 _c
181 0 _l
91 0 _l
91 760 _l
181 760 _l
181 462 _l
202 494 227 519 257 535 _c
286 551 320 560 358 560 _c
420 560 468 540 500 501 _c
532 462 549 405 549 330 _c
_cl}_d
/k{579 0 91 0 576 760 _sc
91 760 _m
181 760 _l
181 311 _l
449 547 _l
564 547 _l
274 291 _l
576 0 _l
459 0 _l
181 267 _l
181 0 _l
91 0 _l
91 760 _l
_cl}_d
/l{278 0 94 0 184 760 _sc
94 760 _m
184 760 _l
184 0 _l
94 0 _l
94 760 _l
_cl}_d
/m{{974 0 91 0 889 560 _sc
520 442 _m
542 482 569 511 600 531 _c
631 550 668 560 711 560 _c
767 560 811 540 842 500 _c
873 460 889 403 889 330 _c
889 0 _l
799 0 _l
799 327 _l
799 379 789 418 771 444 _c
752 469 724 482 686 482 _c
639 482 602 466 575 435 _c
548 404 535 362 535 309 _c
535 0 _l
445 0 _l
445 327 _l
445 379 435 418 417 444 _c
398 469 369 482 331 482 _c
}_e{285 482 248 466 221 435 _c
194 404 181 362 181 309 _c
181 0 _l
91 0 _l
91 547 _l
181 547 _l
181 462 _l
201 495 226 520 255 536 _c
283 552 317 560 357 560 _c
397 560 430 550 458 530 _c
486 510 506 480 520 442 _c
_cl}_e}_d
/n{634 0 91 0 549 560 _sc
549 330 _m
549 0 _l
459 0 _l
459 327 _l
459 379 448 417 428 443 _c
408 469 378 482 338 482 _c
289 482 251 466 223 435 _c
195 404 181 362 181 309 _c
181 0 _l
91 0 _l
91 547 _l
181 547 _l
181 462 _l
202 494 227 519 257 535 _c
286 551 320 560 358 560 _c
420 560 468 540 500 501 _c
532 462 549 405 549 330 _c
_cl}_d
/o{612 0 55 -13 557 560 _sc
306 484 _m
258 484 220 465 192 427 _c
164 389 150 338 150 273 _c
150 207 163 156 191 118 _c
219 80 257 62 306 62 _c
354 62 392 80 420 118 _c
448 156 462 207 462 273 _c
462 337 448 389 420 427 _c
392 465 354 484 306 484 _c
306 560 _m
384 560 445 534 490 484 _c
534 433 557 363 557 273 _c
557 183 534 113 490 63 _c
445 12 384 -13 306 -13 _c
227 -13 165 12 121 63 _c
77 113 55 183 55 273 _c
55 363 77 433 121 484 _c
165 534 227 560 306 560 _c
_cl}_d
/p{{635 0 91 -207 580 560 _sc
181 82 _m
181 -207 _l
91 -207 _l
91 547 _l
181 547 _l
181 464 _l
199 496 223 520 252 536 _c
281 552 316 560 356 560 _c
422 560 476 533 518 481 _c
559 428 580 359 580 273 _c
580 187 559 117 518 65 _c
476 13 422 -13 356 -13 _c
316 -13 281 -5 252 10 _c
223 25 199 49 181 82 _c
487 273 _m
487 339 473 390 446 428 _c
418 466 381 485 334 485 _c
}_e{286 485 249 466 222 428 _c
194 390 181 339 181 273 _c
181 207 194 155 222 117 _c
249 79 286 61 334 61 _c
381 61 418 79 446 117 _c
473 155 487 207 487 273 _c
_cl}_e}_d
/s{{521 0 54 -13 472 560 _sc
443 531 _m
443 446 _l
417 458 391 468 364 475 _c
336 481 308 485 279 485 _c
234 485 200 478 178 464 _c
156 450 145 430 145 403 _c
145 382 153 366 169 354 _c
185 342 217 330 265 320 _c
296 313 _l
360 299 405 279 432 255 _c
458 230 472 195 472 151 _c
472 100 452 60 412 31 _c
372 1 316 -13 246 -13 _c
216 -13 186 -10 154 -5 _c
}_e{122 0 89 8 54 20 _c
54 113 _l
87 95 120 82 152 74 _c
184 65 216 61 248 61 _c
290 61 323 68 346 82 _c
368 96 380 117 380 144 _c
380 168 371 187 355 200 _c
339 213 303 226 247 238 _c
216 245 _l
160 257 119 275 95 299 _c
70 323 58 356 58 399 _c
58 450 76 490 112 518 _c
148 546 200 560 268 560 _c
301 560 332 557 362 552 _c
391 547 418 540 443 531 _c
}_e{_cl}_e}_d
/t{392 0 27 0 368 702 _sc
183 702 _m
183 547 _l
368 547 _l
368 477 _l
183 477 _l
183 180 _l
183 135 189 106 201 94 _c
213 81 238 75 276 75 _c
368 75 _l
368 0 _l
276 0 _l
206 0 158 13 132 39 _c
106 65 93 112 93 180 _c
93 477 _l
27 477 _l
27 547 _l
93 547 _l
93 702 _l
183 702 _l
_cl}_d
end readonly def

/BuildGlyph
 {exch begin
 CharStrings exch
 2 copy known not{pop /.notdef}if
 true 3 1 roll get exec
 end}_d

/BuildChar {
 1 index /Encoding get exch get
 1 index /BuildGlyph get exec
}_d

FontName currentdict end definefont pop
%!PS-Adobe-3.0 Resource-Font
%%Title: DejaVu Sans Oblique
%%Copyright: Copyright (c) 2003 by Bitstream, Inc. All Rights Reserved. Copyright (c) 2006 by Tavmjong Bah. All Rights Reserved. DejaVu changes are in public domain 
%%Creator: Converted from TrueType to type 3 by PPR
25 dict begin
/_d{bind def}bind def
/_m{moveto}_d
/_l{lineto}_d
/_cl{closepath eofill}_d
/_c{curveto}_d
/_sc{7 -1 roll{setcachedevice}{pop pop pop pop pop pop}ifelse}_d
/_e{exec}_d
/FontName /DejaVuSans-Oblique def
/PaintType 0 def
/FontMatrix[.001 0 0 .001 0 0]def
/FontBBox[-1016 -350 1659 1068]def
/FontType 3 def
/Encoding [ /l /o /v ] def
/FontInfo 10 dict dup begin
/FamilyName (DejaVu Sans) def
/FullName (DejaVu Sans Oblique) def
/Notice (Copyright (c) 2003 by Bitstream, Inc. All Rights Reserved. Copyright (c) 2006 by Tavmjong Bah. All Rights Reserved. DejaVu changes are in public domain ) def
/Weight (Oblique) def
/Version (Version 2.35) def
/ItalicAngle -11.0 def
/isFixedPitch false def
/UnderlinePosition -130 def
/UnderlineThickness 90 def
end readonly def
/CharStrings 3 dict dup begin
/l{278 0 35 0 273 760 _sc
183 760 _m
273 760 _l
125 0 _l
35 0 _l
183 760 _l
_cl}_d
/o{{612 0 46 -13 566 560 _sc
254 -13 _m
190 -13 139 6 102 45 _c
64 84 46 138 46 207 _c
46 247 52 287 65 328 _c
77 369 94 404 115 432 _c
147 476 183 508 223 529 _c
263 549 308 560 358 560 _c
420 560 470 540 508 502 _c
546 463 566 412 566 350 _c
566 306 559 263 547 220 _c
534 177 517 142 497 114 _c
465 70 429 37 389 17 _c
349 -3 304 -13 254 -13 _c
139 210 _m
}_e{139 160 149 123 170 99 _c
190 74 222 62 264 62 _c
324 62 373 88 413 141 _c
453 193 473 260 473 341 _c
473 388 462 424 441 448 _c
420 472 389 484 348 484 _c
314 484 283 476 257 460 _c
231 444 207 420 187 388 _c
171 364 159 336 151 305 _c
143 274 139 242 139 210 _c
_cl}_e}_d
/v{592 0 72 0 604 547 _sc
72 547 _m
167 547 _l
247 82 _l
509 547 _l
604 547 _l
293 0 _l
172 0 _l
72 547 _l
_cl}_d
end readonly def

/BuildGlyph
 {exch begin
 CharStrings exch
 2 copy known not{pop /.notdef}if
 true 3 1 roll get exec
 end}_d

/BuildChar {
 1 index /Encoding get exch get
 1 index /BuildGlyph get exec
}_d

FontName currentdict end definefont pop
end
%%EndProlog
mpldict begin
44.061 263.01 translate
523.877 265.981 0 0 clipbox
gsave
0 0 m
523.8775 0 l
523.8775 265.980625 l
0 265.980625 l
cl
1.000 setgray
fill
grestore
gsave
44.10625 37.54375 m
378.90625 37.54375 l
378.90625 254.98375 l
44.10625 254.98375 l
cl
1.000 setgray
fill
grestore
1.500 setlinewidth
1 setlinejoin
2 setlinecap
[] 0 setdash
0.122 0.467 0.706 setrgbcolor
gsave
334.8 217.4 44.11 37.54 clipbox
44.130164 37.6241 m
47.891693 49.875854 l
51.653222 61.39022 l
55.414751 72.21158 l
59.17628 82.381642 l
62.93781 91.939606 l
66.699339 100.922312 l
70.460868 109.364383 l
74.222397 117.298357 l
77.983926 124.754814 l
81.745455 131.762495 l
85.506984 138.34841 l
89.268513 144.537943 l
93.030042 150.354952 l
96.791571 155.821856 l
100.5531 160.959728 l
104.314629 165.78837 l
108.076158 170.326394 l
111.837687 174.591292 l
115.599216 178.599502 l
119.360745 182.366472 l
123.122274 185.906722 l
126.883803 189.233898 l
130.645333 192.360824 l
134.406862 195.299551 l
138.168391 198.061408 l
141.92992 200.657038 l
145.691449 203.096448 l
149.452978 205.389038 l
153.214507 207.543646 l
156.976036 209.568576 l
160.737565 211.471633 l
164.499094 213.260153 l
168.260623 214.941027 l
172.022152 216.520737 l
175.783681 218.005369 l
179.54521 219.400647 l
183.306739 220.711949 l
187.068268 221.944328 l
190.829797 223.102535 l
194.591326 224.191033 l
198.352855 225.214019 l
202.114385 226.175436 l
205.875914 227.078988 l
209.637443 227.928159 l
213.398972 228.726221 l
217.160501 229.476251 l
220.92203 230.181139 l
224.683559 230.843603 l
228.445088 231.466196 l
232.206617 232.051317 l
235.968146 232.601222 l
239.729675 233.11803 l
243.491204 233.603733 l
247.252733 234.060204 l
251.014262 234.489201 l
254.775791 234.892379 l
258.53732 235.271291 l
262.298849 235.627398 l
266.060378 235.962071 l
269.821907 236.276603 l
273.583437 236.572203 l
277.344966 236.850013 l
281.106495 237.111102 l
284.868024 237.356477 l
288.629553 237.587084 l
292.391082 237.803812 l
296.152611 238.007496 l
299.91414 238.19892 l
303.675669 238.378824 l
307.437198 238.5479 l
311.198727 238.706799 l
314.960256 238.856136 l
318.721785 238.996484 l
322.483314 239.128385 l
326.244843 239.252347 l
330.006372 239.368849 l
333.767901 239.478339 l
337.52943 239.581239 l
341.290959 239.677946 l
345.052489 239.768832 l
348.814018 239.854249 l
352.575547 239.934524 l
356.337076 240.009968 l
360.098605 240.080872 l
363.860134 240.147508 l
367.621663 240.210133 l
371.383192 240.268989 l
375.144721 240.324303 l
378.90625 240.376287 l
stroke
grestore
1.000 0.498 0.055 setrgbcolor
gsave
334.8 217.4 44.11 37.54 clipbox
44.130164 37.614956 m
47.891693 48.472405 l
51.653222 58.676386 l
55.414751 68.266226 l
59.17628 77.27889 l
62.93781 85.749115 l
66.699339 93.709549 l
70.460868 101.190875 l
74.222397 108.221927 l
77.983926 114.829806 l
81.745455 121.039982 l
85.506984 126.87639 l
89.268513 132.361527 l
93.030042 137.516534 l
96.791571 142.36128 l
100.5531 146.914439 l
104.314629 151.193561 l
108.076158 155.215138 l
111.837687 158.994671 l
115.599216 162.546728 l
119.360745 165.885 l
123.122274 169.022354 l
126.883803 171.970883 l
130.645333 174.74195 l
134.406862 177.346238 l
138.168391 179.793782 l
141.92992 182.094019 l
145.691449 184.255813 l
149.452978 186.287496 l
153.214507 188.1969 l
156.976036 189.991384 l
160.737565 191.677865 l
164.499094 193.262842 l
168.260623 194.752426 l
172.022152 196.152358 l
175.783681 197.468032 l
179.54521 198.704522 l
183.306739 199.866591 l
187.068268 200.95872 l
190.829797 201.985118 l
194.591326 202.94974 l
198.352855 203.856306 l
202.114385 204.708309 l
205.875914 205.509033 l
209.637443 206.261564 l
213.398972 206.968803 l
217.160501 207.633477 l
220.92203 208.258146 l
224.683559 208.845218 l
228.445088 209.396957 l
232.206617 209.915489 l
235.968146 210.402812 l
239.729675 210.860805 l
243.491204 211.291233 l
247.252733 211.695755 l
251.014262 212.075931 l
254.775791 212.433225 l
258.53732 212.769015 l
262.298849 213.084595 l
266.060378 213.381182 l
269.821907 213.659918 l
273.583437 213.921878 l
277.344966 214.168071 l
281.106495 214.399448 l
284.868024 214.616898 l
288.629553 214.821261 l
292.391082 215.013324 l
296.152611 215.193828 l
299.91414 215.363467 l
303.675669 215.522897 l
307.437198 215.672731 l
311.198727 215.813547 l
314.960256 215.945888 l
318.721785 216.070264 l
322.483314 216.187155 l
326.244843 216.29701 l
330.006372 216.400253 l
333.767901 216.497282 l
337.52943 216.588472 l
341.290959 216.674173 l
345.052489 216.754716 l
348.814018 216.830412 l
352.575547 216.901552 l
356.337076 216.96841 l
360.098605 217.031244 l
363.860134 217.090297 l
367.621663 217.145795 l
371.383192 217.197953 l
375.144721 217.246972 l
378.90625 217.29304 l
stroke
grestore
0.173 0.627 0.173 setrgbcolor
gsave
334.8 217.4 44.11 37.54 clipbox
44.130164 37.609588 m
47.891693 47.648601 l
51.653222 57.083402 l
55.414751 65.950359 l
59.17628 74.283646 l
62.93781 82.115383 l
66.699339 89.475758 l
70.460868 96.393139 l
74.222397 102.894189 l
77.983926 109.003965 l
81.745455 114.746016 l
85.506984 120.142474 l
89.268513 125.21414 l
93.030042 129.980561 l
96.791571 134.460109 l
100.5531 138.67005 l
104.314629 142.62661 l
108.076158 146.34504 l
111.837687 149.839671 l
115.599216 153.123973 l
119.360745 156.210606 l
123.122274 159.111465 l
126.883803 161.837733 l
130.645333 164.399917 l
134.406862 166.807892 l
138.168391 169.070941 l
141.92992 171.197785 l
145.691449 173.196622 l
149.452978 175.075156 l
153.214507 176.840629 l
156.976036 178.499844 l
160.737565 180.059198 l
164.499094 181.5247 l
168.260623 182.901998 l
172.022152 184.196403 l
175.783681 185.412901 l
179.54521 186.556184 l
183.306739 187.630656 l
187.068268 188.64046 l
190.829797 189.589488 l
194.591326 190.481397 l
198.352855 191.319625 l
202.114385 192.107404 l
205.875914 192.847769 l
209.637443 193.543575 l
213.398972 194.197502 l
217.160501 194.812072 l
220.92203 195.389653 l
224.683559 195.932472 l
228.445088 196.442621 l
232.206617 196.922065 l
235.968146 197.372654 l
239.729675 197.796123 l
243.491204 198.194106 l
247.252733 198.568135 l
251.014262 198.919653 l
254.775791 199.250014 l
258.53732 199.560492 l
262.298849 199.852284 l
266.060378 200.126514 l
269.821907 200.384239 l
273.583437 200.626452 l
277.344966 200.854087 l
281.106495 201.068022 l
284.868024 201.269081 l
288.629553 201.458039 l
292.391082 201.635625 l
296.152611 201.802522 l
299.91414 201.959374 l
303.675669 202.106786 l
307.437198 202.245326 l
311.198727 202.375527 l
314.960256 202.497892 l
318.721785 202.612893 l
322.483314 202.720972 l
326.244843 202.822546 l
330.006372 202.918007 l
333.767901 203.007722 l
337.52943 203.092038 l
341.290959 203.171279 l
345.052489 203.245751 l
348.814018 203.31574 l
352.575547 203.381517 l
356.337076 203.443336 l
360.098605 203.501434 l
363.860134 203.556035 l
367.621663 203.607349 l
371.383192 203.655576 l
375.144721 203.7009 l
378.90625 203.743495 l
stroke
grestore
0.839 0.153 0.157 setrgbcolor
gsave
334.8 217.4 44.11 37.54 clipbox
44.130164 37.62097 m
47.891693 49.395465 l
51.653222 60.461297 l
55.414751 70.861118 l
59.17628 80.635013 l
62.93781 89.820653 l
66.699339 98.453444 l
70.460868 106.566659 l
74.222397 114.19157 l
77.983926 121.357567 l
81.745455 128.092268 l
85.506984 134.421633 l
89.268513 140.370058 l
93.030042 145.960468 l
96.791571 151.214413 l
100.5531 156.152143 l
104.314629 160.792688 l
108.076158 165.153937 l
111.837687 169.252699 l
115.599216 173.104771 l
119.360745 176.725002 l
123.122274 180.127344 l
126.883803 183.324912 l
130.645333 186.33003 l
134.406862 189.154282 l
138.168391 191.808552 l
141.92992 194.303072 l
145.691449 196.647455 l
149.452978 198.85074 l
153.214507 200.921416 l
156.976036 202.867467 l
160.737565 204.696391 l
164.499094 206.41524 l
168.260623 208.030638 l
172.022152 209.54881 l
175.783681 210.97561 l
179.54521 212.316536 l
183.306739 213.576757 l
187.068268 214.761129 l
190.829797 215.874219 l
194.591326 216.920316 l
198.352855 217.903452 l
202.114385 218.827417 l
205.875914 219.695772 l
209.637443 220.511864 l
213.398972 221.278838 l
217.160501 221.999651 l
220.92203 222.677081 l
224.683559 223.313739 l
228.445088 223.912079 l
232.206617 224.474408 l
235.968146 225.002891 l
239.729675 225.499567 l
243.491204 225.966351 l
247.252733 226.40504 l
251.014262 226.817326 l
254.775791 227.204798 l
258.53732 227.56895 l
262.298849 227.911184 l
266.060378 228.232821 l
269.821907 228.5351 l
273.583437 228.819186 l
277.344966 229.086173 l
281.106495 229.337092 l
284.868024 229.572909 l
288.629553 229.794533 l
292.391082 230.002818 l
296.152611 230.198567 l
299.91414 230.382535 l
303.675669 230.555431 l
307.437198 230.71792 l
311.198727 230.87063 l
314.960256 231.014149 l
318.721785 231.14903 l
322.483314 231.275793 l
326.244843 231.394927 l
330.006372 231.50689 l
333.767901 231.612115 l
337.52943 231.711007 l
341.290959 231.803946 l
345.052489 231.891292 l
348.814018 231.973382 l
352.575547 232.05053 l
356.337076 232.123035 l
360.098605 232.191176 l
363.860134 232.255217 l
367.621663 232.315402 l
371.383192 232.371966 l
375.144721 232.425125 l
378.90625 232.475085 l
stroke
grestore
0.580 0.404 0.741 setrgbcolor
gsave
334.8 217.4 44.11 37.54 clipbox
44.130164 37.612762 m
47.891693 48.135672 l
51.653222 58.025247 l
55.414751 67.319606 l
59.17628 76.054572 l
62.93781 84.263812 l
66.699339 91.97897 l
70.460868 99.22978 l
74.222397 106.044192 l
77.983926 112.448469 l
81.745455 118.467297 l
85.506984 124.123874 l
89.268513 129.440003 l
93.030042 134.436174 l
96.791571 139.131644 l
100.5531 143.544511 l
104.314629 147.691784 l
108.076158 151.589448 l
111.837687 155.252527 l
115.599216 158.695138 l
119.360745 161.930552 l
123.122274 164.971237 l
126.883803 167.828916 l
130.645333 170.514601 l
134.406862 173.038645 l
138.168391 175.410776 l
141.92992 177.640138 l
145.691449 179.735323 l
149.452978 181.704406 l
153.214507 183.554977 l
156.976036 185.29417 l
160.737565 186.928687 l
164.499094 188.464828 l
168.260623 189.908515 l
172.022152 191.265311 l
175.783681 192.540448 l
179.54521 193.738838 l
183.306739 194.865102 l
187.068268 195.92358 l
190.829797 196.918353 l
194.591326 197.853253 l
198.352855 198.731886 l
202.114385 199.557637 l
205.875914 200.333689 l
209.637443 201.063033 l
213.398972 201.748481 l
217.160501 202.392674 l
220.92203 202.998096 l
224.683559 203.56708 l
228.445088 204.101818 l
232.206617 204.604373 l
235.968146 205.076681 l
239.729675 205.520562 l
243.491204 205.937728 l
247.252733 206.329786 l
251.014262 206.698248 l
254.775791 207.044533 l
258.53732 207.369977 l
262.298849 207.675833 l
266.060378 207.963281 l
269.821907 208.233429 l
273.583437 208.487317 l
277.344966 208.725925 l
281.106495 208.950172 l
284.868024 209.160923 l
288.629553 209.358989 l
292.391082 209.545134 l
296.152611 209.720076 l
299.91414 209.884489 l
303.675669 210.039006 l
307.437198 210.184224 l
311.198727 210.320701 l
314.960256 210.448964 l
318.721785 210.569508 l
322.483314 210.682797 l
326.244843 210.789267 l
330.006372 210.889329 l
333.767901 210.983369 l
337.52943 211.071749 l
341.290959 211.154809 l
345.052489 211.232871 l
348.814018 211.306234 l
352.575547 211.375182 l
356.337076 211.43998 l
360.098605 211.500878 l
363.860134 211.558111 l
367.621663 211.611899 l
371.383192 211.66245 l
375.144721 211.709959 l
378.90625 211.754608 l
stroke
grestore
0.549 0.337 0.294 setrgbcolor
gsave
334.8 217.4 44.11 37.54 clipbox
44.130164 37.610606 m
47.891693 47.804723 l
51.653222 57.385294 l
55.414751 66.389246 l
59.17628 74.851284 l
62.93781 82.804024 l
66.699339 90.278117 l
70.460868 97.302373 l
74.222397 103.903865 l
77.983926 110.108039 l
81.745455 115.938805 l
85.506984 121.41864 l
89.268513 126.568664 l
93.030042 131.408728 l
96.791571 135.957486 l
100.5531 140.232471 l
104.314629 144.250161 l
108.076158 148.026041 l
111.837687 151.574664 l
115.599216 154.90971 l
119.360745 158.044031 l
123.122274 160.98971 l
126.883803 163.758099 l
130.645333 166.359869 l
134.406862 168.805048 l
138.168391 171.103061 l
141.92992 173.262765 l
145.691449 175.292485 l
149.452978 177.200043 l
153.214507 178.992792 l
156.976036 180.677643 l
160.737565 182.261089 l
164.499094 183.749233 l
168.260623 185.147811 l
172.022152 186.462214 l
175.783681 187.697508 l
179.54521 188.858454 l
183.306739 189.949527 l
187.068268 190.974933 l
190.829797 191.938623 l
194.591326 192.844313 l
198.352855 193.695492 l
202.114385 194.495442 l
205.875914 195.247246 l
209.637443 195.953802 l
213.398972 196.617832 l
217.160501 197.241898 l
220.92203 197.828403 l
224.683559 198.379608 l
228.445088 198.897639 l
232.206617 199.384491 l
235.968146 199.842041 l
239.729675 200.272053 l
243.491204 200.676184 l
247.252733 201.055993 l
251.014262 201.412941 l
254.775791 201.748407 l
258.53732 202.063682 l
262.298849 202.359982 l
266.060378 202.638448 l
269.821907 202.900155 l
273.583437 203.146111 l
277.344966 203.377263 l
281.106495 203.594504 l
284.868024 203.798669 l
288.629553 203.990546 l
292.391082 204.170875 l
296.152611 204.340351 l
299.91414 204.499627 l
303.675669 204.649316 l
307.437198 204.789996 l
311.198727 204.922209 l
314.960256 205.046465 l
318.721785 205.163242 l
322.483314 205.272991 l
326.244843 205.376135 l
330.006372 205.47307 l
333.767901 205.564172 l
337.52943 205.64979 l
341.290959 205.730256 l
345.052489 205.805878 l
348.814018 205.876949 l
352.575547 205.943743 l
356.337076 206.006516 l
360.098605 206.065511 l
363.860134 206.120956 l
367.621663 206.173064 l
371.383192 206.222035 l
375.144721 206.268059 l
378.90625 206.311313 l
stroke
grestore
0.890 0.467 0.761 setrgbcolor
gsave
334.8 217.4 44.11 37.54 clipbox
44.130164 37.612457 m
47.891693 48.08889 l
51.653222 57.934785 l
55.414751 67.188092 l
59.17628 75.884478 l
62.93781 84.05746 l
66.699339 91.738542 l
70.460868 98.957327 l
74.222397 105.741641 l
77.983926 112.117632 l
81.745455 118.109876 l
85.506984 123.741469 l
89.268513 129.034118 l
93.030042 134.008222 l
96.791571 138.682953 l
100.5531 143.07633 l
104.314629 147.205285 l
108.076158 151.085734 l
111.837687 154.732634 l
115.599216 158.16004 l
119.360745 161.381163 l
123.122274 164.408419 l
126.883803 167.253476 l
130.645333 169.927299 l
134.406862 172.440195 l
138.168391 174.801849 l
141.92992 177.021364 l
145.691449 179.107294 l
149.452978 181.067681 l
153.214507 182.910078 l
156.976036 184.641589 l
160.737565 186.268887 l
164.499094 187.798244 l
168.260623 189.235554 l
172.022152 190.586358 l
175.783681 191.855862 l
179.54521 193.04896 l
183.306739 194.170249 l
187.068268 195.224052 l
190.829797 196.214431 l
194.591326 197.145202 l
198.352855 198.019954 l
202.114385 198.842058 l
205.875914 199.614682 l
209.637443 200.340805 l
213.398972 201.023226 l
217.160501 201.664574 l
220.92203 202.267321 l
224.683559 202.833792 l
228.445088 203.366169 l
232.206617 203.866504 l
235.968146 204.336726 l
239.729675 204.778646 l
243.491204 205.19397 l
247.252733 205.584296 l
251.014262 205.951131 l
254.775791 206.295886 l
258.53732 206.619893 l
262.298849 206.924398 l
266.060378 207.210577 l
269.821907 207.479531 l
273.583437 207.732298 l
277.344966 207.969852 l
281.106495 208.193109 l
284.868024 208.402928 l
288.629553 208.60012 l
292.391082 208.785443 l
296.152611 208.959612 l
299.91414 209.123298 l
303.675669 209.277133 l
307.437198 209.421709 l
311.198727 209.557584 l
314.960256 209.685281 l
318.721785 209.805292 l
322.483314 209.91808 l
326.244843 210.02408 l
330.006372 210.123701 l
333.767901 210.217325 l
337.52943 210.305314 l
341.290959 210.388008 l
345.052489 210.465725 l
348.814018 210.538764 l
352.575547 210.607407 l
356.337076 210.671919 l
360.098605 210.732549 l
363.860134 210.789529 l
367.621663 210.843079 l
371.383192 210.893407 l
375.144721 210.940706 l
378.90625 210.985158 l
stroke
grestore
0.498 setgray
gsave
334.8 217.4 44.11 37.54 clipbox
44.130164 37.608927 m
47.891693 47.547036 l
51.653222 56.887007 l
55.414751 65.664841 l
59.17628 73.914369 l
62.93781 81.667389 l
66.699339 88.953784 l
70.460868 95.801637 l
74.222397 102.237344 l
77.983926 108.28571 l
81.745455 113.970047 l
85.506984 119.312265 l
89.268513 124.332955 l
93.030042 129.051469 l
96.791571 133.485992 l
100.5531 137.653619 l
104.314629 141.570411 l
108.076158 145.251466 l
111.837687 148.710972 l
115.599216 151.962264 l
119.360745 155.017872 l
123.122274 157.889575 l
126.883803 160.58844 l
130.645333 163.124871 l
134.406862 165.508644 l
138.168391 167.748946 l
141.92992 169.854413 l
145.691449 171.83316 l
149.452978 173.692813 l
153.214507 175.440541 l
156.976036 177.083079 l
160.737565 178.626759 l
164.499094 180.077531 l
168.260623 181.440986 l
172.022152 182.72238 l
175.783681 183.926652 l
179.54521 185.058443 l
183.306739 186.122116 l
187.068268 187.12177 l
190.829797 188.061259 l
194.591326 188.944204 l
198.352855 189.774007 l
202.114385 190.553867 l
205.875914 191.286791 l
209.637443 191.975603 l
213.398972 192.622958 l
217.160501 193.231351 l
220.92203 193.803127 l
224.683559 194.340489 l
228.445088 194.84551 l
232.206617 195.320136 l
235.968146 195.766196 l
239.729675 196.185409 l
243.491204 196.579391 l
247.252733 196.949661 l
251.014262 197.297646 l
254.775791 197.624687 l
258.53732 197.932044 l
262.298849 198.220903 l
266.060378 198.492376 l
269.821907 198.747511 l
273.583437 198.98729 l
277.344966 199.212637 l
281.106495 199.424422 l
284.868024 199.62346 l
288.629553 199.810519 l
292.391082 199.986319 l
296.152611 200.151539 l
299.91414 200.306814 l
303.675669 200.452745 l
307.437198 200.589892 l
311.198727 200.718785 l
314.960256 200.83992 l
318.721785 200.953764 l
322.483314 201.060757 l
326.244843 201.16131 l
330.006372 201.255812 l
333.767901 201.344625 l
337.52943 201.428093 l
341.290959 201.506538 l
345.052489 201.580261 l
348.814018 201.649547 l
352.575547 201.714664 l
356.337076 201.775861 l
360.098605 201.833374 l
363.860134 201.887427 l
367.621663 201.938226 l
371.383192 201.985967 l
375.144721 202.030836 l
378.90625 202.073003 l
stroke
grestore
0.737 0.741 0.133 setrgbcolor
gsave
334.8 217.4 44.11 37.54 clipbox
44.130164 37.60561 m
47.891693 47.03799 l
51.653222 55.902671 l
55.414751 64.23382 l
59.17628 72.063548 l
62.93781 79.422033 l
66.699339 86.337639 l
70.460868 92.837021 l
74.222397 98.945229 l
77.983926 104.685806 l
81.745455 110.08088 l
85.506984 115.151244 l
89.268513 119.916442 l
93.030042 124.394841 l
96.791571 128.603701 l
100.5531 132.559246 l
104.314629 136.276722 l
108.076158 139.770456 l
111.837687 143.053915 l
115.599216 146.139756 l
119.360745 149.039871 l
123.122274 151.765439 l
126.883803 154.326965 l
130.645333 156.734323 l
134.406862 158.99679 l
138.168391 161.123089 l
141.92992 163.121413 l
145.691449 164.999465 l
149.452978 166.764485 l
153.214507 168.423274 l
156.976036 169.982228 l
160.737565 171.447353 l
164.499094 172.824299 l
168.260623 174.118371 l
172.022152 175.334557 l
175.783681 176.477546 l
179.54521 177.551743 l
183.306739 178.561288 l
187.068268 179.510072 l
190.829797 180.401752 l
194.591326 181.239765 l
198.352855 182.027342 l
202.114385 182.767517 l
205.875914 183.463144 l
209.637443 184.116904 l
213.398972 184.731316 l
217.160501 185.308749 l
220.92203 185.851428 l
224.683559 186.361446 l
228.445088 186.840768 l
232.206617 187.291241 l
235.968146 187.714602 l
239.729675 188.112482 l
243.491204 188.486415 l
247.252733 188.837843 l
251.014262 189.168119 l
254.775791 189.478518 l
258.53732 189.770235 l
262.298849 190.044394 l
266.060378 190.302053 l
269.821907 190.544204 l
273.583437 190.771781 l
277.344966 190.985661 l
281.106495 191.186668 l
284.868024 191.375578 l
288.629553 191.553118 l
292.391082 191.719972 l
296.152611 191.876784 l
299.91414 192.024158 l
303.675669 192.162662 l
307.437198 192.29283 l
311.198727 192.415164 l
314.960256 192.530135 l
318.721785 192.638186 l
322.483314 192.739734 l
326.244843 192.83517 l
330.006372 192.924863 l
333.767901 193.009157 l
337.52943 193.088377 l
341.290959 193.16283 l
345.052489 193.232802 l
348.814018 193.298562 l
352.575547 193.360365 l
356.337076 193.418448 l
360.098605 193.473035 l
363.860134 193.524336 l
367.621663 193.57255 l
371.383192 193.617862 l
375.144721 193.660447 l
378.90625 193.700469 l
stroke
grestore
0.090 0.745 0.812 setrgbcolor
gsave
334.8 217.4 44.11 37.54 clipbox
44.130164 37.620674 m
47.891693 49.350003 l
51.653222 60.373387 l
55.414751 70.733315 l
59.17628 80.469717 l
62.93781 89.620122 l
66.699339 98.219798 l
70.460868 106.301892 l
74.222397 113.897554 l
77.983926 121.036062 l
81.745455 127.74493 l
85.506984 134.050016 l
89.268513 139.975623 l
93.030042 145.544589 l
96.791571 150.77838 l
100.5531 155.697169 l
104.314629 160.319914 l
108.076158 164.664433 l
111.837687 168.747472 l
115.599216 172.584768 l
119.360745 176.191111 l
123.122274 179.580403 l
126.883803 182.765705 l
130.645333 185.759296 l
134.406862 188.572714 l
138.168391 191.216802 l
141.92992 193.701753 l
145.691449 196.037144 l
149.452978 198.231976 l
153.214507 200.29471 l
156.976036 202.233296 l
160.737565 204.055205 l
164.499094 205.76746 l
168.260623 207.376661 l
172.022152 208.88901 l
175.783681 210.310337 l
179.54521 211.646119 l
183.306739 212.901506 l
187.068268 214.081335 l
190.829797 215.190155 l
194.591326 216.232239 l
198.352855 217.211604 l
202.114385 218.132025 l
205.875914 218.997049 l
209.637443 219.81001 l
213.398972 220.574043 l
217.160501 221.292091 l
220.92203 221.966922 l
224.683559 222.601138 l
228.445088 223.197183 l
232.206617 223.757354 l
235.968146 224.28381 l
239.729675 224.778581 l
243.491204 225.243574 l
247.252733 225.68058 l
251.014262 226.091285 l
254.775791 226.477271 l
258.53732 226.840025 l
262.298849 227.180947 l
266.060378 227.501351 l
269.821907 227.80247 l
273.583437 228.085466 l
277.344966 228.351429 l
281.106495 228.601385 l
284.868024 228.836298 l
288.629553 229.057071 l
292.391082 229.264558 l
296.152611 229.459556 l
299.91414 229.642818 l
303.675669 229.815051 l
307.437198 229.976917 l
311.198727 230.129041 l
314.960256 230.272009 l
318.721785 230.406373 l
322.483314 230.53265 l
326.244843 230.651326 l
330.006372 230.76286 l
333.767901 230.867681 l
337.52943 230.966194 l
341.290959 231.058777 l
345.052489 231.145788 l
348.814018 231.227562 l
352.575547 231.304415 l
356.337076 231.376642 l
360.098605 231.444522 l
363.860134 231.508316 l
367.621663 231.568271 l
371.383192 231.624618 l
375.144721 231.677573 l
378.90625 231.727341 l
stroke
grestore
0.122 0.467 0.706 setrgbcolor
gsave
334.8 217.4 44.11 37.54 clipbox
44.130164 37.617326 m
47.891693 48.836102 l
51.653222 59.379662 l
55.414751 69.288645 l
59.17628 78.601243 l
62.93781 87.35335 l
66.699339 95.578701 l
70.460868 103.308998 l
74.222397 110.574038 l
77.983926 117.401822 l
81.745455 123.818667 l
85.506984 129.849306 l
89.268513 135.516984 l
93.030042 140.843545 l
96.791571 145.849521 l
100.5531 150.554205 l
104.314629 154.975732 l
108.076158 159.131144 l
111.837687 163.036457 l
115.599216 166.706723 l
119.360745 170.156091 l
123.122274 173.397853 l
126.883803 176.444506 l
130.645333 179.307793 l
134.406862 181.998748 l
138.168391 184.527746 l
141.92992 186.904532 l
145.691449 189.138268 l
149.452978 191.237564 l
153.214507 193.210512 l
156.976036 195.064715 l
160.737565 196.80732 l
164.499094 198.445045 l
168.260623 199.984201 l
172.022152 201.430721 l
175.783681 202.79018 l
179.54521 204.067818 l
183.306739 205.268561 l
187.068268 206.397035 l
190.829797 207.45759 l
194.591326 208.454314 l
198.352855 209.39105 l
202.114385 210.271407 l
205.875914 211.098778 l
209.637443 211.876353 l
213.398972 212.607129 l
217.160501 213.293922 l
220.92203 213.939379 l
224.683559 214.545989 l
228.445088 215.116089 l
232.206617 215.651877 l
235.968146 216.155418 l
239.729675 216.628653 l
243.491204 217.073405 l
247.252733 217.49139 l
251.014262 217.884217 l
254.775791 218.253402 l
258.53732 218.600367 l
262.298849 218.926449 l
266.060378 219.232906 l
269.821907 219.520918 l
273.583437 219.791596 l
277.344966 220.045982 l
281.106495 220.285058 l
284.868024 220.509745 l
288.629553 220.720909 l
292.391082 220.919364 l
296.152611 221.105875 l
299.91414 221.28116 l
303.675669 221.445895 l
307.437198 221.600716 l
311.198727 221.746218 l
314.960256 221.882964 l
318.721785 222.011479 l
322.483314 222.132259 l
326.244843 222.24577 l
330.006372 222.352449 l
333.767901 222.452707 l
337.52943 222.546932 l
341.290959 222.635485 l
345.052489 222.718709 l
348.814018 222.796923 l
352.575547 222.870431 l
356.337076 222.939514 l
360.098605 223.004439 l
363.860134 223.065457 l
367.621663 223.122802 l
371.383192 223.176696 l
375.144721 223.227346 l
378.90625 223.274948 l
stroke
grestore
1.000 0.498 0.055 setrgbcolor
gsave
334.8 217.4 44.11 37.54 clipbox
44.130164 37.610953 m
47.891693 47.858047 l
51.653222 57.488407 l
55.414751 66.539152 l
59.17628 75.045165 l
62.93781 83.039234 l
66.699339 90.55217 l
70.460868 97.612929 l
74.222397 104.248729 l
77.983926 110.485144 l
81.745455 116.346212 l
85.506984 121.854525 l
89.268513 127.031313 l
93.030042 131.896529 l
96.791571 136.468926 l
100.5531 140.766128 l
104.314629 144.804697 l
108.076158 148.6002 l
111.837687 152.167265 l
115.599216 155.519642 l
119.360745 158.670252 l
123.122274 161.631239 l
126.883803 164.414015 l
130.645333 167.029306 l
134.406862 169.487192 l
138.168391 171.797148 l
141.92992 173.968075 l
145.691449 176.008343 l
149.452978 177.925815 l
153.214507 179.727881 l
156.976036 181.421487 l
160.737565 183.013162 l
164.499094 184.50904 l
168.260623 185.914886 l
172.022152 187.23612 l
175.783681 188.477833 l
179.54521 189.644813 l
183.306739 190.741556 l
187.068268 191.772291 l
190.829797 192.740989 l
194.591326 193.651385 l
198.352855 194.506988 l
202.114385 195.311095 l
205.875914 196.066806 l
209.637443 196.777034 l
213.398972 197.444515 l
217.160501 198.071824 l
220.92203 198.661377 l
224.683559 199.215447 l
228.445088 199.736169 l
232.206617 200.225552 l
235.968146 200.68548 l
239.729675 201.117727 l
243.491204 201.523958 l
247.252733 201.90574 l
251.014262 202.264544 l
254.775791 202.601753 l
258.53732 202.918666 l
262.298849 203.216506 l
266.060378 203.49642 l
269.821907 203.759486 l
273.583437 204.00672 l
277.344966 204.239074 l
281.106495 204.457443 l
284.868024 204.66267 l
288.629553 204.855544 l
292.391082 205.03681 l
296.152611 205.207167 l
299.91414 205.36727 l
303.675669 205.517737 l
307.437198 205.659149 l
311.198727 205.792049 l
314.960256 205.91695 l
318.721785 206.034335 l
322.483314 206.144654 l
326.244843 206.248333 l
330.006372 206.345773 l
333.767901 206.437348 l
337.52943 206.523411 l
341.290959 206.604294 l
345.052489 206.68031 l
348.814018 206.75175 l
352.575547 206.818891 l
356.337076 206.88199 l
360.098605 206.941292 l
363.860134 206.997025 l
367.621663 207.049404 l
371.383192 207.09863 l
375.144721 207.144893 l
378.90625 207.188372 l
stroke
grestore
0.800 setlinewidth
0 setlinecap
0.000 setgray
gsave
/o {
gsave
newpath
translate
0.8 setlinewidth
1 setlinejoin
0 setlinecap
0 0 m
0 -3.5 l

gsave
0.000 setgray
fill
grestore
stroke
grestore
} bind def
44.1063 37.5438 o
grestore
/DejaVuSans findfont
10.000 scalefont
setfont
gsave
40.926563 22.950000 translate
0.000000 rotate
0.000000 0.000000 m /zero glyphshow
grestore
gsave
/o {
gsave
newpath
translate
0.8 setlinewidth
1 setlinejoin
0 setlinecap
0 0 m
0 -3.5 l

gsave
0.000 setgray
fill
grestore
stroke
grestore
} bind def
91.9348 37.5438 o
grestore
gsave
85.575446 22.950000 translate
0.000000 rotate
0.000000 0.000000 m /two glyphshow
6.362305 0.000000 m /zero glyphshow
grestore
gsave
/o {
gsave
newpath
translate
0.8 setlinewidth
1 setlinejoin
0 setlinecap
0 0 m
0 -3.5 l

gsave
0.000 setgray
fill
grestore
stroke
grestore
} bind def
139.763 37.5438 o
grestore
gsave
133.404018 22.950000 translate
0.000000 rotate
0.000000 0.000000 m /four glyphshow
6.362305 0.000000 m /zero glyphshow
grestore
gsave
/o {
gsave
newpath
translate
0.8 setlinewidth
1 setlinejoin
0 setlinecap
0 0 m
0 -3.5 l

gsave
0.000 setgray
fill
grestore
stroke
grestore
} bind def
187.592 37.5438 o
grestore
gsave
181.232589 22.950000 translate
0.000000 rotate
0.000000 0.000000 m /six glyphshow
6.362305 0.000000 m /zero glyphshow
grestore
gsave
/o {
gsave
newpath
translate
0.8 setlinewidth
1 setlinejoin
0 setlinecap
0 0 m
0 -3.5 l

gsave
0.000 setgray
fill
grestore
stroke
grestore
} bind def
235.421 37.5438 o
grestore
gsave
229.061161 22.950000 translate
0.000000 rotate
0.000000 0.000000 m /eight glyphshow
6.362305 0.000000 m /zero glyphshow
grestore
gsave
/o {
gsave
newpath
translate
0.8 setlinewidth
1 setlinejoin
0 setlinecap
0 0 m
0 -3.5 l

gsave
0.000 setgray
fill
grestore
stroke
grestore
} bind def
283.249 37.5438 o
grestore
gsave
273.710045 22.950000 translate
0.000000 rotate
0.000000 0.000000 m /one glyphshow
6.362305 0.000000 m /zero glyphshow
12.724609 0.000000 m /zero glyphshow
grestore
gsave
/o {
gsave
newpath
translate
0.8 setlinewidth
1 setlinejoin
0 setlinecap
0 0 m
0 -3.5 l

gsave
0.000 setgray
fill
grestore
stroke
grestore
} bind def
331.078 37.5438 o
grestore
gsave
321.538616 22.950000 translate
0.000000 rotate
0.000000 0.000000 m /one glyphshow
6.362305 0.000000 m /two glyphshow
12.724609 0.000000 m /zero glyphshow
grestore
gsave
/o {
gsave
newpath
translate
0.8 setlinewidth
1 setlinejoin
0 setlinecap
0 0 m
0 -3.5 l

gsave
0.000 setgray
fill
grestore
stroke
grestore
} bind def
378.906 37.5438 o
grestore
gsave
369.367188 22.950000 translate
0.000000 rotate
0.000000 0.000000 m /one glyphshow
6.362305 0.000000 m /four glyphshow
12.724609 0.000000 m /zero glyphshow
grestore
gsave
166.560938 9.278125 translate
0.000000 rotate
0.000000 0.000000 m /S glyphshow
6.347656 0.000000 m /c glyphshow
11.845703 0.000000 m /a glyphshow
17.973633 0.000000 m /n glyphshow
24.311523 0.000000 m /space glyphshow
27.490234 0.000000 m /l glyphshow
30.268555 0.000000 m /e glyphshow
36.420898 0.000000 m /n glyphshow
42.758789 0.000000 m /g glyphshow
49.106445 0.000000 m /t glyphshow
53.027344 0.000000 m /h glyphshow
59.365234 0.000000 m /space glyphshow
62.543945 0.000000 m /parenleft glyphshow
66.445312 0.000000 m /m glyphshow
76.186523 0.000000 m /m glyphshow
85.927734 0.000000 m /parenright glyphshow
grestore
gsave
/o {
gsave
newpath
translate
0.8 setlinewidth
1 setlinejoin
0 setlinecap
0 0 m
-3.5 0 l

gsave
0.000 setgray
fill
grestore
stroke
grestore
} bind def
44.1063 37.5438 o
grestore
gsave
21.200000 33.746875 translate
0.000000 rotate
0.000000 0.000000 m /zero glyphshow
6.362305 0.000000 m /period glyphshow
9.541016 0.000000 m /zero glyphshow
grestore
gsave
/o {
gsave
newpath
translate
0.8 setlinewidth
1 setlinejoin
0 setlinecap
0 0 m
-3.5 0 l

gsave
0.000 setgray
fill
grestore
stroke
grestore
} bind def
44.1063 61.7037 o
grestore
gsave
21.200000 57.906875 translate
0.000000 rotate
0.000000 0.000000 m /zero glyphshow
6.362305 0.000000 m /period glyphshow
9.541016 0.000000 m /two glyphshow
grestore
gsave
/o {
gsave
newpath
translate
0.8 setlinewidth
1 setlinejoin
0 setlinecap
0 0 m
-3.5 0 l

gsave
0.000 setgray
fill
grestore
stroke
grestore
} bind def
44.1063 85.8638 o
grestore
gsave
21.200000 82.066875 translate
0.000000 rotate
0.000000 0.000000 m /zero glyphshow
6.362305 0.000000 m /period glyphshow
9.541016 0.000000 m /four glyphshow
grestore
gsave
/o {
gsave
newpath
translate
0.8 setlinewidth
1 setlinejoin
0 setlinecap
0 0 m
-3.5 0 l

gsave
0.000 setgray
fill
grestore
stroke
grestore
} bind def
44.1063 110.024 o
grestore
gsave
21.200000 106.226875 translate
0.000000 rotate
0.000000 0.000000 m /zero glyphshow
6.362305 0.000000 m /period glyphshow
9.541016 0.000000 m /six glyphshow
grestore
gsave
/o {
gsave
newpath
translate
0.8 setlinewidth
1 setlinejoin
0 setlinecap
0 0 m
-3.5 0 l

gsave
0.000 setgray
fill
grestore
stroke
grestore
} bind def
44.1063 134.184 o
grestore
gsave
21.200000 130.386875 translate
0.000000 rotate
0.000000 0.000000 m /zero glyphshow
6.362305 0.000000 m /period glyphshow
9.541016 0.000000 m /eight glyphshow
grestore
gsave
/o {
gsave
newpath
translate
0.8 setlinewidth
1 setlinejoin
0 setlinecap
0 0 m
-3.5 0 l

gsave
0.000 setgray
fill
grestore
stroke
grestore
} bind def
44.1063 158.344 o
grestore
gsave
21.200000 154.546875 translate
0.000000 rotate
0.000000 0.000000 m /one glyphshow
6.362305 0.000000 m /period glyphshow
9.541016 0.000000 m /zero glyphshow
grestore
gsave
/o {
gsave
newpath
translate
0.8 setlinewidth
1 setlinejoin
0 setlinecap
0 0 m
-3.5 0 l

gsave
0.000 setgray
fill
grestore
stroke
grestore
} bind def
44.1063 182.504 o
grestore
gsave
21.200000 178.706875 translate
0.000000 rotate
0.000000 0.000000 m /one glyphshow
6.362305 0.000000 m /period glyphshow
9.541016 0.000000 m /two glyphshow
grestore
gsave
/o {
gsave
newpath
translate
0.8 setlinewidth
1 setlinejoin
0 setlinecap
0 0 m
-3.5 0 l

gsave
0.000 setgray
fill
grestore
stroke
grestore
} bind def
44.1063 206.664 o
grestore
gsave
21.200000 202.866875 translate
0.000000 rotate
0.000000 0.000000 m /one glyphshow
6.362305 0.000000 m /period glyphshow
9.541016 0.000000 m /four glyphshow
grestore
gsave
/o {
gsave
newpath
translate
0.8 setlinewidth
1 setlinejoin
0 setlinecap
0 0 m
-3.5 0 l

gsave
0.000 setgray
fill
grestore
stroke
grestore
} bind def
44.1063 230.824 o
grestore
gsave
21.200000 227.026875 translate
0.000000 rotate
0.000000 0.000000 m /one glyphshow
6.362305 0.000000 m /period glyphshow
9.541016 0.000000 m /six glyphshow
grestore
gsave
/o {
gsave
newpath
translate
0.8 setlinewidth
1 setlinejoin
0 setlinecap
0 0 m
-3.5 0 l

gsave
0.000 setgray
fill
grestore
stroke
grestore
} bind def
44.1063 254.984 o
grestore
gsave
21.200000 251.186875 translate
0.000000 rotate
0.000000 0.000000 m /one glyphshow
6.362305 0.000000 m /period glyphshow
9.541016 0.000000 m /eight glyphshow
grestore
gsave
15.121875 114.263750 translate
90.000000 rotate
/DejaVuSans findfont
10.0 scalefont
setfont
0.000000 0.578125 moveto
/D glyphshow

7.700195 0.578125 moveto
/o glyphshow

13.818359 0.578125 moveto
/s glyphshow

19.028320 0.578125 moveto
/e glyphshow

25.180664 0.578125 moveto
/slash glyphshow

28.549805 0.578125 moveto
/C glyphshow

35.532227 0.578125 moveto
/T glyphshow

41.640625 0.578125 moveto
/D glyphshow

49.340820 0.578125 moveto
/I glyphshow

/DejaVuSans-Oblique findfont
7.0 scalefont
setfont
52.385742 -1.062500 moveto
/v glyphshow

56.528320 -1.062500 moveto
/o glyphshow

60.811035 -1.062500 moveto
/l glyphshow


grestore
1.000 setlinewidth
0.122 0.467 0.706 setrgbcolor
gsave
334.8 217.4 44.11 37.54 clipbox
/o {
gsave
newpath
translate
1.0 setlinewidth
1 setlinejoin
0 setlinecap
0 -2.5 m
0.663008 -2.5 1.29895 -2.236584 1.767767 -1.767767 c
2.236584 -1.29895 2.5 -0.663008 2.5 0 c
2.5 0.663008 2.236584 1.29895 1.767767 1.767767 c
1.29895 2.236584 0.663008 2.5 0 2.5 c
-0.663008 2.5 -1.29895 2.236584 -1.767767 1.767767 c
-2.236584 1.29895 -2.5 0.663008 -2.5 0 c
-2.5 -0.663008 -2.236584 -1.29895 -1.767767 -1.767767 c
-1.29895 -2.236584 -0.663008 -2.5 0 -2.5 c
cl

gsave
0.122 0.467 0.706 setrgbcolor
fill
grestore
stroke
grestore
} bind def
139.763 205.862 o
331.078 234.052 o
grestore
1.000 0.498 0.055 setrgbcolor
gsave
334.8 217.4 44.11 37.54 clipbox
/o {
gsave
newpath
translate
1.0 setlinewidth
1 setlinejoin
0 setlinecap
0 -2.5 m
0.663008 -2.5 1.29895 -2.236584 1.767767 -1.767767 c
2.236584 -1.29895 2.5 -0.663008 2.5 0 c
2.5 0.663008 2.236584 1.29895 1.767767 1.767767 c
1.29895 2.236584 0.663008 2.5 0 2.5 c
-0.663008 2.5 -1.29895 2.236584 -1.767767 1.767767 c
-2.236584 1.29895 -2.5 0.663008 -2.5 0 c
-2.5 -0.663008 -2.236584 -1.29895 -1.767767 -1.767767 c
-1.29895 -2.236584 -0.663008 -2.5 0 -2.5 c
cl

gsave
1.000 0.498 0.055 setrgbcolor
fill
grestore
stroke
grestore
} bind def
139.763 184.358 o
331.078 213.57 o
grestore
0.173 0.627 0.173 setrgbcolor
gsave
334.8 217.4 44.11 37.54 clipbox
/o {
gsave
newpath
translate
1.0 setlinewidth
1 setlinejoin
0 setlinecap
0 -2.5 m
0.663008 -2.5 1.29895 -2.236584 1.767767 -1.767767 c
2.236584 -1.29895 2.5 -0.663008 2.5 0 c
2.5 0.663008 2.236584 1.29895 1.767767 1.767767 c
1.29895 2.236584 0.663008 2.5 0 2.5 c
-0.663008 2.5 -1.29895 2.236584 -1.767767 1.767767 c
-2.236584 1.29895 -2.5 0.663008 -2.5 0 c
-2.5 -0.663008 -2.236584 -1.29895 -1.767767 -1.767767 c
-1.29895 -2.236584 -0.663008 -2.5 0 -2.5 c
cl

gsave
0.173 0.627 0.173 setrgbcolor
fill
grestore
stroke
grestore
} bind def
139.763 173.801 o
331.078 199.892 o
grestore
0.839 0.153 0.157 setrgbcolor
gsave
334.8 217.4 44.11 37.54 clipbox
/o {
gsave
newpath
translate
1.0 setlinewidth
1 setlinejoin
0 setlinecap
0 -2.5 m
0.663008 -2.5 1.29895 -2.236584 1.767767 -1.767767 c
2.236584 -1.29895 2.5 -0.663008 2.5 0 c
2.5 0.663008 2.236584 1.29895 1.767767 1.767767 c
1.29895 2.236584 0.663008 2.5 0 2.5 c
-0.663008 2.5 -1.29895 2.236584 -1.767767 1.767767 c
-2.236584 1.29895 -2.5 0.663008 -2.5 0 c
-2.5 -0.663008 -2.236584 -1.29895 -1.767767 -1.767767 c
-1.29895 -2.236584 -0.663008 -2.5 0 -2.5 c
cl

gsave
0.839 0.153 0.157 setrgbcolor
fill
grestore
stroke
grestore
} bind def
139.763 200.183 o
331.078 225.695 o
grestore
0.580 0.404 0.741 setrgbcolor
gsave
334.8 217.4 44.11 37.54 clipbox
/o {
gsave
newpath
translate
1.0 setlinewidth
1 setlinejoin
0 setlinecap
0 -2.5 m
0.663008 -2.5 1.29895 -2.236584 1.767767 -1.767767 c
2.236584 -1.29895 2.5 -0.663008 2.5 0 c
2.5 0.663008 2.236584 1.29895 1.767767 1.767767 c
1.29895 2.236584 0.663008 2.5 0 2.5 c
-0.663008 2.5 -1.29895 2.236584 -1.767767 1.767767 c
-2.236584 1.29895 -2.5 0.663008 -2.5 0 c
-2.5 -0.663008 -2.236584 -1.29895 -1.767767 -1.767767 c
-1.29895 -2.236584 -0.663008 -2.5 0 -2.5 c
cl

gsave
0.580 0.404 0.741 setrgbcolor
fill
grestore
stroke
grestore
} bind def
139.763 168.395 o
331.078 217.304 o
grestore
0.549 0.337 0.294 setrgbcolor
gsave
334.8 217.4 44.11 37.54 clipbox
/o {
gsave
newpath
translate
1.0 setlinewidth
1 setlinejoin
0 setlinecap
0 -2.5 m
0.663008 -2.5 1.29895 -2.236584 1.767767 -1.767767 c
2.236584 -1.29895 2.5 -0.663008 2.5 0 c
2.5 0.663008 2.236584 1.29895 1.767767 1.767767 c
1.29895 2.236584 0.663008 2.5 0 2.5 c
-0.663008 2.5 -1.29895 2.236584 -1.767767 1.767767 c
-2.236584 1.29895 -2.5 0.663008 -2.5 0 c
-2.5 -0.663008 -2.236584 -1.29895 -1.767767 -1.767767 c
-1.29895 -2.236584 -0.663008 -2.5 0 -2.5 c
cl

gsave
0.549 0.337 0.294 setrgbcolor
fill
grestore
stroke
grestore
} bind def
139.763 166.897 o
331.078 209.613 o
grestore
0.890 0.467 0.761 setrgbcolor
gsave
334.8 217.4 44.11 37.54 clipbox
/o {
gsave
newpath
translate
1.0 setlinewidth
1 setlinejoin
0 setlinecap
0 -2.5 m
0.663008 -2.5 1.29895 -2.236584 1.767767 -1.767767 c
2.236584 -1.29895 2.5 -0.663008 2.5 0 c
2.5 0.663008 2.236584 1.29895 1.767767 1.767767 c
1.29895 2.236584 0.663008 2.5 0 2.5 c
-0.663008 2.5 -1.29895 2.236584 -1.767767 1.767767 c
-2.236584 1.29895 -2.5 0.663008 -2.5 0 c
-2.5 -0.663008 -2.236584 -1.29895 -1.767767 -1.767767 c
-1.29895 -2.236584 -0.663008 -2.5 0 -2.5 c
cl

gsave
0.890 0.467 0.761 setrgbcolor
fill
grestore
stroke
grestore
} bind def
139.763 175.296 o
331.078 210.522 o
grestore
0.498 setgray
gsave
334.8 217.4 44.11 37.54 clipbox
/o {
gsave
newpath
translate
1.0 setlinewidth
1 setlinejoin
0 setlinecap
0 -2.5 m
0.663008 -2.5 1.29895 -2.236584 1.767767 -1.767767 c
2.236584 -1.29895 2.5 -0.663008 2.5 0 c
2.5 0.663008 2.236584 1.29895 1.767767 1.767767 c
1.29895 2.236584 0.663008 2.5 0 2.5 c
-0.663008 2.5 -1.29895 2.236584 -1.767767 1.767767 c
-2.236584 1.29895 -2.5 0.663008 -2.5 0 c
-2.5 -0.663008 -2.236584 -1.29895 -1.767767 -1.767767 c
-1.29895 -2.236584 -0.663008 -2.5 0 -2.5 c
cl

gsave
0.498 setgray
fill
grestore
stroke
grestore
} bind def
139.763 169.354 o
331.078 200.724 o
grestore
0.737 0.741 0.133 setrgbcolor
gsave
334.8 217.4 44.11 37.54 clipbox
/o {
gsave
newpath
translate
1.0 setlinewidth
1 setlinejoin
0 setlinecap
0 -2.5 m
0.663008 -2.5 1.29895 -2.236584 1.767767 -1.767767 c
2.236584 -1.29895 2.5 -0.663008 2.5 0 c
2.5 0.663008 2.236584 1.29895 1.767767 1.767767 c
1.29895 2.236584 0.663008 2.5 0 2.5 c
-0.663008 2.5 -1.29895 2.236584 -1.767767 1.767767 c
-2.236584 1.29895 -2.5 0.663008 -2.5 0 c
-2.5 -0.663008 -2.236584 -1.29895 -1.767767 -1.767767 c
-1.29895 -2.236584 -0.663008 -2.5 0 -2.5 c
cl

gsave
0.737 0.741 0.133 setrgbcolor
fill
grestore
stroke
grestore
} bind def
139.763 160.502 o
331.078 194.137 o
grestore
0.090 0.745 0.812 setrgbcolor
gsave
334.8 217.4 44.11 37.54 clipbox
/o {
gsave
newpath
translate
1.0 setlinewidth
1 setlinejoin
0 setlinecap
0 -2.5 m
0.663008 -2.5 1.29895 -2.236584 1.767767 -1.767767 c
2.236584 -1.29895 2.5 -0.663008 2.5 0 c
2.5 0.663008 2.236584 1.29895 1.767767 1.767767 c
1.29895 2.236584 0.663008 2.5 0 2.5 c
-0.663008 2.5 -1.29895 2.236584 -1.767767 1.767767 c
-2.236584 1.29895 -2.5 0.663008 -2.5 0 c
-2.5 -0.663008 -2.236584 -1.29895 -1.767767 -1.767767 c
-1.29895 -2.236584 -0.663008 -2.5 0 -2.5 c
cl

gsave
0.090 0.745 0.812 setrgbcolor
fill
grestore
stroke
grestore
} bind def
139.763 195.854 o
331.078 227.94 o
grestore
0.122 0.467 0.706 setrgbcolor
gsave
334.8 217.4 44.11 37.54 clipbox
/o {
gsave
newpath
translate
1.0 setlinewidth
1 setlinejoin
0 setlinecap
0 -2.5 m
0.663008 -2.5 1.29895 -2.236584 1.767767 -1.767767 c
2.236584 -1.29895 2.5 -0.663008 2.5 0 c
2.5 0.663008 2.236584 1.29895 1.767767 1.767767 c
1.29895 2.236584 0.663008 2.5 0 2.5 c
-0.663008 2.5 -1.29895 2.236584 -1.767767 1.767767 c
-2.236584 1.29895 -2.5 0.663008 -2.5 0 c
-2.5 -0.663008 -2.236584 -1.29895 -1.767767 -1.767767 c
-1.29895 -2.236584 -0.663008 -2.5 0 -2.5 c
cl

gsave
0.122 0.467 0.706 setrgbcolor
fill
grestore
stroke
grestore
} bind def
139.763 181.175 o
331.078 225.887 o
grestore
1.000 0.498 0.055 setrgbcolor
gsave
334.8 217.4 44.11 37.54 clipbox
/o {
gsave
newpath
translate
1.0 setlinewidth
1 setlinejoin
0 setlinecap
0 -2.5 m
0.663008 -2.5 1.29895 -2.236584 1.767767 -1.767767 c
2.236584 -1.29895 2.5 -0.663008 2.5 0 c
2.5 0.663008 2.236584 1.29895 1.767767 1.767767 c
1.29895 2.236584 0.663008 2.5 0 2.5 c
-0.663008 2.5 -1.29895 2.236584 -1.767767 1.767767 c
-2.236584 1.29895 -2.5 0.663008 -2.5 0 c
-2.5 -0.663008 -2.236584 -1.29895 -1.767767 -1.767767 c
-1.29895 -2.236584 -0.663008 -2.5 0 -2.5 c
cl

gsave
1.000 0.498 0.055 setrgbcolor
fill
grestore
stroke
grestore
} bind def
139.763 164.026 o
331.078 213.345 o
grestore
0.800 setlinewidth
0 setlinejoin
2 setlinecap
[] 0 setdash
0.000 setgray
gsave
44.10625 37.54375 m
44.10625 254.98375 l
stroke
grestore
gsave
378.90625 37.54375 m
378.90625 254.98375 l
stroke
grestore
gsave
44.10625 37.54375 m
378.90625 37.54375 l
stroke
grestore
gsave
44.10625 254.98375 m
378.90625 254.98375 l
stroke
grestore
1.000 setlinewidth
0 setlinecap
0.800 setgray
gsave
402.64625 70.92125 m
514.6775 70.92125 l
516.010833 70.92125 516.6775 71.587917 516.6775 72.92125 c
516.6775 247.98375 l
516.6775 249.317083 516.010833 249.98375 514.6775 249.98375 c
402.64625 249.98375 l
401.312917 249.98375 400.64625 249.317083 400.64625 247.98375 c
400.64625 72.92125 l
400.64625 71.587917 401.312917 70.92125 402.64625 70.92125 c
cl
gsave
1.000 setgray
fill
grestore
stroke
grestore
1.500 setlinewidth
1 setlinejoin
2 setlinecap
[] 0 setdash
0.122 0.467 0.706 setrgbcolor
gsave
404.64625 241.89 m
424.64625 241.89 l
stroke
grestore
0.000 setgray
gsave
432.646250 238.390000 translate
0.000000 rotate
0.000000 0.000000 m /four glyphshow
6.362305 0.000000 m /zero glyphshow
12.724609 0.000000 m /space glyphshow
15.903320 0.000000 m /m glyphshow
25.644531 0.000000 m /m glyphshow
35.385742 0.000000 m /slash glyphshow
38.754883 0.000000 m /eight glyphshow
45.117188 0.000000 m /zero glyphshow
51.479492 0.000000 m /space glyphshow
54.658203 0.000000 m /k glyphshow
60.449219 0.000000 m /V glyphshow
67.290039 0.000000 m /p glyphshow
grestore
1.000 0.498 0.055 setrgbcolor
gsave
404.64625 227.218125 m
424.64625 227.218125 l
stroke
grestore
0.000 setgray
gsave
432.646250 223.718125 translate
0.000000 rotate
0.000000 0.000000 m /two glyphshow
6.362305 0.000000 m /zero glyphshow
12.724609 0.000000 m /space glyphshow
15.903320 0.000000 m /m glyphshow
25.644531 0.000000 m /m glyphshow
35.385742 0.000000 m /slash glyphshow
38.754883 0.000000 m /eight glyphshow
45.117188 0.000000 m /zero glyphshow
51.479492 0.000000 m /space glyphshow
54.658203 0.000000 m /k glyphshow
60.449219 0.000000 m /V glyphshow
67.290039 0.000000 m /p glyphshow
grestore
0.173 0.627 0.173 setrgbcolor
gsave
404.64625 212.54625 m
424.64625 212.54625 l
stroke
grestore
0.000 setgray
gsave
432.646250 209.046250 translate
0.000000 rotate
0.000000 0.000000 m /one glyphshow
6.362305 0.000000 m /zero glyphshow
12.724609 0.000000 m /space glyphshow
15.903320 0.000000 m /m glyphshow
25.644531 0.000000 m /m glyphshow
35.385742 0.000000 m /slash glyphshow
38.754883 0.000000 m /eight glyphshow
45.117188 0.000000 m /zero glyphshow
51.479492 0.000000 m /space glyphshow
54.658203 0.000000 m /k glyphshow
60.449219 0.000000 m /V glyphshow
67.290039 0.000000 m /p glyphshow
grestore
0.839 0.153 0.157 setrgbcolor
gsave
404.64625 197.874375 m
424.64625 197.874375 l
stroke
grestore
0.000 setgray
gsave
432.646250 194.374375 translate
0.000000 rotate
0.000000 0.000000 m /four glyphshow
6.362305 0.000000 m /zero glyphshow
12.724609 0.000000 m /space glyphshow
15.903320 0.000000 m /m glyphshow
25.644531 0.000000 m /m glyphshow
35.385742 0.000000 m /slash glyphshow
38.754883 0.000000 m /one glyphshow
45.117188 0.000000 m /zero glyphshow
51.479492 0.000000 m /zero glyphshow
57.841797 0.000000 m /space glyphshow
61.020508 0.000000 m /k glyphshow
66.811523 0.000000 m /V glyphshow
73.652344 0.000000 m /p glyphshow
grestore
0.580 0.404 0.741 setrgbcolor
gsave
404.64625 183.2025 m
424.64625 183.2025 l
stroke
grestore
0.000 setgray
gsave
432.646250 179.702500 translate
0.000000 rotate
0.000000 0.000000 m /two glyphshow
6.362305 0.000000 m /zero glyphshow
12.724609 0.000000 m /space glyphshow
15.903320 0.000000 m /m glyphshow
25.644531 0.000000 m /m glyphshow
35.385742 0.000000 m /slash glyphshow
38.754883 0.000000 m /one glyphshow
45.117188 0.000000 m /zero glyphshow
51.479492 0.000000 m /zero glyphshow
57.841797 0.000000 m /space glyphshow
61.020508 0.000000 m /k glyphshow
66.811523 0.000000 m /V glyphshow
73.652344 0.000000 m /p glyphshow
grestore
0.549 0.337 0.294 setrgbcolor
gsave
404.64625 168.530625 m
424.64625 168.530625 l
stroke
grestore
0.000 setgray
gsave
432.646250 165.030625 translate
0.000000 rotate
0.000000 0.000000 m /one glyphshow
6.362305 0.000000 m /zero glyphshow
12.724609 0.000000 m /space glyphshow
15.903320 0.000000 m /m glyphshow
25.644531 0.000000 m /m glyphshow
35.385742 0.000000 m /slash glyphshow
38.754883 0.000000 m /one glyphshow
45.117188 0.000000 m /zero glyphshow
51.479492 0.000000 m /zero glyphshow
57.841797 0.000000 m /space glyphshow
61.020508 0.000000 m /k glyphshow
66.811523 0.000000 m /V glyphshow
73.652344 0.000000 m /p glyphshow
grestore
0.890 0.467 0.761 setrgbcolor
gsave
404.64625 153.85875 m
424.64625 153.85875 l
stroke
grestore
0.000 setgray
gsave
432.646250 150.358750 translate
0.000000 rotate
0.000000 0.000000 m /four glyphshow
6.362305 0.000000 m /zero glyphshow
12.724609 0.000000 m /space glyphshow
15.903320 0.000000 m /m glyphshow
25.644531 0.000000 m /m glyphshow
35.385742 0.000000 m /slash glyphshow
38.754883 0.000000 m /one glyphshow
45.117188 0.000000 m /two glyphshow
51.479492 0.000000 m /zero glyphshow
57.841797 0.000000 m /space glyphshow
61.020508 0.000000 m /k glyphshow
66.811523 0.000000 m /V glyphshow
73.652344 0.000000 m /p glyphshow
grestore
0.498 setgray
gsave
404.64625 139.186875 m
424.64625 139.186875 l
stroke
grestore
0.000 setgray
gsave
432.646250 135.686875 translate
0.000000 rotate
0.000000 0.000000 m /two glyphshow
6.362305 0.000000 m /zero glyphshow
12.724609 0.000000 m /space glyphshow
15.903320 0.000000 m /m glyphshow
25.644531 0.000000 m /m glyphshow
35.385742 0.000000 m /slash glyphshow
38.754883 0.000000 m /one glyphshow
45.117188 0.000000 m /two glyphshow
51.479492 0.000000 m /zero glyphshow
57.841797 0.000000 m /space glyphshow
61.020508 0.000000 m /k glyphshow
66.811523 0.000000 m /V glyphshow
73.652344 0.000000 m /p glyphshow
grestore
0.737 0.741 0.133 setrgbcolor
gsave
404.64625 124.515 m
424.64625 124.515 l
stroke
grestore
0.000 setgray
gsave
432.646250 121.015000 translate
0.000000 rotate
0.000000 0.000000 m /one glyphshow
6.362305 0.000000 m /zero glyphshow
12.724609 0.000000 m /space glyphshow
15.903320 0.000000 m /m glyphshow
25.644531 0.000000 m /m glyphshow
35.385742 0.000000 m /slash glyphshow
38.754883 0.000000 m /one glyphshow
45.117188 0.000000 m /two glyphshow
51.479492 0.000000 m /zero glyphshow
57.841797 0.000000 m /space glyphshow
61.020508 0.000000 m /k glyphshow
66.811523 0.000000 m /V glyphshow
73.652344 0.000000 m /p glyphshow
grestore
0.090 0.745 0.812 setrgbcolor
gsave
404.64625 109.843125 m
424.64625 109.843125 l
stroke
grestore
0.000 setgray
gsave
432.646250 106.343125 translate
0.000000 rotate
0.000000 0.000000 m /four glyphshow
6.362305 0.000000 m /zero glyphshow
12.724609 0.000000 m /space glyphshow
15.903320 0.000000 m /m glyphshow
25.644531 0.000000 m /m glyphshow
35.385742 0.000000 m /slash glyphshow
38.754883 0.000000 m /one glyphshow
45.117188 0.000000 m /four glyphshow
51.479492 0.000000 m /zero glyphshow
57.841797 0.000000 m /space glyphshow
61.020508 0.000000 m /k glyphshow
66.811523 0.000000 m /V glyphshow
73.652344 0.000000 m /p glyphshow
grestore
0.122 0.467 0.706 setrgbcolor
gsave
404.64625 95.17125 m
424.64625 95.17125 l
stroke
grestore
0.000 setgray
gsave
432.646250 91.671250 translate
0.000000 rotate
0.000000 0.000000 m /two glyphshow
6.362305 0.000000 m /zero glyphshow
12.724609 0.000000 m /space glyphshow
15.903320 0.000000 m /m glyphshow
25.644531 0.000000 m /m glyphshow
35.385742 0.000000 m /slash glyphshow
38.754883 0.000000 m /one glyphshow
45.117188 0.000000 m /four glyphshow
51.479492 0.000000 m /zero glyphshow
57.841797 0.000000 m /space glyphshow
61.020508 0.000000 m /k glyphshow
66.811523 0.000000 m /V glyphshow
73.652344 0.000000 m /p glyphshow
grestore
1.000 0.498 0.055 setrgbcolor
gsave
404.64625 80.499375 m
424.64625 80.499375 l
stroke
grestore
0.000 setgray
gsave
432.646250 76.999375 translate
0.000000 rotate
0.000000 0.000000 m /one glyphshow
6.362305 0.000000 m /zero glyphshow
12.724609 0.000000 m /space glyphshow
15.903320 0.000000 m /m glyphshow
25.644531 0.000000 m /m glyphshow
35.385742 0.000000 m /slash glyphshow
38.754883 0.000000 m /one glyphshow
45.117188 0.000000 m /four glyphshow
51.479492 0.000000 m /zero glyphshow
57.841797 0.000000 m /space glyphshow
61.020508 0.000000 m /k glyphshow
66.811523 0.000000 m /V glyphshow
73.652344 0.000000 m /p glyphshow
grestore

end
showpage
