%!PS-Adobe-3.0 EPSF-3.0
%%Title: fit_unc.eps
%%Creator: matplotlib version 2.0.0, http://matplotlib.org/
%%CreationDate: Mon May 22 17:36:23 2017
%%Orientation: portrait
%%BoundingBox: 90 252 522 540
%%EndComments
%%BeginProlog
/mpldict 9 dict def
mpldict begin
/m { moveto } bind def
/l { lineto } bind def
/r { rlineto } bind def
/c { curveto } bind def
/cl { closepath } bind def
/box {
m
1 index 0 r
0 exch r
neg 0 r
cl
} bind def
/clipbox {
box
clip
newpath
} bind def
%!PS-Adobe-3.0 Resource-Font
%%Title: DejaVu Sans
%%Copyright: Copyright (c) 2003 by Bitstream, Inc. All Rights Reserved. Copyright (c) 2006 by Tavmjong Bah. All Rights Reserved. DejaVu changes are in public domain 
%%Creator: Converted from TrueType to type 3 by PPR
25 dict begin
/_d{bind def}bind def
/_m{moveto}_d
/_l{lineto}_d
/_cl{closepath eofill}_d
/_c{curveto}_d
/_sc{7 -1 roll{setcachedevice}{pop pop pop pop pop pop}ifelse}_d
/_e{exec}_d
/FontName /DejaVuSans def
/PaintType 0 def
/FontMatrix[.001 0 0 .001 0 0]def
/FontBBox[-1021 -463 1793 1232]def
/FontType 3 def
/Encoding [ /space /percent /parenleft /parenright /period /slash /zero /one /two /three /four /five /six /eight /E /F /T /U /V /a /c /e /i /k /l /n /o /p /r /t /u /x /y /uni0394 ] def
/FontInfo 10 dict dup begin
/FamilyName (DejaVu Sans) def
/FullName (DejaVu Sans) def
/Notice (Copyright (c) 2003 by Bitstream, Inc. All Rights Reserved. Copyright (c) 2006 by Tavmjong Bah. All Rights Reserved. DejaVu changes are in public domain ) def
/Weight (Book) def
/Version (Version 2.35) def
/ItalicAngle 0.0 def
/isFixedPitch false def
/UnderlinePosition -130 def
/UnderlineThickness 90 def
end readonly def
/CharStrings 34 dict dup begin
/space{318 0 0 0 0 0 _sc
}_d
/percent{{950 0 55 -13 895 742 _sc
727 321 _m
699 321 676 309 660 285 _c
644 261 636 227 636 184 _c
636 142 644 108 660 84 _c
676 60 699 48 727 48 _c
755 48 777 60 793 84 _c
809 108 817 142 817 184 _c
817 226 809 260 793 284 _c
777 308 755 321 727 321 _c
727 383 _m
778 383 819 365 849 329 _c
879 293 895 244 895 184 _c
895 123 879 75 849 40 _c
819 4 778 -13 727 -13 _c
}_e{675 -13 633 4 603 40 _c
573 75 558 123 558 184 _c
558 245 573 293 603 329 _c
633 365 675 383 727 383 _c
223 680 _m
195 680 173 667 157 643 _c
141 619 133 586 133 544 _c
133 500 141 467 157 443 _c
173 419 195 407 223 407 _c
251 407 274 419 290 443 _c
306 467 314 500 314 544 _c
314 586 305 619 289 643 _c
273 667 251 680 223 680 _c
664 742 _m
742 742 _l
286 -13 _l
}_e{208 -13 _l
664 742 _l
223 742 _m
274 742 315 724 346 688 _c
376 652 392 604 392 544 _c
392 482 376 434 346 398 _c
316 362 275 345 223 345 _c
171 345 130 362 100 398 _c
70 434 55 482 55 544 _c
55 604 70 652 100 688 _c
130 724 171 742 223 742 _c
_cl}_e}_d
/parenleft{390 0 86 -131 310 759 _sc
310 759 _m
266 683 234 609 213 536 _c
191 463 181 389 181 314 _c
181 238 191 164 213 91 _c
234 17 266 -56 310 -131 _c
232 -131 _l
183 -54 146 20 122 94 _c
98 168 86 241 86 314 _c
86 386 98 459 122 533 _c
146 607 182 682 232 759 _c
310 759 _l
_cl}_d
/parenright{390 0 80 -131 304 759 _sc
80 759 _m
158 759 _l
206 682 243 607 267 533 _c
291 459 304 386 304 314 _c
304 241 291 168 267 94 _c
243 20 206 -54 158 -131 _c
80 -131 _l
123 -56 155 17 177 91 _c
198 164 209 238 209 314 _c
209 389 198 463 177 536 _c
155 609 123 683 80 759 _c
_cl}_d
/period{318 0 107 0 210 124 _sc
107 124 _m
210 124 _l
210 0 _l
107 0 _l
107 124 _l
_cl}_d
/slash{337 0 0 -92 337 729 _sc
254 729 _m
337 729 _l
83 -92 _l
0 -92 _l
254 729 _l
_cl}_d
/zero{636 0 66 -13 570 742 _sc
318 664 _m
267 664 229 639 203 589 _c
177 539 165 464 165 364 _c
165 264 177 189 203 139 _c
229 89 267 64 318 64 _c
369 64 407 89 433 139 _c
458 189 471 264 471 364 _c
471 464 458 539 433 589 _c
407 639 369 664 318 664 _c
318 742 _m
399 742 461 709 505 645 _c
548 580 570 486 570 364 _c
570 241 548 147 505 83 _c
461 19 399 -13 318 -13 _c
236 -13 173 19 130 83 _c
87 147 66 241 66 364 _c
66 486 87 580 130 645 _c
173 709 236 742 318 742 _c
_cl}_d
/one{636 0 110 0 544 729 _sc
124 83 _m
285 83 _l
285 639 _l
110 604 _l
110 694 _l
284 729 _l
383 729 _l
383 83 _l
544 83 _l
544 0 _l
124 0 _l
124 83 _l
_cl}_d
/two{{636 0 73 0 536 742 _sc
192 83 _m
536 83 _l
536 0 _l
73 0 _l
73 83 _l
110 121 161 173 226 239 _c
290 304 331 346 348 365 _c
380 400 402 430 414 455 _c
426 479 433 504 433 528 _c
433 566 419 598 392 622 _c
365 646 330 659 286 659 _c
255 659 222 653 188 643 _c
154 632 117 616 78 594 _c
78 694 _l
118 710 155 722 189 730 _c
223 738 255 742 284 742 _c
}_e{359 742 419 723 464 685 _c
509 647 532 597 532 534 _c
532 504 526 475 515 449 _c
504 422 484 390 454 354 _c
446 344 420 317 376 272 _c
332 227 271 164 192 83 _c
_cl}_e}_d
/three{{636 0 76 -13 556 742 _sc
406 393 _m
453 383 490 362 516 330 _c
542 298 556 258 556 212 _c
556 140 531 84 482 45 _c
432 6 362 -13 271 -13 _c
240 -13 208 -10 176 -4 _c
144 1 110 10 76 22 _c
76 117 _l
103 101 133 89 166 81 _c
198 73 232 69 268 69 _c
330 69 377 81 409 105 _c
441 129 458 165 458 212 _c
458 254 443 288 413 312 _c
383 336 341 349 287 349 _c
}_e{202 349 _l
202 430 _l
291 430 _l
339 430 376 439 402 459 _c
428 478 441 506 441 543 _c
441 580 427 609 401 629 _c
374 649 336 659 287 659 _c
260 659 231 656 200 650 _c
169 644 135 635 98 623 _c
98 711 _l
135 721 170 729 203 734 _c
235 739 266 742 296 742 _c
370 742 429 725 473 691 _c
517 657 539 611 539 553 _c
539 513 527 479 504 451 _c
481 423 448 403 406 393 _c
_cl}_e}_d
/four{636 0 49 0 580 729 _sc
378 643 _m
129 254 _l
378 254 _l
378 643 _l
352 729 _m
476 729 _l
476 254 _l
580 254 _l
580 172 _l
476 172 _l
476 0 _l
378 0 _l
378 172 _l
49 172 _l
49 267 _l
352 729 _l
_cl}_d
/five{{636 0 77 -13 549 729 _sc
108 729 _m
495 729 _l
495 646 _l
198 646 _l
198 467 _l
212 472 227 476 241 478 _c
255 480 270 482 284 482 _c
365 482 429 459 477 415 _c
525 370 549 310 549 234 _c
549 155 524 94 475 51 _c
426 8 357 -13 269 -13 _c
238 -13 207 -10 175 -6 _c
143 -1 111 6 77 17 _c
77 116 _l
106 100 136 88 168 80 _c
199 72 232 69 267 69 _c
}_e{323 69 368 83 401 113 _c
433 143 450 183 450 234 _c
450 284 433 324 401 354 _c
368 384 323 399 267 399 _c
241 399 214 396 188 390 _c
162 384 135 375 108 363 _c
108 729 _l
_cl}_e}_d
/six{{636 0 70 -13 573 742 _sc
330 404 _m
286 404 251 388 225 358 _c
199 328 186 286 186 234 _c
186 181 199 139 225 109 _c
251 79 286 64 330 64 _c
374 64 409 79 435 109 _c
461 139 474 181 474 234 _c
474 286 461 328 435 358 _c
409 388 374 404 330 404 _c
526 713 _m
526 623 _l
501 635 476 644 451 650 _c
425 656 400 659 376 659 _c
310 659 260 637 226 593 _c
}_e{192 549 172 482 168 394 _c
187 422 211 444 240 459 _c
269 474 301 482 336 482 _c
409 482 467 459 509 415 _c
551 371 573 310 573 234 _c
573 159 550 99 506 54 _c
462 9 403 -13 330 -13 _c
246 -13 181 19 137 83 _c
92 147 70 241 70 364 _c
70 479 97 571 152 639 _c
206 707 280 742 372 742 _c
396 742 421 739 447 735 _c
472 730 498 723 526 713 _c
_cl}_e}_d
/eight{{636 0 68 -13 568 742 _sc
318 346 _m
271 346 234 333 207 308 _c
180 283 167 249 167 205 _c
167 161 180 126 207 101 _c
234 76 271 64 318 64 _c
364 64 401 76 428 102 _c
455 127 469 161 469 205 _c
469 249 455 283 429 308 _c
402 333 365 346 318 346 _c
219 388 _m
177 398 144 418 120 447 _c
96 476 85 511 85 553 _c
85 611 105 657 147 691 _c
188 725 245 742 318 742 _c
}_e{390 742 447 725 489 691 _c
530 657 551 611 551 553 _c
551 511 539 476 515 447 _c
491 418 459 398 417 388 _c
464 377 501 355 528 323 _c
554 291 568 251 568 205 _c
568 134 546 80 503 43 _c
459 5 398 -13 318 -13 _c
237 -13 175 5 132 43 _c
89 80 68 134 68 205 _c
68 251 81 291 108 323 _c
134 355 171 377 219 388 _c
183 544 _m
183 506 194 476 218 455 _c
}_e{242 434 275 424 318 424 _c
360 424 393 434 417 455 _c
441 476 453 506 453 544 _c
453 582 441 611 417 632 _c
393 653 360 664 318 664 _c
275 664 242 653 218 632 _c
194 611 183 582 183 544 _c
_cl}_e}_d
/E{632 0 98 0 568 729 _sc
98 729 _m
559 729 _l
559 646 _l
197 646 _l
197 430 _l
544 430 _l
544 347 _l
197 347 _l
197 83 _l
568 83 _l
568 0 _l
98 0 _l
98 729 _l
_cl}_d
/F{575 0 98 0 517 729 _sc
98 729 _m
517 729 _l
517 646 _l
197 646 _l
197 431 _l
486 431 _l
486 348 _l
197 348 _l
197 0 _l
98 0 _l
98 729 _l
_cl}_d
/T{611 0 -2 0 614 729 _sc
-2 729 _m
614 729 _l
614 646 _l
355 646 _l
355 0 _l
256 0 _l
256 646 _l
-2 646 _l
-2 729 _l
_cl}_d
/U{732 0 87 -13 645 729 _sc
87 729 _m
186 729 _l
186 286 _l
186 208 200 151 228 117 _c
256 83 302 66 366 66 _c
429 66 475 83 503 117 _c
531 151 546 208 546 286 _c
546 729 _l
645 729 _l
645 274 _l
645 178 621 107 574 59 _c
527 11 458 -13 366 -13 _c
274 -13 204 11 157 59 _c
110 107 87 178 87 274 _c
87 729 _l
_cl}_d
/V{684 0 8 0 676 729 _sc
286 0 _m
8 729 _l
111 729 _l
342 115 _l
573 729 _l
676 729 _l
398 0 _l
286 0 _l
_cl}_d
/a{{613 0 60 -13 522 560 _sc
343 275 _m
270 275 220 266 192 250 _c
164 233 150 205 150 165 _c
150 133 160 107 181 89 _c
202 70 231 61 267 61 _c
317 61 357 78 387 114 _c
417 149 432 196 432 255 _c
432 275 _l
343 275 _l
522 312 _m
522 0 _l
432 0 _l
432 83 _l
411 49 385 25 355 10 _c
325 -5 287 -13 243 -13 _c
187 -13 142 2 109 33 _c
76 64 60 106 60 159 _c
}_e{60 220 80 266 122 298 _c
163 329 224 345 306 345 _c
432 345 _l
432 354 _l
432 395 418 427 391 450 _c
364 472 326 484 277 484 _c
245 484 215 480 185 472 _c
155 464 127 453 100 439 _c
100 522 _l
132 534 164 544 195 550 _c
226 556 256 560 286 560 _c
365 560 424 539 463 498 _c
502 457 522 395 522 312 _c
_cl}_e}_d
/c{{550 0 55 -13 488 560 _sc
488 526 _m
488 442 _l
462 456 437 466 411 473 _c
385 480 360 484 334 484 _c
276 484 230 465 198 428 _c
166 391 150 339 150 273 _c
150 206 166 154 198 117 _c
230 80 276 62 334 62 _c
360 62 385 65 411 72 _c
437 79 462 90 488 104 _c
488 21 _l
462 9 436 0 410 -5 _c
383 -10 354 -13 324 -13 _c
242 -13 176 12 128 64 _c
}_e{79 115 55 185 55 273 _c
55 362 79 432 128 483 _c
177 534 244 560 330 560 _c
358 560 385 557 411 551 _c
437 545 463 537 488 526 _c
_cl}_e}_d
/e{{615 0 55 -13 562 560 _sc
562 296 _m
562 252 _l
149 252 _l
153 190 171 142 205 110 _c
238 78 284 62 344 62 _c
378 62 412 66 444 74 _c
476 82 509 95 541 113 _c
541 28 _l
509 14 476 3 442 -3 _c
408 -9 373 -13 339 -13 _c
251 -13 182 12 131 62 _c
80 112 55 181 55 268 _c
55 357 79 428 127 481 _c
175 533 241 560 323 560 _c
397 560 455 536 498 489 _c
}_e{540 441 562 377 562 296 _c
472 322 _m
471 371 457 410 431 440 _c
404 469 368 484 324 484 _c
274 484 234 469 204 441 _c
174 413 156 373 152 322 _c
472 322 _l
_cl}_e}_d
/i{278 0 94 0 184 760 _sc
94 547 _m
184 547 _l
184 0 _l
94 0 _l
94 547 _l
94 760 _m
184 760 _l
184 646 _l
94 646 _l
94 760 _l
_cl}_d
/k{579 0 91 0 576 760 _sc
91 760 _m
181 760 _l
181 311 _l
449 547 _l
564 547 _l
274 291 _l
576 0 _l
459 0 _l
181 267 _l
181 0 _l
91 0 _l
91 760 _l
_cl}_d
/l{278 0 94 0 184 760 _sc
94 760 _m
184 760 _l
184 0 _l
94 0 _l
94 760 _l
_cl}_d
/n{634 0 91 0 549 560 _sc
549 330 _m
549 0 _l
459 0 _l
459 327 _l
459 379 448 417 428 443 _c
408 469 378 482 338 482 _c
289 482 251 466 223 435 _c
195 404 181 362 181 309 _c
181 0 _l
91 0 _l
91 547 _l
181 547 _l
181 462 _l
202 494 227 519 257 535 _c
286 551 320 560 358 560 _c
420 560 468 540 500 501 _c
532 462 549 405 549 330 _c
_cl}_d
/o{612 0 55 -13 557 560 _sc
306 484 _m
258 484 220 465 192 427 _c
164 389 150 338 150 273 _c
150 207 163 156 191 118 _c
219 80 257 62 306 62 _c
354 62 392 80 420 118 _c
448 156 462 207 462 273 _c
462 337 448 389 420 427 _c
392 465 354 484 306 484 _c
306 560 _m
384 560 445 534 490 484 _c
534 433 557 363 557 273 _c
557 183 534 113 490 63 _c
445 12 384 -13 306 -13 _c
227 -13 165 12 121 63 _c
77 113 55 183 55 273 _c
55 363 77 433 121 484 _c
165 534 227 560 306 560 _c
_cl}_d
/p{{635 0 91 -207 580 560 _sc
181 82 _m
181 -207 _l
91 -207 _l
91 547 _l
181 547 _l
181 464 _l
199 496 223 520 252 536 _c
281 552 316 560 356 560 _c
422 560 476 533 518 481 _c
559 428 580 359 580 273 _c
580 187 559 117 518 65 _c
476 13 422 -13 356 -13 _c
316 -13 281 -5 252 10 _c
223 25 199 49 181 82 _c
487 273 _m
487 339 473 390 446 428 _c
418 466 381 485 334 485 _c
}_e{286 485 249 466 222 428 _c
194 390 181 339 181 273 _c
181 207 194 155 222 117 _c
249 79 286 61 334 61 _c
381 61 418 79 446 117 _c
473 155 487 207 487 273 _c
_cl}_e}_d
/r{411 0 91 0 411 560 _sc
411 463 _m
401 469 390 473 378 476 _c
366 478 353 480 339 480 _c
288 480 249 463 222 430 _c
194 397 181 350 181 288 _c
181 0 _l
91 0 _l
91 547 _l
181 547 _l
181 462 _l
199 495 224 520 254 536 _c
284 552 321 560 365 560 _c
371 560 378 559 386 559 _c
393 558 401 557 411 555 _c
411 463 _l
_cl}_d
/t{392 0 27 0 368 702 _sc
183 702 _m
183 547 _l
368 547 _l
368 477 _l
183 477 _l
183 180 _l
183 135 189 106 201 94 _c
213 81 238 75 276 75 _c
368 75 _l
368 0 _l
276 0 _l
206 0 158 13 132 39 _c
106 65 93 112 93 180 _c
93 477 _l
27 477 _l
27 547 _l
93 547 _l
93 702 _l
183 702 _l
_cl}_d
/u{634 0 85 -13 543 560 _sc
85 216 _m
85 547 _l
175 547 _l
175 219 _l
175 167 185 129 205 103 _c
225 77 255 64 296 64 _c
344 64 383 79 411 110 _c
439 141 453 183 453 237 _c
453 547 _l
543 547 _l
543 0 _l
453 0 _l
453 84 _l
431 50 405 26 377 10 _c
348 -5 315 -13 277 -13 _c
214 -13 166 6 134 45 _c
101 83 85 140 85 216 _c
311 560 _m
311 560 _l
_cl}_d
/x{592 0 29 0 559 547 _sc
549 547 _m
351 281 _l
559 0 _l
453 0 _l
294 215 _l
135 0 _l
29 0 _l
241 286 _l
47 547 _l
153 547 _l
298 352 _l
443 547 _l
549 547 _l
_cl}_d
/y{592 0 30 -207 562 547 _sc
322 -50 _m
296 -114 271 -157 247 -177 _c
223 -197 191 -207 151 -207 _c
79 -207 _l
79 -132 _l
132 -132 _l
156 -132 175 -126 189 -114 _c
203 -102 218 -75 235 -31 _c
251 9 _l
30 547 _l
125 547 _l
296 119 _l
467 547 _l
562 547 _l
322 -50 _l
_cl}_d
/uni0394{684 0 8 0 676 729 _sc
342 632 _m
142 82 _l
542 82 _l
342 632 _l
8 0 _m
286 729 _l
398 729 _l
676 0 _l
8 0 _l
_cl}_d
end readonly def

/BuildGlyph
 {exch begin
 CharStrings exch
 2 copy known not{pop /.notdef}if
 true 3 1 roll get exec
 end}_d

/BuildChar {
 1 index /Encoding get exch get
 1 index /BuildGlyph get exec
}_d

FontName currentdict end definefont pop
%!PS-Adobe-3.0 Resource-Font
%%Title: DejaVu Sans Oblique
%%Copyright: Copyright (c) 2003 by Bitstream, Inc. All Rights Reserved. Copyright (c) 2006 by Tavmjong Bah. All Rights Reserved. DejaVu changes are in public domain 
%%Creator: Converted from TrueType to type 3 by PPR
25 dict begin
/_d{bind def}bind def
/_m{moveto}_d
/_l{lineto}_d
/_cl{closepath eofill}_d
/_c{curveto}_d
/_sc{7 -1 roll{setcachedevice}{pop pop pop pop pop pop}ifelse}_d
/_e{exec}_d
/FontName /DejaVuSans-Oblique def
/PaintType 0 def
/FontMatrix[.001 0 0 .001 0 0]def
/FontBBox[-1016 -350 1659 1068]def
/FontType 3 def
/Encoding [ /D /R /sigma ] def
/FontInfo 10 dict dup begin
/FamilyName (DejaVu Sans) def
/FullName (DejaVu Sans Oblique) def
/Notice (Copyright (c) 2003 by Bitstream, Inc. All Rights Reserved. Copyright (c) 2006 by Tavmjong Bah. All Rights Reserved. DejaVu changes are in public domain ) def
/Weight (Oblique) def
/Version (Version 2.35) def
/ItalicAngle -11.0 def
/isFixedPitch false def
/UnderlinePosition -130 def
/UnderlineThickness 90 def
end readonly def
/CharStrings 3 dict dup begin
/D{770 0 27 0 722 729 _sc
169 729 _m
381 729 _l
493 729 578 705 636 657 _c
693 609 722 539 722 445 _c
722 383 711 323 689 265 _c
667 207 637 159 599 120 _c
560 80 511 50 451 30 _c
391 10 321 0 240 0 _c
27 0 _l
169 729 _l
252 648 _m
142 81 _l
271 81 _l
381 81 467 112 527 176 _c
587 239 618 329 618 445 _c
618 515 598 566 559 599 _c
520 631 459 648 376 648 _c
252 648 _l
_cl}_d
/R{{695 0 27 0 600 729 _sc
252 648 _m
202 389 _l
329 389 _l
379 389 419 402 450 430 _c
480 458 496 494 496 538 _c
496 573 485 600 465 619 _c
444 638 414 648 376 648 _c
252 648 _l
433 350 _m
453 345 471 333 485 314 _c
499 294 515 256 533 199 _c
595 0 _l
491 0 _l
434 187 _l
419 235 402 267 383 283 _c
363 299 334 308 295 308 _c
186 308 _l
126 0 _l
27 0 _l
169 729 _l
}_e{391 729 _l
458 729 510 713 546 683 _c
582 653 600 609 600 552 _c
600 501 584 457 554 420 _c
523 382 483 359 433 350 _c
_cl}_e}_d
/sigma{{634 0 57 -13 659 547 _sc
347 476 _m
297 476 255 458 222 422 _c
186 384 163 335 151 273 _c
138 207 142 156 163 118 _c
183 80 218 62 267 62 _c
314 62 355 81 391 119 _c
426 156 450 207 463 273 _c
474 332 470 382 450 422 _c
431 458 397 476 347 476 _c
361 547 _m
659 547 _l
642 457 _l
541 457 _l
566 406 572 345 559 273 _c
541 183 505 113 451 63 _c
396 12 329 -13 251 -13 _c
}_e{173 -13 116 12 82 63 _c
47 113 39 183 57 273 _c
74 363 110 433 164 484 _c
209 526 275 547 361 547 _c
_cl}_e}_d
end readonly def

/BuildGlyph
 {exch begin
 CharStrings exch
 2 copy known not{pop /.notdef}if
 true 3 1 roll get exec
 end}_d

/BuildChar {
 1 index /Encoding get exch get
 1 index /BuildGlyph get exec
}_d

FontName currentdict end definefont pop
end
%%EndProlog
mpldict begin
90 252 translate
432 288 0 0 clipbox
gsave
0 0 m
432 0 l
432 288 l
0 288 l
cl
1.000 setgray
fill
grestore
gsave
54 36 m
388.8 36 l
388.8 253.44 l
54 253.44 l
cl
1.000 setgray
fill
grestore
1.500 setlinewidth
1 setlinejoin
2 setlinecap
[] 0 setdash
0.122 0.467 0.706 setrgbcolor
gsave
334.8 217.4 54 36 clipbox
54 65.09086 m
57.761798 65.09099 l
61.523596 65.091391 l
65.285393 65.092081 l
69.047191 65.093079 l
72.808989 65.094405 l
76.570787 65.096082 l
80.332584 65.098133 l
84.094382 65.100582 l
87.85618 65.103457 l
91.617978 65.106785 l
95.379775 65.110597 l
99.141573 65.114927 l
102.903371 65.119808 l
106.665169 65.125279 l
110.426966 65.13138 l
114.188764 65.138153 l
117.950562 65.145646 l
121.71236 65.153909 l
125.474157 65.162995 l
129.235955 65.172961 l
132.997753 65.183871 l
136.759551 65.195792 l
140.521348 65.208795 l
144.283146 65.22296 l
148.044944 65.238371 l
151.806742 65.255118 l
155.568539 65.273302 l
159.330337 65.293029 l
163.092135 65.314416 l
166.853933 65.337589 l
170.61573 65.362685 l
174.377528 65.389852 l
178.139326 65.419253 l
181.901124 65.451065 l
185.662921 65.485481 l
189.424719 65.522711 l
193.186517 65.562984 l
196.948315 65.606553 l
200.710112 65.653694 l
204.47191 65.704709 l
208.233708 65.75993 l
211.995506 65.819723 l
215.757303 65.884491 l
219.519101 65.954677 l
223.280899 66.030771 l
227.042697 66.113316 l
230.804494 66.202913 l
234.566292 66.300227 l
238.32809 66.405999 l
242.089888 66.521053 l
245.851685 66.646308 l
249.613483 66.78279 l
253.375281 66.931648 l
257.137079 67.094169 l
260.898876 67.271801 l
264.660674 67.466172 l
268.422472 67.679121 l
272.18427 67.912725 l
275.946067 68.169342 l
279.707865 68.451648 l
283.469663 68.762695 l
287.231461 69.105969 l
290.993258 69.485463 l
294.755056 69.90577 l
298.516854 70.372184 l
302.278652 70.890834 l
306.040449 71.46884 l
309.802247 72.114509 l
313.564045 72.837572 l
317.325843 73.64949 l
321.08764 74.563832 l
324.849438 75.596754 l
328.611236 76.767622 l
332.373034 78.099821 l
336.134831 79.621816 l
339.896629 81.36858 l
343.658427 83.383529 l
347.420225 85.721201 l
351.182022 88.451033 l
354.94382 91.662803 l
358.705618 95.474676 l
362.467416 100.045413 l
366.229213 105.59353 l
369.991011 112.428467 l
373.752809 121.00363 l
377.514607 132.011523 l
381.276404 146.565902 l
385.038202 166.580494 l
388.8 195.645956 l
stroke
grestore
1.000 0.498 0.055 setrgbcolor
gsave
334.8 217.4 54 36 clipbox
54 51.96224 m
57.761798 51.962317 l
61.523596 51.962556 l
65.285393 51.962967 l
69.047191 51.963561 l
72.808989 51.96435 l
76.570787 51.965348 l
80.332584 51.966567 l
84.094382 51.968024 l
87.85618 51.969733 l
91.617978 51.971712 l
95.379775 51.973978 l
99.141573 51.976551 l
102.903371 51.979452 l
106.665169 51.982702 l
110.426966 51.986325 l
114.188764 51.990348 l
117.950562 51.994797 l
121.71236 51.999701 l
125.474157 52.005093 l
129.235955 52.011006 l
132.997753 52.017477 l
136.759551 52.024546 l
140.521348 52.032255 l
144.283146 52.04065 l
148.044944 52.049781 l
151.806742 52.059701 l
155.568539 52.070468 l
159.330337 52.082146 l
163.092135 52.094802 l
166.853933 52.10851 l
170.61573 52.12335 l
174.377528 52.139409 l
178.139326 52.156782 l
181.901124 52.175572 l
185.662921 52.195892 l
189.424719 52.217863 l
193.186517 52.24162 l
196.948315 52.267308 l
200.710112 52.295089 l
204.47191 52.325137 l
208.233708 52.357645 l
211.995506 52.392825 l
215.757303 52.430909 l
219.519101 52.472153 l
223.280899 52.51684 l
227.042697 52.565283 l
230.804494 52.617826 l
234.566292 52.674853 l
238.32809 52.736787 l
242.089888 52.804101 l
245.851685 52.877319 l
249.613483 52.957027 l
253.375281 53.043879 l
257.137079 53.138607 l
260.898876 53.242032 l
264.660674 53.355076 l
268.422472 53.478778 l
272.18427 53.614309 l
275.946067 53.762994 l
279.707865 53.926336 l
283.469663 54.106042 l
287.231461 54.304058 l
290.993258 54.522607 l
294.755056 54.764238 l
298.516854 55.031882 l
302.278652 55.32892 l
306.040449 55.659269 l
309.802247 56.027482 l
313.564045 56.438879 l
317.325843 56.899698 l
321.08764 57.417301 l
324.849438 58.000419 l
328.611236 58.659477 l
332.373034 59.40701 l
336.134831 60.25821 l
339.896629 61.231655 l
343.658427 62.350292 l
347.420225 63.64279 l
351.182022 65.145431 l
354.94382 66.904813 l
358.705618 68.981811 l
362.467416 71.457509 l
366.229213 74.442396 l
369.991011 78.091098 l
373.752809 82.626981 l
377.514607 88.385305 l
381.276404 95.893597 l
385.038202 106.032963 l
388.8 120.39458 l
stroke
grestore
0.173 0.627 0.173 setrgbcolor
gsave
334.8 217.4 54 36 clipbox
54 98.983152 m
57.761798 98.983772 l
61.523596 98.985688 l
65.285393 98.988983 l
69.047191 98.99375 l
72.808989 99.000086 l
76.570787 99.008093 l
80.332584 99.017882 l
84.094382 99.029572 l
87.85618 99.043288 l
91.617978 99.059164 l
95.379775 99.077344 l
99.141573 99.097983 l
102.903371 99.121245 l
106.665169 99.147305 l
110.426966 99.176354 l
114.188764 99.208594 l
117.950562 99.244241 l
121.71236 99.283528 l
125.474157 99.326706 l
129.235955 99.374043 l
132.997753 99.425828 l
136.759551 99.482371 l
140.521348 99.544007 l
144.283146 99.611096 l
148.044944 99.684026 l
151.806742 99.763214 l
155.568539 99.849112 l
159.330337 99.942208 l
163.092135 100.043028 l
166.853933 100.152142 l
170.61573 100.270167 l
174.377528 100.397769 l
178.139326 100.535674 l
181.901124 100.684665 l
185.662921 100.845595 l
189.424719 101.01939 l
193.186517 101.207058 l
196.948315 101.409694 l
200.710112 101.628494 l
204.47191 101.864761 l
208.233708 102.119915 l
211.995506 102.395512 l
215.757303 102.69325 l
219.519101 103.01499 l
223.280899 103.362772 l
227.042697 103.738834 l
230.804494 104.145635 l
234.566292 104.585879 l
238.32809 105.062544 l
242.089888 105.578915 l
245.851685 106.138617 l
249.613483 106.745661 l
253.375281 107.404487 l
257.137079 108.120019 l
260.898876 108.897729 l
264.660674 109.743707 l
268.422472 110.664742 l
272.18427 111.668418 l
275.946067 112.763229 l
279.707865 113.958704 l
283.469663 115.265564 l
287.231461 116.695902 l
290.993258 118.263398 l
294.755056 119.983576 l
298.516854 121.874115 l
302.278652 123.955221 l
306.040449 126.250088 l
309.802247 128.785456 l
313.564045 131.592308 l
317.325843 134.706739 l
321.08764 138.171053 l
324.849438 142.035155 l
328.611236 146.358349 l
332.373034 151.21167 l
336.134831 156.680966 l
339.896629 162.871001 l
343.658427 169.911021 l
347.420225 177.962427 l
351.182022 187.22952 l
354.94382 197.974891 l
358.705618 210.54196 l
362.467416 225.388857 l
366.229213 243.140916 l
369.991011 264.674903 l
373.433034 289 l
stroke
grestore
0.839 0.153 0.157 setrgbcolor
gsave
334.8 217.4 54 36 clipbox
54 64.966558 m
57.761798 64.966796 l
61.523596 64.967532 l
65.285393 64.968798 l
69.047191 64.97063 l
72.808989 64.973064 l
76.570787 64.976142 l
80.332584 64.979906 l
84.094382 64.984401 l
87.85618 64.989677 l
91.617978 64.995785 l
95.379775 65.002781 l
99.141573 65.010726 l
102.903371 65.019682 l
106.665169 65.029719 l
110.426966 65.04091 l
114.188764 65.053334 l
117.950562 65.067076 l
121.71236 65.082226 l
125.474157 65.098883 l
129.235955 65.11715 l
132.997753 65.137142 l
136.759551 65.15898 l
140.521348 65.182794 l
144.283146 65.208727 l
148.044944 65.236931 l
151.806742 65.26757 l
155.568539 65.300823 l
159.330337 65.336881 l
163.092135 65.375953 l
166.853933 65.418264 l
170.61573 65.46406 l
174.377528 65.513604 l
178.139326 65.567185 l
181.901124 65.625115 l
185.662921 65.687735 l
189.424719 65.755415 l
193.186517 65.828559 l
196.948315 65.907607 l
200.710112 65.99304 l
204.47191 66.085383 l
208.233708 66.185211 l
211.995506 66.293154 l
215.757303 66.409903 l
219.519101 66.536215 l
223.280899 66.672923 l
227.042697 66.820945 l
230.804494 66.981291 l
234.566292 67.155074 l
238.32809 67.343528 l
242.089888 67.548013 l
245.851685 67.770039 l
249.613483 68.01128 l
253.375281 68.273597 l
257.137079 68.559063 l
260.898876 68.869986 l
264.660674 69.208947 l
268.422472 69.578835 l
272.18427 69.98289 l
275.946067 70.424753 l
279.707865 70.908527 l
283.469663 71.438847 l
287.231461 72.020962 l
290.993258 72.660832 l
294.755056 73.365252 l
298.516854 74.141989 l
302.278652 74.999955 l
306.040449 75.949422 l
309.802247 77.002281 l
313.564045 78.172363 l
317.325843 79.475846 l
321.08764 80.931765 l
324.849438 82.56267 l
328.611236 84.39547 l
332.373034 86.46254 l
336.134831 88.803185 l
339.896629 91.465613 l
343.658427 94.509623 l
347.420225 98.010338 l
351.182022 102.063493 l
354.94382 106.793078 l
358.705618 112.362677 l
362.467416 118.992738 l
366.229213 126.98777 l
369.991011 136.78081 l
373.752809 149.009459 l
377.514607 164.653141 l
381.276404 185.298025 l
385.038202 213.693476 l
388.8 255.058469 l
stroke
grestore
0.800 setlinewidth
0 setlinecap
0.000 setgray
gsave
/o {
gsave
newpath
translate
0.8 setlinewidth
1 setlinejoin
0 setlinecap
0 0 m
0 -3.5 l

gsave
0.000 setgray
fill
grestore
stroke
grestore
} bind def
54 36 o
grestore
/DejaVuSans findfont
10.000 scalefont
setfont
gsave
42.867188 21.406250 translate
0.000000 rotate
0.000000 0.000000 m /zero glyphshow
6.362305 0.000000 m /period glyphshow
9.541016 0.000000 m /zero glyphshow
15.903320 0.000000 m /zero glyphshow
grestore
gsave
/o {
gsave
newpath
translate
0.8 setlinewidth
1 setlinejoin
0 setlinecap
0 0 m
0 -3.5 l

gsave
0.000 setgray
fill
grestore
stroke
grestore
} bind def
91.2 36 o
grestore
gsave
80.067188 21.406250 translate
0.000000 rotate
0.000000 0.000000 m /zero glyphshow
6.362305 0.000000 m /period glyphshow
9.541016 0.000000 m /zero glyphshow
15.903320 0.000000 m /five glyphshow
grestore
gsave
/o {
gsave
newpath
translate
0.8 setlinewidth
1 setlinejoin
0 setlinecap
0 0 m
0 -3.5 l

gsave
0.000 setgray
fill
grestore
stroke
grestore
} bind def
128.4 36 o
grestore
gsave
117.267188 21.406250 translate
0.000000 rotate
0.000000 0.000000 m /zero glyphshow
6.362305 0.000000 m /period glyphshow
9.541016 0.000000 m /one glyphshow
15.903320 0.000000 m /zero glyphshow
grestore
gsave
/o {
gsave
newpath
translate
0.8 setlinewidth
1 setlinejoin
0 setlinecap
0 0 m
0 -3.5 l

gsave
0.000 setgray
fill
grestore
stroke
grestore
} bind def
165.6 36 o
grestore
gsave
154.467188 21.406250 translate
0.000000 rotate
0.000000 0.000000 m /zero glyphshow
6.362305 0.000000 m /period glyphshow
9.541016 0.000000 m /one glyphshow
15.903320 0.000000 m /five glyphshow
grestore
gsave
/o {
gsave
newpath
translate
0.8 setlinewidth
1 setlinejoin
0 setlinecap
0 0 m
0 -3.5 l

gsave
0.000 setgray
fill
grestore
stroke
grestore
} bind def
202.8 36 o
grestore
gsave
191.667188 21.406250 translate
0.000000 rotate
0.000000 0.000000 m /zero glyphshow
6.362305 0.000000 m /period glyphshow
9.541016 0.000000 m /two glyphshow
15.903320 0.000000 m /zero glyphshow
grestore
gsave
/o {
gsave
newpath
translate
0.8 setlinewidth
1 setlinejoin
0 setlinecap
0 0 m
0 -3.5 l

gsave
0.000 setgray
fill
grestore
stroke
grestore
} bind def
240 36 o
grestore
gsave
228.867188 21.406250 translate
0.000000 rotate
0.000000 0.000000 m /zero glyphshow
6.362305 0.000000 m /period glyphshow
9.541016 0.000000 m /two glyphshow
15.903320 0.000000 m /five glyphshow
grestore
gsave
/o {
gsave
newpath
translate
0.8 setlinewidth
1 setlinejoin
0 setlinecap
0 0 m
0 -3.5 l

gsave
0.000 setgray
fill
grestore
stroke
grestore
} bind def
277.2 36 o
grestore
gsave
266.067188 21.406250 translate
0.000000 rotate
0.000000 0.000000 m /zero glyphshow
6.362305 0.000000 m /period glyphshow
9.541016 0.000000 m /three glyphshow
15.903320 0.000000 m /zero glyphshow
grestore
gsave
/o {
gsave
newpath
translate
0.8 setlinewidth
1 setlinejoin
0 setlinecap
0 0 m
0 -3.5 l

gsave
0.000 setgray
fill
grestore
stroke
grestore
} bind def
314.4 36 o
grestore
gsave
303.267188 21.406250 translate
0.000000 rotate
0.000000 0.000000 m /zero glyphshow
6.362305 0.000000 m /period glyphshow
9.541016 0.000000 m /three glyphshow
15.903320 0.000000 m /five glyphshow
grestore
gsave
/o {
gsave
newpath
translate
0.8 setlinewidth
1 setlinejoin
0 setlinecap
0 0 m
0 -3.5 l

gsave
0.000 setgray
fill
grestore
stroke
grestore
} bind def
351.6 36 o
grestore
gsave
340.467188 21.406250 translate
0.000000 rotate
0.000000 0.000000 m /zero glyphshow
6.362305 0.000000 m /period glyphshow
9.541016 0.000000 m /four glyphshow
15.903320 0.000000 m /zero glyphshow
grestore
gsave
/o {
gsave
newpath
translate
0.8 setlinewidth
1 setlinejoin
0 setlinecap
0 0 m
0 -3.5 l

gsave
0.000 setgray
fill
grestore
stroke
grestore
} bind def
388.8 36 o
grestore
gsave
377.667188 21.406250 translate
0.000000 rotate
0.000000 0.000000 m /zero glyphshow
6.362305 0.000000 m /period glyphshow
9.541016 0.000000 m /four glyphshow
15.903320 0.000000 m /five glyphshow
grestore
gsave
214.400000 7.734375 translate
0.000000 rotate
/DejaVuSans findfont
10.0 scalefont
setfont
0.000000 0.703125 moveto
/uni0394 glyphshow

/DejaVuSans-Oblique findfont
10.0 scalefont
setfont
6.840820 0.703125 moveto
/R glyphshow


grestore
gsave
/o {
gsave
newpath
translate
0.8 setlinewidth
1 setlinejoin
0 setlinecap
0 0 m
-3.5 0 l

gsave
0.000 setgray
fill
grestore
stroke
grestore
} bind def
54 36 o
grestore
gsave
40.640625 32.203125 translate
0.000000 rotate
0.000000 0.000000 m /zero glyphshow
grestore
gsave
/o {
gsave
newpath
translate
0.8 setlinewidth
1 setlinejoin
0 setlinecap
0 0 m
-3.5 0 l

gsave
0.000 setgray
fill
grestore
stroke
grestore
} bind def
54 72.24 o
grestore
gsave
40.640625 68.443125 translate
0.000000 rotate
0.000000 0.000000 m /two glyphshow
grestore
gsave
/o {
gsave
newpath
translate
0.8 setlinewidth
1 setlinejoin
0 setlinecap
0 0 m
-3.5 0 l

gsave
0.000 setgray
fill
grestore
stroke
grestore
} bind def
54 108.48 o
grestore
gsave
40.640625 104.683125 translate
0.000000 rotate
0.000000 0.000000 m /four glyphshow
grestore
gsave
/o {
gsave
newpath
translate
0.8 setlinewidth
1 setlinejoin
0 setlinecap
0 0 m
-3.5 0 l

gsave
0.000 setgray
fill
grestore
stroke
grestore
} bind def
54 144.72 o
grestore
gsave
40.640625 140.923125 translate
0.000000 rotate
0.000000 0.000000 m /six glyphshow
grestore
gsave
/o {
gsave
newpath
translate
0.8 setlinewidth
1 setlinejoin
0 setlinecap
0 0 m
-3.5 0 l

gsave
0.000 setgray
fill
grestore
stroke
grestore
} bind def
54 180.96 o
grestore
gsave
40.640625 177.163125 translate
0.000000 rotate
0.000000 0.000000 m /eight glyphshow
grestore
gsave
/o {
gsave
newpath
translate
0.8 setlinewidth
1 setlinejoin
0 setlinecap
0 0 m
-3.5 0 l

gsave
0.000 setgray
fill
grestore
stroke
grestore
} bind def
54 217.2 o
grestore
gsave
34.281250 213.403125 translate
0.000000 rotate
0.000000 0.000000 m /one glyphshow
6.362305 0.000000 m /zero glyphshow
grestore
gsave
/o {
gsave
newpath
translate
0.8 setlinewidth
1 setlinejoin
0 setlinecap
0 0 m
-3.5 0 l

gsave
0.000 setgray
fill
grestore
stroke
grestore
} bind def
54 253.44 o
grestore
gsave
34.281250 249.643125 translate
0.000000 rotate
0.000000 0.000000 m /one glyphshow
6.362305 0.000000 m /two glyphshow
grestore
gsave
27.281250 96.220000 translate
90.000000 rotate
/DejaVuSans findfont
10.0 scalefont
setfont
0.000000 0.406250 moveto
/U glyphshow

7.319336 0.406250 moveto
/n glyphshow

13.657227 0.406250 moveto
/c glyphshow

19.155273 0.406250 moveto
/e glyphshow

25.307617 0.406250 moveto
/r glyphshow

29.418945 0.406250 moveto
/t glyphshow

33.339844 0.406250 moveto
/a glyphshow

39.467773 0.406250 moveto
/i glyphshow

42.246094 0.406250 moveto
/n glyphshow

48.583984 0.406250 moveto
/t glyphshow

52.504883 0.406250 moveto
/y glyphshow

58.422852 0.406250 moveto
/space glyphshow

61.601562 0.406250 moveto
/parenleft glyphshow

/DejaVuSans-Oblique findfont
10.0 scalefont
setfont
65.502930 0.406250 moveto
/sigma glyphshow

/DejaVuSans findfont
10.0 scalefont
setfont
71.840820 0.406250 moveto
/slash glyphshow

/DejaVuSans-Oblique findfont
10.0 scalefont
setfont
75.209961 0.406250 moveto
/D glyphshow

/DejaVuSans findfont
10.0 scalefont
setfont
82.910156 0.406250 moveto
/percent glyphshow

92.412109 0.406250 moveto
/parenright glyphshow


grestore
1.000 setlinewidth
0.122 0.467 0.706 setrgbcolor
gsave
334.8 217.4 54 36 clipbox
/o {
gsave
newpath
translate
1.0 setlinewidth
1 setlinejoin
0 setlinecap
-3 -3 m
3 3 l
-3 3 m
3 -3 l

gsave
0.122 0.467 0.706 setrgbcolor
fill
grestore
stroke
grestore
} bind def
224.356 41.284 o
282.061 62.3634 o
326.147 86.5269 o
362.165 93.5292 o
grestore
gsave
334.8 217.4 54 36 clipbox
/o {
gsave
newpath
translate
1.0 setlinewidth
1 setlinejoin
0 setlinecap
0 -1.5 m
0.397805 -1.5 0.77937 -1.341951 1.06066 -1.06066 c
1.341951 -0.77937 1.5 -0.397805 1.5 0 c
1.5 0.397805 1.341951 0.77937 1.06066 1.06066 c
0.77937 1.341951 0.397805 1.5 0 1.5 c
-0.397805 1.5 -0.77937 1.341951 -1.06066 1.06066 c
-1.341951 0.77937 -1.5 0.397805 -1.5 0 c
-1.5 -0.397805 -1.341951 -0.77937 -1.06066 -1.06066 c
-0.77937 -1.341951 -0.397805 -1.5 0 -1.5 c
cl

gsave
0.122 0.467 0.706 setrgbcolor
fill
grestore
stroke
grestore
} bind def
224.356 66.5147 o
282.061 77.9592 o
326.147 100.434 o
362.165 121.793 o
grestore
1.000 0.498 0.055 setrgbcolor
gsave
334.8 217.4 54 36 clipbox
/o {
gsave
newpath
translate
1.0 setlinewidth
1 setlinejoin
0 setlinecap
-3 -3 m
3 3 l
-3 3 m
3 -3 l

gsave
1.000 0.498 0.055 setrgbcolor
fill
grestore
stroke
grestore
} bind def
210.741 99.1134 o
270.56 58.005 o
328.592 41.5914 o
363.652 106.144 o
grestore
gsave
334.8 217.4 54 36 clipbox
/o {
gsave
newpath
translate
1.0 setlinewidth
1 setlinejoin
0 setlinecap
0 -1.5 m
0.397805 -1.5 0.77937 -1.341951 1.06066 -1.06066 c
1.341951 -0.77937 1.5 -0.397805 1.5 0 c
1.5 0.397805 1.341951 0.77937 1.06066 1.06066 c
0.77937 1.341951 0.397805 1.5 0 1.5 c
-0.397805 1.5 -0.77937 1.341951 -1.06066 1.06066 c
-1.341951 0.77937 -1.5 0.397805 -1.5 0 c
-1.5 -0.397805 -1.341951 -0.77937 -1.06066 -1.06066 c
-0.77937 -1.341951 -0.397805 -1.5 0 -1.5 c
cl

gsave
1.000 0.498 0.055 setrgbcolor
fill
grestore
stroke
grestore
} bind def
210.741 101.205 o
270.56 64.1491 o
328.592 59.3358 o
363.652 114.997 o
grestore
0.173 0.627 0.173 setrgbcolor
gsave
334.8 217.4 54 36 clipbox
/o {
gsave
newpath
translate
1.0 setlinewidth
1 setlinejoin
0 setlinecap
-3 -3 m
3 3 l
-3 3 m
3 -3 l

gsave
0.173 0.627 0.173 setrgbcolor
fill
grestore
stroke
grestore
} bind def
215.404 85.228 o
278.594 82.0039 o
307.327 52.6748 o
344.708 152.529 o
grestore
gsave
334.8 217.4 54 36 clipbox
/o {
gsave
newpath
translate
1.0 setlinewidth
1 setlinejoin
0 setlinecap
0 -1.5 m
0.397805 -1.5 0.77937 -1.341951 1.06066 -1.06066 c
1.341951 -0.77937 1.5 -0.397805 1.5 0 c
1.5 0.397805 1.341951 0.77937 1.06066 1.06066 c
0.77937 1.341951 0.397805 1.5 0 1.5 c
-0.397805 1.5 -0.77937 1.341951 -1.06066 1.06066 c
-1.341951 0.77937 -1.5 0.397805 -1.5 0 c
-1.5 -0.397805 -1.341951 -0.77937 -1.06066 -1.06066 c
-0.77937 -1.341951 -0.397805 -1.5 0 -1.5 c
cl

gsave
0.173 0.627 0.173 setrgbcolor
fill
grestore
stroke
grestore
} bind def
215.404 118.871 o
278.594 126.206 o
307.327 128.603 o
344.708 215.131 o
grestore
0.839 0.153 0.157 setrgbcolor
gsave
334.8 217.4 54 36 clipbox
/o {
gsave
newpath
translate
1.0 setlinewidth
1 setlinejoin
0 setlinecap
-3 -3 m
3 3 l
-3 3 m
3 -3 l

gsave
0.839 0.153 0.157 setrgbcolor
fill
grestore
stroke
grestore
} bind def
209.748 41.6491 o
269.685 51.4494 o
312.638 60.313 o
353.41 97.8573 o
grestore
gsave
334.8 217.4 54 36 clipbox
/o {
gsave
newpath
translate
1.0 setlinewidth
1 setlinejoin
0 setlinecap
0 -1.5 m
0.397805 -1.5 0.77937 -1.341951 1.06066 -1.06066 c
1.341951 -0.77937 1.5 -0.397805 1.5 0 c
1.5 0.397805 1.341951 0.77937 1.06066 1.06066 c
0.77937 1.341951 0.397805 1.5 0 1.5 c
-0.397805 1.5 -0.77937 1.341951 -1.06066 1.06066 c
-1.341951 0.77937 -1.5 0.397805 -1.5 0 c
-1.5 -0.397805 -1.341951 -0.77937 -1.06066 -1.06066 c
-0.77937 -1.341951 -0.397805 -1.5 0 -1.5 c
cl

gsave
0.839 0.153 0.157 setrgbcolor
fill
grestore
stroke
grestore
} bind def
209.748 66.751 o
269.685 73.082 o
312.638 84.4193 o
353.41 128.5 o
grestore
0.800 setlinewidth
0 setlinejoin
2 setlinecap
[] 0 setdash
0.000 setgray
gsave
54 36 m
54 253.44 l
stroke
grestore
gsave
388.8 36 m
388.8 253.44 l
stroke
grestore
gsave
54 36 m
388.8 36 l
stroke
grestore
gsave
54 253.44 m
388.8 253.44 l
stroke
grestore
1.000 setlinewidth
0 setlinecap
0.800 setgray
gsave
61 142.736875 m
178.703125 142.736875 l
180.036458 142.736875 180.703125 143.403542 180.703125 144.736875 c
180.703125 246.44 l
180.703125 247.773333 180.036458 248.44 178.703125 248.44 c
61 248.44 l
59.666667 248.44 59 247.773333 59 246.44 c
59 144.736875 l
59 143.403542 59.666667 142.736875 61 142.736875 c
cl
gsave
1.000 setgray
fill
grestore
stroke
grestore
1.500 setlinewidth
1 setlinejoin
2 setlinecap
[] 0 setdash
0.122 0.467 0.706 setrgbcolor
gsave
63 240.34625 m
83 240.34625 l
stroke
grestore
0.000 setgray
gsave
91.000000 236.846250 translate
0.000000 rotate
0.000000 0.000000 m /eight glyphshow
6.362305 0.000000 m /zero glyphshow
12.724609 0.000000 m /k glyphshow
18.515625 0.000000 m /V glyphshow
25.356445 0.000000 m /p glyphshow
grestore
1.000 0.498 0.055 setrgbcolor
gsave
63 225.674375 m
83 225.674375 l
stroke
grestore
0.000 setgray
gsave
91.000000 222.174375 translate
0.000000 rotate
0.000000 0.000000 m /one glyphshow
6.362305 0.000000 m /zero glyphshow
12.724609 0.000000 m /zero glyphshow
19.086914 0.000000 m /k glyphshow
24.877930 0.000000 m /V glyphshow
31.718750 0.000000 m /p glyphshow
grestore
0.173 0.627 0.173 setrgbcolor
gsave
63 211.0025 m
83 211.0025 l
stroke
grestore
0.000 setgray
gsave
91.000000 207.502500 translate
0.000000 rotate
0.000000 0.000000 m /one glyphshow
6.362305 0.000000 m /two glyphshow
12.724609 0.000000 m /zero glyphshow
19.086914 0.000000 m /k glyphshow
24.877930 0.000000 m /V glyphshow
31.718750 0.000000 m /p glyphshow
grestore
0.839 0.153 0.157 setrgbcolor
gsave
63 196.330625 m
83 196.330625 l
stroke
grestore
0.000 setgray
gsave
91.000000 192.830625 translate
0.000000 rotate
0.000000 0.000000 m /one glyphshow
6.362305 0.000000 m /four glyphshow
12.724609 0.000000 m /zero glyphshow
19.086914 0.000000 m /k glyphshow
24.877930 0.000000 m /V glyphshow
31.718750 0.000000 m /p glyphshow
grestore
gsave
63 181.65875 m
83 181.65875 l
stroke
grestore
gsave
91.000000 178.158750 translate
0.000000 rotate
0.000000 0.000000 m /F glyphshow
5.751953 0.000000 m /i glyphshow
8.530273 0.000000 m /t glyphshow
12.451172 0.000000 m /space glyphshow
15.629883 0.000000 m /u glyphshow
21.967773 0.000000 m /n glyphshow
28.305664 0.000000 m /c glyphshow
33.803711 0.000000 m /e glyphshow
39.956055 0.000000 m /r glyphshow
44.067383 0.000000 m /t glyphshow
47.988281 0.000000 m /a glyphshow
54.116211 0.000000 m /i glyphshow
56.894531 0.000000 m /n glyphshow
63.232422 0.000000 m /t glyphshow
67.153320 0.000000 m /y glyphshow
grestore
1.000 setlinewidth
0 setlinecap
gsave
/o {
gsave
newpath
translate
1.0 setlinewidth
1 setlinejoin
0 setlinecap
-3 -3 m
3 3 l
-3 3 m
3 -3 l

gsave
0.000 setgray
fill
grestore
stroke
grestore
} bind def
73 166.987 o
grestore
gsave
91.000000 163.486875 translate
0.000000 rotate
0.000000 0.000000 m /E glyphshow
6.318359 0.000000 m /x glyphshow
12.236328 0.000000 m /p glyphshow
18.583984 0.000000 m /period glyphshow
21.762695 0.000000 m /space glyphshow
24.941406 0.000000 m /u glyphshow
31.279297 0.000000 m /n glyphshow
37.617188 0.000000 m /c glyphshow
43.115234 0.000000 m /e glyphshow
49.267578 0.000000 m /r glyphshow
53.378906 0.000000 m /t glyphshow
57.299805 0.000000 m /a glyphshow
63.427734 0.000000 m /i glyphshow
66.206055 0.000000 m /n glyphshow
72.543945 0.000000 m /t glyphshow
76.464844 0.000000 m /y glyphshow
grestore
gsave
/o {
gsave
newpath
translate
1.0 setlinewidth
1 setlinejoin
0 setlinecap
0 -1.5 m
0.397805 -1.5 0.77937 -1.341951 1.06066 -1.06066 c
1.341951 -0.77937 1.5 -0.397805 1.5 0 c
1.5 0.397805 1.341951 0.77937 1.06066 1.06066 c
0.77937 1.341951 0.397805 1.5 0 1.5 c
-0.397805 1.5 -0.77937 1.341951 -1.06066 1.06066 c
-1.341951 0.77937 -1.5 0.397805 -1.5 0 c
-1.5 -0.397805 -1.341951 -0.77937 -1.06066 -1.06066 c
-0.77937 -1.341951 -0.397805 -1.5 0 -1.5 c
cl

gsave
0.000 setgray
fill
grestore
stroke
grestore
} bind def
73 152.315 o
grestore
gsave
91.000000 148.815000 translate
0.000000 rotate
0.000000 0.000000 m /T glyphshow
6.092773 0.000000 m /o glyphshow
12.210938 0.000000 m /t glyphshow
16.131836 0.000000 m /a glyphshow
22.259766 0.000000 m /l glyphshow
25.038086 0.000000 m /space glyphshow
28.216797 0.000000 m /u glyphshow
34.554688 0.000000 m /n glyphshow
40.892578 0.000000 m /c glyphshow
46.390625 0.000000 m /e glyphshow
52.542969 0.000000 m /r glyphshow
56.654297 0.000000 m /t glyphshow
60.575195 0.000000 m /a glyphshow
66.703125 0.000000 m /i glyphshow
69.481445 0.000000 m /n glyphshow
75.819336 0.000000 m /t glyphshow
79.740234 0.000000 m /y glyphshow
grestore

end
showpage
