%!PS-Adobe-3.0 EPSF-3.0
%%Title: cals.eps
%%Creator: matplotlib version 2.0.0, http://matplotlib.org/
%%CreationDate: Wed May  3 18:26:18 2017
%%Orientation: portrait
%%BoundingBox: 90 252 522 540
%%EndComments
%%BeginProlog
/mpldict 9 dict def
mpldict begin
/m { moveto } bind def
/l { lineto } bind def
/r { rlineto } bind def
/c { curveto } bind def
/cl { closepath } bind def
/box {
m
1 index 0 r
0 exch r
neg 0 r
cl
} bind def
/clipbox {
box
clip
newpath
} bind def
%!PS-Adobe-3.0 Resource-Font
%%Title: DejaVu Sans
%%Copyright: Copyright (c) 2003 by Bitstream, Inc. All Rights Reserved. Copyright (c) 2006 by Tavmjong Bah. All Rights Reserved. DejaVu changes are in public domain 
%%Creator: Converted from TrueType to type 3 by PPR
25 dict begin
/_d{bind def}bind def
/_m{moveto}_d
/_l{lineto}_d
/_cl{closepath eofill}_d
/_c{curveto}_d
/_sc{7 -1 roll{setcachedevice}{pop pop pop pop pop pop}ifelse}_d
/_e{exec}_d
/FontName /DejaVuSans def
/PaintType 0 def
/FontMatrix[.001 0 0 .001 0 0]def
/FontBBox[-1021 -463 1793 1232]def
/FontType 3 def
/Encoding [ /space /parenleft /parenright /period /zero /one /two /three /four /five /eight /D /G /V /e /k /m /o /p /s /y /uni0394 ] def
/FontInfo 10 dict dup begin
/FamilyName (DejaVu Sans) def
/FullName (DejaVu Sans) def
/Notice (Copyright (c) 2003 by Bitstream, Inc. All Rights Reserved. Copyright (c) 2006 by Tavmjong Bah. All Rights Reserved. DejaVu changes are in public domain ) def
/Weight (Book) def
/Version (Version 2.35) def
/ItalicAngle 0.0 def
/isFixedPitch false def
/UnderlinePosition -130 def
/UnderlineThickness 90 def
end readonly def
/CharStrings 22 dict dup begin
/space{318 0 0 0 0 0 _sc
}_d
/parenleft{390 0 86 -131 310 759 _sc
310 759 _m
266 683 234 609 213 536 _c
191 463 181 389 181 314 _c
181 238 191 164 213 91 _c
234 17 266 -56 310 -131 _c
232 -131 _l
183 -54 146 20 122 94 _c
98 168 86 241 86 314 _c
86 386 98 459 122 533 _c
146 607 182 682 232 759 _c
310 759 _l
_cl}_d
/parenright{390 0 80 -131 304 759 _sc
80 759 _m
158 759 _l
206 682 243 607 267 533 _c
291 459 304 386 304 314 _c
304 241 291 168 267 94 _c
243 20 206 -54 158 -131 _c
80 -131 _l
123 -56 155 17 177 91 _c
198 164 209 238 209 314 _c
209 389 198 463 177 536 _c
155 609 123 683 80 759 _c
_cl}_d
/period{318 0 107 0 210 124 _sc
107 124 _m
210 124 _l
210 0 _l
107 0 _l
107 124 _l
_cl}_d
/zero{636 0 66 -13 570 742 _sc
318 664 _m
267 664 229 639 203 589 _c
177 539 165 464 165 364 _c
165 264 177 189 203 139 _c
229 89 267 64 318 64 _c
369 64 407 89 433 139 _c
458 189 471 264 471 364 _c
471 464 458 539 433 589 _c
407 639 369 664 318 664 _c
318 742 _m
399 742 461 709 505 645 _c
548 580 570 486 570 364 _c
570 241 548 147 505 83 _c
461 19 399 -13 318 -13 _c
236 -13 173 19 130 83 _c
87 147 66 241 66 364 _c
66 486 87 580 130 645 _c
173 709 236 742 318 742 _c
_cl}_d
/one{636 0 110 0 544 729 _sc
124 83 _m
285 83 _l
285 639 _l
110 604 _l
110 694 _l
284 729 _l
383 729 _l
383 83 _l
544 83 _l
544 0 _l
124 0 _l
124 83 _l
_cl}_d
/two{{636 0 73 0 536 742 _sc
192 83 _m
536 83 _l
536 0 _l
73 0 _l
73 83 _l
110 121 161 173 226 239 _c
290 304 331 346 348 365 _c
380 400 402 430 414 455 _c
426 479 433 504 433 528 _c
433 566 419 598 392 622 _c
365 646 330 659 286 659 _c
255 659 222 653 188 643 _c
154 632 117 616 78 594 _c
78 694 _l
118 710 155 722 189 730 _c
223 738 255 742 284 742 _c
}_e{359 742 419 723 464 685 _c
509 647 532 597 532 534 _c
532 504 526 475 515 449 _c
504 422 484 390 454 354 _c
446 344 420 317 376 272 _c
332 227 271 164 192 83 _c
_cl}_e}_d
/three{{636 0 76 -13 556 742 _sc
406 393 _m
453 383 490 362 516 330 _c
542 298 556 258 556 212 _c
556 140 531 84 482 45 _c
432 6 362 -13 271 -13 _c
240 -13 208 -10 176 -4 _c
144 1 110 10 76 22 _c
76 117 _l
103 101 133 89 166 81 _c
198 73 232 69 268 69 _c
330 69 377 81 409 105 _c
441 129 458 165 458 212 _c
458 254 443 288 413 312 _c
383 336 341 349 287 349 _c
}_e{202 349 _l
202 430 _l
291 430 _l
339 430 376 439 402 459 _c
428 478 441 506 441 543 _c
441 580 427 609 401 629 _c
374 649 336 659 287 659 _c
260 659 231 656 200 650 _c
169 644 135 635 98 623 _c
98 711 _l
135 721 170 729 203 734 _c
235 739 266 742 296 742 _c
370 742 429 725 473 691 _c
517 657 539 611 539 553 _c
539 513 527 479 504 451 _c
481 423 448 403 406 393 _c
_cl}_e}_d
/four{636 0 49 0 580 729 _sc
378 643 _m
129 254 _l
378 254 _l
378 643 _l
352 729 _m
476 729 _l
476 254 _l
580 254 _l
580 172 _l
476 172 _l
476 0 _l
378 0 _l
378 172 _l
49 172 _l
49 267 _l
352 729 _l
_cl}_d
/five{{636 0 77 -13 549 729 _sc
108 729 _m
495 729 _l
495 646 _l
198 646 _l
198 467 _l
212 472 227 476 241 478 _c
255 480 270 482 284 482 _c
365 482 429 459 477 415 _c
525 370 549 310 549 234 _c
549 155 524 94 475 51 _c
426 8 357 -13 269 -13 _c
238 -13 207 -10 175 -6 _c
143 -1 111 6 77 17 _c
77 116 _l
106 100 136 88 168 80 _c
199 72 232 69 267 69 _c
}_e{323 69 368 83 401 113 _c
433 143 450 183 450 234 _c
450 284 433 324 401 354 _c
368 384 323 399 267 399 _c
241 399 214 396 188 390 _c
162 384 135 375 108 363 _c
108 729 _l
_cl}_e}_d
/eight{{636 0 68 -13 568 742 _sc
318 346 _m
271 346 234 333 207 308 _c
180 283 167 249 167 205 _c
167 161 180 126 207 101 _c
234 76 271 64 318 64 _c
364 64 401 76 428 102 _c
455 127 469 161 469 205 _c
469 249 455 283 429 308 _c
402 333 365 346 318 346 _c
219 388 _m
177 398 144 418 120 447 _c
96 476 85 511 85 553 _c
85 611 105 657 147 691 _c
188 725 245 742 318 742 _c
}_e{390 742 447 725 489 691 _c
530 657 551 611 551 553 _c
551 511 539 476 515 447 _c
491 418 459 398 417 388 _c
464 377 501 355 528 323 _c
554 291 568 251 568 205 _c
568 134 546 80 503 43 _c
459 5 398 -13 318 -13 _c
237 -13 175 5 132 43 _c
89 80 68 134 68 205 _c
68 251 81 291 108 323 _c
134 355 171 377 219 388 _c
183 544 _m
183 506 194 476 218 455 _c
}_e{242 434 275 424 318 424 _c
360 424 393 434 417 455 _c
441 476 453 506 453 544 _c
453 582 441 611 417 632 _c
393 653 360 664 318 664 _c
275 664 242 653 218 632 _c
194 611 183 582 183 544 _c
_cl}_e}_d
/D{770 0 98 0 711 729 _sc
197 648 _m
197 81 _l
316 81 _l
416 81 490 103 537 149 _c
583 195 607 267 607 365 _c
607 463 583 534 537 580 _c
490 625 416 648 316 648 _c
197 648 _l
98 729 _m
301 729 _l
442 729 546 699 612 641 _c
678 582 711 490 711 365 _c
711 239 677 147 611 88 _c
545 29 441 0 301 0 _c
98 0 _l
98 729 _l
_cl}_d
/G{{775 0 56 -13 693 742 _sc
595 104 _m
595 300 _l
434 300 _l
434 381 _l
693 381 _l
693 68 _l
655 40 613 20 567 7 _c
521 -6 472 -13 420 -13 _c
306 -13 216 20 152 86 _c
88 152 56 245 56 364 _c
56 482 88 575 152 642 _c
216 708 306 742 420 742 _c
467 742 512 736 555 724 _c
598 712 638 695 674 673 _c
674 568 _l
637 598 598 621 557 637 _c
516 653 473 661 428 661 _c
}_e{338 661 271 636 227 586 _c
182 536 160 462 160 364 _c
160 265 182 191 227 141 _c
271 91 338 67 428 67 _c
462 67 493 70 521 76 _c
549 82 573 91 595 104 _c
_cl}_e}_d
/V{684 0 8 0 676 729 _sc
286 0 _m
8 729 _l
111 729 _l
342 115 _l
573 729 _l
676 729 _l
398 0 _l
286 0 _l
_cl}_d
/e{{615 0 55 -13 562 560 _sc
562 296 _m
562 252 _l
149 252 _l
153 190 171 142 205 110 _c
238 78 284 62 344 62 _c
378 62 412 66 444 74 _c
476 82 509 95 541 113 _c
541 28 _l
509 14 476 3 442 -3 _c
408 -9 373 -13 339 -13 _c
251 -13 182 12 131 62 _c
80 112 55 181 55 268 _c
55 357 79 428 127 481 _c
175 533 241 560 323 560 _c
397 560 455 536 498 489 _c
}_e{540 441 562 377 562 296 _c
472 322 _m
471 371 457 410 431 440 _c
404 469 368 484 324 484 _c
274 484 234 469 204 441 _c
174 413 156 373 152 322 _c
472 322 _l
_cl}_e}_d
/k{579 0 91 0 576 760 _sc
91 760 _m
181 760 _l
181 311 _l
449 547 _l
564 547 _l
274 291 _l
576 0 _l
459 0 _l
181 267 _l
181 0 _l
91 0 _l
91 760 _l
_cl}_d
/m{{974 0 91 0 889 560 _sc
520 442 _m
542 482 569 511 600 531 _c
631 550 668 560 711 560 _c
767 560 811 540 842 500 _c
873 460 889 403 889 330 _c
889 0 _l
799 0 _l
799 327 _l
799 379 789 418 771 444 _c
752 469 724 482 686 482 _c
639 482 602 466 575 435 _c
548 404 535 362 535 309 _c
535 0 _l
445 0 _l
445 327 _l
445 379 435 418 417 444 _c
398 469 369 482 331 482 _c
}_e{285 482 248 466 221 435 _c
194 404 181 362 181 309 _c
181 0 _l
91 0 _l
91 547 _l
181 547 _l
181 462 _l
201 495 226 520 255 536 _c
283 552 317 560 357 560 _c
397 560 430 550 458 530 _c
486 510 506 480 520 442 _c
_cl}_e}_d
/o{612 0 55 -13 557 560 _sc
306 484 _m
258 484 220 465 192 427 _c
164 389 150 338 150 273 _c
150 207 163 156 191 118 _c
219 80 257 62 306 62 _c
354 62 392 80 420 118 _c
448 156 462 207 462 273 _c
462 337 448 389 420 427 _c
392 465 354 484 306 484 _c
306 560 _m
384 560 445 534 490 484 _c
534 433 557 363 557 273 _c
557 183 534 113 490 63 _c
445 12 384 -13 306 -13 _c
227 -13 165 12 121 63 _c
77 113 55 183 55 273 _c
55 363 77 433 121 484 _c
165 534 227 560 306 560 _c
_cl}_d
/p{{635 0 91 -207 580 560 _sc
181 82 _m
181 -207 _l
91 -207 _l
91 547 _l
181 547 _l
181 464 _l
199 496 223 520 252 536 _c
281 552 316 560 356 560 _c
422 560 476 533 518 481 _c
559 428 580 359 580 273 _c
580 187 559 117 518 65 _c
476 13 422 -13 356 -13 _c
316 -13 281 -5 252 10 _c
223 25 199 49 181 82 _c
487 273 _m
487 339 473 390 446 428 _c
418 466 381 485 334 485 _c
}_e{286 485 249 466 222 428 _c
194 390 181 339 181 273 _c
181 207 194 155 222 117 _c
249 79 286 61 334 61 _c
381 61 418 79 446 117 _c
473 155 487 207 487 273 _c
_cl}_e}_d
/s{{521 0 54 -13 472 560 _sc
443 531 _m
443 446 _l
417 458 391 468 364 475 _c
336 481 308 485 279 485 _c
234 485 200 478 178 464 _c
156 450 145 430 145 403 _c
145 382 153 366 169 354 _c
185 342 217 330 265 320 _c
296 313 _l
360 299 405 279 432 255 _c
458 230 472 195 472 151 _c
472 100 452 60 412 31 _c
372 1 316 -13 246 -13 _c
216 -13 186 -10 154 -5 _c
}_e{122 0 89 8 54 20 _c
54 113 _l
87 95 120 82 152 74 _c
184 65 216 61 248 61 _c
290 61 323 68 346 82 _c
368 96 380 117 380 144 _c
380 168 371 187 355 200 _c
339 213 303 226 247 238 _c
216 245 _l
160 257 119 275 95 299 _c
70 323 58 356 58 399 _c
58 450 76 490 112 518 _c
148 546 200 560 268 560 _c
301 560 332 557 362 552 _c
391 547 418 540 443 531 _c
}_e{_cl}_e}_d
/y{592 0 30 -207 562 547 _sc
322 -50 _m
296 -114 271 -157 247 -177 _c
223 -197 191 -207 151 -207 _c
79 -207 _l
79 -132 _l
132 -132 _l
156 -132 175 -126 189 -114 _c
203 -102 218 -75 235 -31 _c
251 9 _l
30 547 _l
125 547 _l
296 119 _l
467 547 _l
562 547 _l
322 -50 _l
_cl}_d
/uni0394{684 0 8 0 676 729 _sc
342 632 _m
142 82 _l
542 82 _l
342 632 _l
8 0 _m
286 729 _l
398 729 _l
676 0 _l
8 0 _l
_cl}_d
end readonly def

/BuildGlyph
 {exch begin
 CharStrings exch
 2 copy known not{pop /.notdef}if
 true 3 1 roll get exec
 end}_d

/BuildChar {
 1 index /Encoding get exch get
 1 index /BuildGlyph get exec
}_d

FontName currentdict end definefont pop
%!PS-Adobe-3.0 Resource-Font
%%Title: DejaVu Sans Oblique
%%Copyright: Copyright (c) 2003 by Bitstream, Inc. All Rights Reserved. Copyright (c) 2006 by Tavmjong Bah. All Rights Reserved. DejaVu changes are in public domain 
%%Creator: Converted from TrueType to type 3 by PPR
25 dict begin
/_d{bind def}bind def
/_m{moveto}_d
/_l{lineto}_d
/_cl{closepath eofill}_d
/_c{curveto}_d
/_sc{7 -1 roll{setcachedevice}{pop pop pop pop pop pop}ifelse}_d
/_e{exec}_d
/FontName /DejaVuSans-Oblique def
/PaintType 0 def
/FontMatrix[.001 0 0 .001 0 0]def
/FontBBox[-1016 -350 1659 1068]def
/FontType 3 def
/Encoding [ /R ] def
/FontInfo 10 dict dup begin
/FamilyName (DejaVu Sans) def
/FullName (DejaVu Sans Oblique) def
/Notice (Copyright (c) 2003 by Bitstream, Inc. All Rights Reserved. Copyright (c) 2006 by Tavmjong Bah. All Rights Reserved. DejaVu changes are in public domain ) def
/Weight (Oblique) def
/Version (Version 2.35) def
/ItalicAngle -11.0 def
/isFixedPitch false def
/UnderlinePosition -130 def
/UnderlineThickness 90 def
end readonly def
/CharStrings 1 dict dup begin
/R{{695 0 27 0 600 729 _sc
252 648 _m
202 389 _l
329 389 _l
379 389 419 402 450 430 _c
480 458 496 494 496 538 _c
496 573 485 600 465 619 _c
444 638 414 648 376 648 _c
252 648 _l
433 350 _m
453 345 471 333 485 314 _c
499 294 515 256 533 199 _c
595 0 _l
491 0 _l
434 187 _l
419 235 402 267 383 283 _c
363 299 334 308 295 308 _c
186 308 _l
126 0 _l
27 0 _l
169 729 _l
}_e{391 729 _l
458 729 510 713 546 683 _c
582 653 600 609 600 552 _c
600 501 584 457 554 420 _c
523 382 483 359 433 350 _c
_cl}_e}_d
end readonly def

/BuildGlyph
 {exch begin
 CharStrings exch
 2 copy known not{pop /.notdef}if
 true 3 1 roll get exec
 end}_d

/BuildChar {
 1 index /Encoding get exch get
 1 index /BuildGlyph get exec
}_d

FontName currentdict end definefont pop
end
%%EndProlog
mpldict begin
90 252 translate
432 288 0 0 clipbox
gsave
0 0 m
432 0 l
432 288 l
0 288 l
cl
1.000 setgray
fill
grestore
gsave
54 36 m
388.8 36 l
388.8 253.44 l
54 253.44 l
cl
1.000 setgray
fill
grestore
1.500 setlinewidth
1 setlinejoin
2 setlinecap
[] 0 setdash
0.122 0.467 0.706 setrgbcolor
gsave
334.8 217.4 54 36 clipbox
61.44 36.406125 m
65.368989 36.627748 l
69.297978 36.854539 l
73.226966 37.086681 l
77.155955 37.324366 l
81.084944 37.567795 l
85.013933 37.817178 l
88.942921 38.072736 l
92.87191 38.334702 l
96.800899 38.60332 l
100.729888 38.878847 l
104.658876 39.161552 l
108.587865 39.45172 l
112.516854 39.749649 l
116.445843 40.055657 l
120.374831 40.370075 l
124.30382 40.693256 l
128.232809 41.025571 l
132.161798 41.367413 l
136.090787 41.719197 l
140.019775 42.081363 l
143.948764 42.454379 l
147.877753 42.838738 l
151.806742 43.234967 l
155.73573 43.643623 l
159.664719 44.065302 l
163.593708 44.500634 l
167.522697 44.950295 l
171.451685 45.415004 l
175.380674 45.895529 l
179.309663 46.392691 l
183.238652 46.907369 l
187.16764 47.440506 l
191.096629 47.993114 l
195.025618 48.566277 l
198.954607 49.161166 l
202.883596 49.77904 l
206.812584 50.421255 l
210.741573 51.089281 l
214.670562 51.784705 l
218.599551 52.509247 l
222.528539 53.264775 l
226.457528 54.053322 l
230.386517 54.877099 l
234.315506 55.738522 l
238.244494 56.640231 l
242.173483 57.585121 l
246.102472 58.576368 l
250.031461 59.617471 l
253.960449 60.712288 l
257.889438 61.865085 l
261.818427 63.080594 l
265.747416 64.364075 l
269.676404 65.721395 l
273.605393 67.159112 l
277.534382 68.684589 l
281.463371 70.306114 l
285.39236 72.033053 l
289.321348 73.876031 l
293.250337 75.847149 l
297.179326 77.960254 l
301.108315 80.23126 l
305.037303 82.678554 l
308.966292 85.323489 l
312.895281 88.191016 l
316.82427 91.310469 l
320.753258 94.716572 l
324.682247 98.450738 l
328.611236 102.562763 l
332.540225 107.113056 l
336.469213 112.175629 l
340.398202 117.842151 l
344.327191 124.227552 l
348.25618 131.477897 l
352.185169 139.781697 l
356.114157 149.386535 l
360.043146 160.62417 l
363.972135 173.949637 l
367.901124 190.004366 l
371.830112 209.722515 l
375.759101 234.519463 l
379.68809 266.647487 l
381.717542 289 l
404.071976 289 m
404.193391 -1 l
stroke
grestore
1.000 0.498 0.055 setrgbcolor
gsave
334.8 217.4 54 36 clipbox
61.44 36.445932 m
65.368989 36.689267 l
69.297978 36.93827 l
73.226966 37.193139 l
77.155955 37.454085 l
81.084944 37.721328 l
85.013933 37.995098 l
88.942921 38.275638 l
92.87191 38.563202 l
96.800899 38.858057 l
100.729888 39.160483 l
104.658876 39.470777 l
108.587865 39.78925 l
112.516854 40.116228 l
116.445843 40.452058 l
120.374831 40.797103 l
124.30382 41.151749 l
128.232809 41.516402 l
132.161798 41.891491 l
136.090787 42.27747 l
140.019775 42.674822 l
143.948764 43.084056 l
147.877753 43.505713 l
151.806742 43.940368 l
155.73573 44.388631 l
159.664719 44.851151 l
163.593708 45.32862 l
167.522697 45.821774 l
171.451685 46.331399 l
175.380674 46.858334 l
179.309663 47.403476 l
183.238652 47.967786 l
187.16764 48.552292 l
191.096629 49.158099 l
195.025618 49.786393 l
198.954607 50.438448 l
202.883596 51.11564 l
206.812584 51.81945 l
210.741573 52.551479 l
214.670562 53.313459 l
218.599551 54.107266 l
222.528539 54.934938 l
226.457528 55.798688 l
230.386517 56.700929 l
234.315506 57.64429 l
238.244494 58.63165 l
242.173483 59.66616 l
246.102472 60.751279 l
250.031461 61.890815 l
253.960449 63.088967 l
257.889438 64.350376 l
261.818427 65.680187 l
265.747416 67.084121 l
269.676404 68.568551 l
273.605393 70.140605 l
277.534382 71.808277 l
281.463371 73.580566 l
285.39236 75.467633 l
289.321348 77.481002 l
293.250337 79.633793 l
297.179326 81.941006 l
301.108315 84.419875 l
305.037303 87.090298 l
308.966292 89.975368 l
312.895281 93.102052 l
316.82427 96.502025 l
320.753258 100.212756 l
324.682247 104.27889 l
328.611236 108.754055 l
332.540225 113.703239 l
336.469213 119.205966 l
340.398202 125.360606 l
344.327191 132.290301 l
348.25618 140.151293 l
352.185169 149.144846 l
356.114157 159.534717 l
360.043146 171.673458 l
363.972135 186.043214 l
367.901124 203.321296 l
371.830112 224.490045 l
375.759101 251.030339 l
379.68809 285.283808 l
380.006187 289 l
403.666073 289 m
403.729988 -1 l
stroke
grestore
0.173 0.627 0.173 setrgbcolor
gsave
334.8 217.4 54 36 clipbox
61.44 36.441496 m
65.368989 36.682402 l
69.297978 36.928913 l
73.226966 37.181227 l
77.155955 37.439549 l
81.084944 37.704099 l
85.013933 37.975103 l
88.942921 38.252802 l
92.87191 38.537445 l
96.800899 38.829297 l
100.729888 39.128635 l
104.658876 39.435752 l
108.587865 39.750953 l
112.516854 40.074563 l
116.445843 40.406923 l
120.374831 40.748392 l
124.30382 41.09935 l
128.232809 41.460199 l
132.161798 41.831362 l
136.090787 42.213287 l
140.019775 42.606451 l
143.948764 43.011356 l
147.877753 43.428536 l
151.806742 43.858559 l
155.73573 44.302026 l
159.664719 44.759577 l
163.593708 45.231895 l
167.522697 45.719707 l
171.451685 46.223787 l
175.380674 46.744963 l
179.309663 47.284119 l
183.238652 47.842204 l
187.16764 48.42023 l
191.096629 49.019286 l
195.025618 49.640542 l
198.954607 50.285254 l
202.883596 50.954777 l
206.812584 51.650571 l
210.741573 52.374213 l
214.670562 53.127409 l
218.599551 53.912007 l
222.528539 54.730013 l
226.457528 55.583607 l
230.386517 56.475164 l
234.315506 57.407273 l
238.244494 58.382766 l
242.173483 59.404742 l
246.102472 60.476607 l
250.031461 61.602105 l
253.960449 62.785364 l
257.889438 64.030948 l
261.818427 65.343913 l
265.747416 66.729881 l
269.676404 68.195114 l
273.605393 69.74661 l
277.534382 71.392221 l
281.463371 73.140776 l
285.39236 75.002248 l
289.321348 76.98794 l
293.250337 79.110714 l
297.179326 81.385274 l
301.108315 83.828503 l
305.037303 86.459884 l
308.966292 89.302023 l
312.895281 92.381297 l
316.82427 95.728675 l
320.753258 99.380765 l
324.682247 103.38116 l
328.611236 107.782182 l
332.540225 112.647184 l
336.469213 118.053623 l
340.398202 124.097212 l
344.327191 130.897635 l
348.25618 138.606556 l
352.185169 147.419061 l
356.114157 157.590399 l
360.043146 169.461108 l
363.972135 183.495893 l
367.901124 200.345882 l
371.830112 220.952543 l
375.759101 246.729805 l
379.68809 279.902955 l
380.495182 289 l
403.360554 289 m
403.378136 -1 l
stroke
grestore
0.839 0.153 0.157 setrgbcolor
gsave
334.8 217.4 54 36 clipbox
61.44 36.520884 m
65.368989 36.805125 l
69.297978 37.095991 l
73.226966 37.393716 l
77.155955 37.698545 l
81.084944 38.010735 l
85.013933 38.330557 l
88.942921 38.658294 l
92.87191 38.994243 l
96.800899 39.338716 l
100.729888 39.692043 l
104.658876 40.05457 l
108.587865 40.426659 l
112.516854 40.808696 l
116.445843 41.201083 l
120.374831 41.604248 l
124.30382 42.01864 l
128.232809 42.444735 l
132.161798 42.883037 l
136.090787 43.334077 l
140.019775 43.798419 l
143.948764 44.276659 l
147.877753 44.769432 l
151.806742 45.27741 l
155.73573 45.801309 l
159.664719 46.341887 l
163.593708 46.899955 l
167.522697 47.476376 l
171.451685 48.072069 l
175.380674 48.688018 l
179.309663 49.325275 l
183.238652 49.984963 l
187.16764 50.668289 l
191.096629 51.376547 l
195.025618 52.111125 l
198.954607 52.87352 l
202.883596 53.665341 l
206.812584 54.488326 l
210.741573 55.344352 l
214.670562 56.235449 l
218.599551 57.163817 l
222.528539 58.131844 l
226.457528 59.142129 l
230.386517 60.197498 l
234.315506 61.30104 l
238.244494 62.456129 l
242.173483 63.666463 l
246.102472 64.936103 l
250.031461 66.269517 l
253.960449 67.671635 l
257.889438 69.147906 l
261.818427 70.704373 l
265.747416 72.347752 l
269.676404 74.085534 l
273.605393 75.926092 l
277.534382 77.878822 l
281.463371 79.954301 l
285.39236 82.164479 l
289.321348 84.522907 l
293.250337 87.045021 l
297.179326 89.748473 l
301.108315 92.653549 l
305.037303 95.78368 l
308.966292 99.166071 l
312.895281 102.832497 l
316.82427 106.820304 l
320.753258 111.173686 l
324.682247 115.945327 l
328.611236 121.198546 l
332.540225 127.010123 l
336.469213 133.474075 l
340.398202 140.706781 l
344.327191 148.854055 l
348.25618 158.101072 l
352.185169 168.686618 l
356.114157 180.924004 l
360.043146 195.232596 l
363.972135 212.186841 l
367.901124 232.595257 l
371.830112 257.633175 l
375.749433 289 l
403.907057 289 m
403.985775 -1 l
stroke
grestore
0.800 setlinewidth
0 setlinecap
0.000 setgray
gsave
/o {
gsave
newpath
translate
0.8 setlinewidth
1 setlinejoin
0 setlinecap
0 0 m
0 -3.5 l

gsave
0.000 setgray
fill
grestore
stroke
grestore
} bind def
54 36 o
grestore
/DejaVuSans findfont
10.000 scalefont
setfont
gsave
42.867188 21.406250 translate
0.000000 rotate
0.000000 0.000000 m /zero glyphshow
6.362305 0.000000 m /period glyphshow
9.541016 0.000000 m /zero glyphshow
15.903320 0.000000 m /zero glyphshow
grestore
gsave
/o {
gsave
newpath
translate
0.8 setlinewidth
1 setlinejoin
0 setlinecap
0 0 m
0 -3.5 l

gsave
0.000 setgray
fill
grestore
stroke
grestore
} bind def
91.2 36 o
grestore
gsave
80.067188 21.406250 translate
0.000000 rotate
0.000000 0.000000 m /zero glyphshow
6.362305 0.000000 m /period glyphshow
9.541016 0.000000 m /zero glyphshow
15.903320 0.000000 m /five glyphshow
grestore
gsave
/o {
gsave
newpath
translate
0.8 setlinewidth
1 setlinejoin
0 setlinecap
0 0 m
0 -3.5 l

gsave
0.000 setgray
fill
grestore
stroke
grestore
} bind def
128.4 36 o
grestore
gsave
117.267188 21.406250 translate
0.000000 rotate
0.000000 0.000000 m /zero glyphshow
6.362305 0.000000 m /period glyphshow
9.541016 0.000000 m /one glyphshow
15.903320 0.000000 m /zero glyphshow
grestore
gsave
/o {
gsave
newpath
translate
0.8 setlinewidth
1 setlinejoin
0 setlinecap
0 0 m
0 -3.5 l

gsave
0.000 setgray
fill
grestore
stroke
grestore
} bind def
165.6 36 o
grestore
gsave
154.467188 21.406250 translate
0.000000 rotate
0.000000 0.000000 m /zero glyphshow
6.362305 0.000000 m /period glyphshow
9.541016 0.000000 m /one glyphshow
15.903320 0.000000 m /five glyphshow
grestore
gsave
/o {
gsave
newpath
translate
0.8 setlinewidth
1 setlinejoin
0 setlinecap
0 0 m
0 -3.5 l

gsave
0.000 setgray
fill
grestore
stroke
grestore
} bind def
202.8 36 o
grestore
gsave
191.667188 21.406250 translate
0.000000 rotate
0.000000 0.000000 m /zero glyphshow
6.362305 0.000000 m /period glyphshow
9.541016 0.000000 m /two glyphshow
15.903320 0.000000 m /zero glyphshow
grestore
gsave
/o {
gsave
newpath
translate
0.8 setlinewidth
1 setlinejoin
0 setlinecap
0 0 m
0 -3.5 l

gsave
0.000 setgray
fill
grestore
stroke
grestore
} bind def
240 36 o
grestore
gsave
228.867188 21.406250 translate
0.000000 rotate
0.000000 0.000000 m /zero glyphshow
6.362305 0.000000 m /period glyphshow
9.541016 0.000000 m /two glyphshow
15.903320 0.000000 m /five glyphshow
grestore
gsave
/o {
gsave
newpath
translate
0.8 setlinewidth
1 setlinejoin
0 setlinecap
0 0 m
0 -3.5 l

gsave
0.000 setgray
fill
grestore
stroke
grestore
} bind def
277.2 36 o
grestore
gsave
266.067188 21.406250 translate
0.000000 rotate
0.000000 0.000000 m /zero glyphshow
6.362305 0.000000 m /period glyphshow
9.541016 0.000000 m /three glyphshow
15.903320 0.000000 m /zero glyphshow
grestore
gsave
/o {
gsave
newpath
translate
0.8 setlinewidth
1 setlinejoin
0 setlinecap
0 0 m
0 -3.5 l

gsave
0.000 setgray
fill
grestore
stroke
grestore
} bind def
314.4 36 o
grestore
gsave
303.267188 21.406250 translate
0.000000 rotate
0.000000 0.000000 m /zero glyphshow
6.362305 0.000000 m /period glyphshow
9.541016 0.000000 m /three glyphshow
15.903320 0.000000 m /five glyphshow
grestore
gsave
/o {
gsave
newpath
translate
0.8 setlinewidth
1 setlinejoin
0 setlinecap
0 0 m
0 -3.5 l

gsave
0.000 setgray
fill
grestore
stroke
grestore
} bind def
351.6 36 o
grestore
gsave
340.467188 21.406250 translate
0.000000 rotate
0.000000 0.000000 m /zero glyphshow
6.362305 0.000000 m /period glyphshow
9.541016 0.000000 m /four glyphshow
15.903320 0.000000 m /zero glyphshow
grestore
gsave
/o {
gsave
newpath
translate
0.8 setlinewidth
1 setlinejoin
0 setlinecap
0 0 m
0 -3.5 l

gsave
0.000 setgray
fill
grestore
stroke
grestore
} bind def
388.8 36 o
grestore
gsave
377.667188 21.406250 translate
0.000000 rotate
0.000000 0.000000 m /zero glyphshow
6.362305 0.000000 m /period glyphshow
9.541016 0.000000 m /four glyphshow
15.903320 0.000000 m /five glyphshow
grestore
gsave
214.400000 7.734375 translate
0.000000 rotate
/DejaVuSans findfont
10.0 scalefont
setfont
0.000000 0.703125 moveto
/uni0394 glyphshow

/DejaVuSans-Oblique findfont
10.0 scalefont
setfont
6.840820 0.703125 moveto
/R glyphshow


grestore
gsave
/o {
gsave
newpath
translate
0.8 setlinewidth
1 setlinejoin
0 setlinecap
0 0 m
-3.5 0 l

gsave
0.000 setgray
fill
grestore
stroke
grestore
} bind def
54 36 o
grestore
gsave
40.640625 32.203125 translate
0.000000 rotate
0.000000 0.000000 m /zero glyphshow
grestore
gsave
/o {
gsave
newpath
translate
0.8 setlinewidth
1 setlinejoin
0 setlinecap
0 0 m
-3.5 0 l

gsave
0.000 setgray
fill
grestore
stroke
grestore
} bind def
54 63.18 o
grestore
gsave
34.281250 59.383125 translate
0.000000 rotate
0.000000 0.000000 m /five glyphshow
6.362305 0.000000 m /zero glyphshow
grestore
gsave
/o {
gsave
newpath
translate
0.8 setlinewidth
1 setlinejoin
0 setlinecap
0 0 m
-3.5 0 l

gsave
0.000 setgray
fill
grestore
stroke
grestore
} bind def
54 90.36 o
grestore
gsave
27.921875 86.563125 translate
0.000000 rotate
0.000000 0.000000 m /one glyphshow
6.362305 0.000000 m /zero glyphshow
12.724609 0.000000 m /zero glyphshow
grestore
gsave
/o {
gsave
newpath
translate
0.8 setlinewidth
1 setlinejoin
0 setlinecap
0 0 m
-3.5 0 l

gsave
0.000 setgray
fill
grestore
stroke
grestore
} bind def
54 117.54 o
grestore
gsave
27.921875 113.743125 translate
0.000000 rotate
0.000000 0.000000 m /one glyphshow
6.362305 0.000000 m /five glyphshow
12.724609 0.000000 m /zero glyphshow
grestore
gsave
/o {
gsave
newpath
translate
0.8 setlinewidth
1 setlinejoin
0 setlinecap
0 0 m
-3.5 0 l

gsave
0.000 setgray
fill
grestore
stroke
grestore
} bind def
54 144.72 o
grestore
gsave
27.921875 140.923125 translate
0.000000 rotate
0.000000 0.000000 m /two glyphshow
6.362305 0.000000 m /zero glyphshow
12.724609 0.000000 m /zero glyphshow
grestore
gsave
/o {
gsave
newpath
translate
0.8 setlinewidth
1 setlinejoin
0 setlinecap
0 0 m
-3.5 0 l

gsave
0.000 setgray
fill
grestore
stroke
grestore
} bind def
54 171.9 o
grestore
gsave
27.921875 168.103125 translate
0.000000 rotate
0.000000 0.000000 m /two glyphshow
6.362305 0.000000 m /five glyphshow
12.724609 0.000000 m /zero glyphshow
grestore
gsave
/o {
gsave
newpath
translate
0.8 setlinewidth
1 setlinejoin
0 setlinecap
0 0 m
-3.5 0 l

gsave
0.000 setgray
fill
grestore
stroke
grestore
} bind def
54 199.08 o
grestore
gsave
27.921875 195.283125 translate
0.000000 rotate
0.000000 0.000000 m /three glyphshow
6.362305 0.000000 m /zero glyphshow
12.724609 0.000000 m /zero glyphshow
grestore
gsave
/o {
gsave
newpath
translate
0.8 setlinewidth
1 setlinejoin
0 setlinecap
0 0 m
-3.5 0 l

gsave
0.000 setgray
fill
grestore
stroke
grestore
} bind def
54 226.26 o
grestore
gsave
27.921875 222.463125 translate
0.000000 rotate
0.000000 0.000000 m /three glyphshow
6.362305 0.000000 m /five glyphshow
12.724609 0.000000 m /zero glyphshow
grestore
gsave
/o {
gsave
newpath
translate
0.8 setlinewidth
1 setlinejoin
0 setlinecap
0 0 m
-3.5 0 l

gsave
0.000 setgray
fill
grestore
stroke
grestore
} bind def
54 253.44 o
grestore
gsave
27.921875 249.643125 translate
0.000000 rotate
0.000000 0.000000 m /four glyphshow
6.362305 0.000000 m /zero glyphshow
12.724609 0.000000 m /zero glyphshow
grestore
gsave
21.843750 114.907500 translate
90.000000 rotate
0.000000 0.000000 m /D glyphshow
7.700195 0.000000 m /o glyphshow
13.818359 0.000000 m /s glyphshow
19.028320 0.000000 m /e glyphshow
25.180664 0.000000 m /space glyphshow
28.359375 0.000000 m /parenleft glyphshow
32.260742 0.000000 m /m glyphshow
42.001953 0.000000 m /G glyphshow
49.750977 0.000000 m /y glyphshow
55.668945 0.000000 m /parenright glyphshow
grestore
1.500 setlinewidth
0.122 0.467 0.706 setrgbcolor
gsave
334.8 217.4 54 36 clipbox
224.067667 53.357148 m
224.66845 53.357148 l
stroke
grestore
gsave
334.8 217.4 54 36 clipbox
281.081407 70.714296 m
283.485021 70.714296 l
stroke
grestore
gsave
334.8 217.4 54 36 clipbox
324.317121 101.5038 m
328.106579 101.5038 l
stroke
grestore
gsave
334.8 217.4 54 36 clipbox
361.25054 167.0076 m
363.373825 167.0076 l
stroke
grestore
gsave
334.8 217.4 54 36 clipbox
224.368058 52.836434 m
224.368058 53.877862 l
stroke
grestore
gsave
334.8 217.4 54 36 clipbox
282.283214 69.672867 m
282.283214 71.755725 l
stroke
grestore
gsave
334.8 217.4 54 36 clipbox
326.21185 99.538686 m
326.21185 103.468914 l
stroke
grestore
gsave
334.8 217.4 54 36 clipbox
362.312182 163.077372 m
362.312182 170.937828 l
stroke
grestore
1.000 0.498 0.055 setrgbcolor
gsave
334.8 217.4 54 36 clipbox
208.249237 52.449336 m
213.720853 52.449336 l
stroke
grestore
gsave
334.8 217.4 54 36 clipbox
269.700405 68.898672 m
272.093429 68.898672 l
stroke
grestore
gsave
334.8 217.4 54 36 clipbox
328.423013 108.81522 m
328.732876 108.81522 l
stroke
grestore
gsave
334.8 217.4 54 36 clipbox
361.818078 181.63044 m
364.950025 181.63044 l
stroke
grestore
gsave
334.8 217.4 54 36 clipbox
210.985045 51.955856 m
210.985045 52.942816 l
stroke
grestore
gsave
334.8 217.4 54 36 clipbox
270.896917 67.911712 m
270.896917 69.885632 l
stroke
grestore
gsave
334.8 217.4 54 36 clipbox
328.577944 106.630763 m
328.577944 110.999677 l
stroke
grestore
gsave
334.8 217.4 54 36 clipbox
363.384052 177.261527 m
363.384052 185.999353 l
stroke
grestore
0.173 0.627 0.173 setrgbcolor
gsave
334.8 217.4 54 36 clipbox
213.633878 53.50392 m
218.639965 53.50392 l
stroke
grestore
gsave
334.8 217.4 54 36 clipbox
276.552033 71.00784 m
280.581679 71.00784 l
stroke
grestore
gsave
334.8 217.4 54 36 clipbox
306.578745 88.51176 m
308.122949 88.51176 l
stroke
grestore
gsave
334.8 217.4 54 36 clipbox
341.748396 128.62944 m
348.442769 128.62944 l
stroke
grestore
gsave
334.8 217.4 54 36 clipbox
216.136922 52.978802 m
216.136922 54.029038 l
stroke
grestore
gsave
334.8 217.4 54 36 clipbox
278.566856 69.957605 m
278.566856 72.058075 l
stroke
grestore
gsave
334.8 217.4 54 36 clipbox
307.350847 86.936407 m
307.350847 90.087113 l
stroke
grestore
gsave
334.8 217.4 54 36 clipbox
345.095582 125.850557 m
345.095582 131.408323 l
stroke
grestore
0.839 0.153 0.157 setrgbcolor
gsave
334.8 217.4 54 36 clipbox
209.39137 54.955332 m
209.835323 54.955332 l
stroke
grestore
gsave
334.8 217.4 54 36 clipbox
269.024669 73.910664 m
270.504227 73.910664 l
stroke
grestore
gsave
334.8 217.4 54 36 clipbox
311.812559 103.6782 m
313.904007 103.6782 l
stroke
grestore
gsave
334.8 217.4 54 36 clipbox
352.356001 171.3564 m
355.165364 171.3564 l
stroke
grestore
gsave
334.8 217.4 54 36 clipbox
209.613347 54.386672 m
209.613347 55.523992 l
stroke
grestore
gsave
334.8 217.4 54 36 clipbox
269.764448 72.773344 m
269.764448 75.047984 l
stroke
grestore
gsave
334.8 217.4 54 36 clipbox
312.858283 101.647854 m
312.858283 105.708546 l
stroke
grestore
gsave
334.8 217.4 54 36 clipbox
353.760682 167.295708 m
353.760682 175.417092 l
stroke
grestore
1.000 setlinewidth
0.122 0.467 0.706 setrgbcolor
gsave
334.8 217.4 54 36 clipbox
/o {
gsave
newpath
translate
1.0 setlinewidth
1 setlinejoin
0 setlinecap
0 -2 m
0 2 l

gsave
0.122 0.467 0.706 setrgbcolor
fill
grestore
stroke
grestore
} bind def
224.068 53.3571 o
281.081 70.7143 o
324.317 101.504 o
361.251 167.008 o
grestore
gsave
334.8 217.4 54 36 clipbox
/o {
gsave
newpath
translate
1.0 setlinewidth
1 setlinejoin
0 setlinecap
0 -2 m
0 2 l

gsave
0.122 0.467 0.706 setrgbcolor
fill
grestore
stroke
grestore
} bind def
224.668 53.3571 o
283.485 70.7143 o
328.107 101.504 o
363.374 167.008 o
grestore
gsave
334.8 217.4 54 36 clipbox
/o {
gsave
newpath
translate
1.0 setlinewidth
1 setlinejoin
0 setlinecap
2 -0 m
-2 0 l

gsave
0.122 0.467 0.706 setrgbcolor
fill
grestore
stroke
grestore
} bind def
224.368 52.8364 o
282.283 69.6729 o
326.212 99.5387 o
362.312 163.077 o
grestore
gsave
334.8 217.4 54 36 clipbox
/o {
gsave
newpath
translate
1.0 setlinewidth
1 setlinejoin
0 setlinecap
2 -0 m
-2 0 l

gsave
0.122 0.467 0.706 setrgbcolor
fill
grestore
stroke
grestore
} bind def
224.368 53.8779 o
282.283 71.7557 o
326.212 103.469 o
362.312 170.938 o
grestore
1.000 0.498 0.055 setrgbcolor
gsave
334.8 217.4 54 36 clipbox
/o {
gsave
newpath
translate
1.0 setlinewidth
1 setlinejoin
0 setlinecap
0 -2 m
0 2 l

gsave
1.000 0.498 0.055 setrgbcolor
fill
grestore
stroke
grestore
} bind def
208.249 52.4493 o
269.7 68.8987 o
328.423 108.815 o
361.818 181.63 o
grestore
gsave
334.8 217.4 54 36 clipbox
/o {
gsave
newpath
translate
1.0 setlinewidth
1 setlinejoin
0 setlinecap
0 -2 m
0 2 l

gsave
1.000 0.498 0.055 setrgbcolor
fill
grestore
stroke
grestore
} bind def
213.721 52.4493 o
272.093 68.8987 o
328.733 108.815 o
364.95 181.63 o
grestore
gsave
334.8 217.4 54 36 clipbox
/o {
gsave
newpath
translate
1.0 setlinewidth
1 setlinejoin
0 setlinecap
2 -0 m
-2 0 l

gsave
1.000 0.498 0.055 setrgbcolor
fill
grestore
stroke
grestore
} bind def
210.985 51.9559 o
270.897 67.9117 o
328.578 106.631 o
363.384 177.262 o
grestore
gsave
334.8 217.4 54 36 clipbox
/o {
gsave
newpath
translate
1.0 setlinewidth
1 setlinejoin
0 setlinecap
2 -0 m
-2 0 l

gsave
1.000 0.498 0.055 setrgbcolor
fill
grestore
stroke
grestore
} bind def
210.985 52.9428 o
270.897 69.8856 o
328.578 111 o
363.384 185.999 o
grestore
0.173 0.627 0.173 setrgbcolor
gsave
334.8 217.4 54 36 clipbox
/o {
gsave
newpath
translate
1.0 setlinewidth
1 setlinejoin
0 setlinecap
0 -2 m
0 2 l

gsave
0.173 0.627 0.173 setrgbcolor
fill
grestore
stroke
grestore
} bind def
213.634 53.5039 o
276.552 71.0078 o
306.579 88.5118 o
341.748 128.629 o
grestore
gsave
334.8 217.4 54 36 clipbox
/o {
gsave
newpath
translate
1.0 setlinewidth
1 setlinejoin
0 setlinecap
0 -2 m
0 2 l

gsave
0.173 0.627 0.173 setrgbcolor
fill
grestore
stroke
grestore
} bind def
218.64 53.5039 o
280.582 71.0078 o
308.123 88.5118 o
348.443 128.629 o
grestore
gsave
334.8 217.4 54 36 clipbox
/o {
gsave
newpath
translate
1.0 setlinewidth
1 setlinejoin
0 setlinecap
2 -0 m
-2 0 l

gsave
0.173 0.627 0.173 setrgbcolor
fill
grestore
stroke
grestore
} bind def
216.137 52.9788 o
278.567 69.9576 o
307.351 86.9364 o
345.096 125.851 o
grestore
gsave
334.8 217.4 54 36 clipbox
/o {
gsave
newpath
translate
1.0 setlinewidth
1 setlinejoin
0 setlinecap
2 -0 m
-2 0 l

gsave
0.173 0.627 0.173 setrgbcolor
fill
grestore
stroke
grestore
} bind def
216.137 54.029 o
278.567 72.0581 o
307.351 90.0871 o
345.096 131.408 o
grestore
0.839 0.153 0.157 setrgbcolor
gsave
334.8 217.4 54 36 clipbox
/o {
gsave
newpath
translate
1.0 setlinewidth
1 setlinejoin
0 setlinecap
0 -2 m
0 2 l

gsave
0.839 0.153 0.157 setrgbcolor
fill
grestore
stroke
grestore
} bind def
209.391 54.9553 o
269.025 73.9107 o
311.813 103.678 o
352.356 171.356 o
grestore
gsave
334.8 217.4 54 36 clipbox
/o {
gsave
newpath
translate
1.0 setlinewidth
1 setlinejoin
0 setlinecap
0 -2 m
0 2 l

gsave
0.839 0.153 0.157 setrgbcolor
fill
grestore
stroke
grestore
} bind def
209.835 54.9553 o
270.504 73.9107 o
313.904 103.678 o
355.165 171.356 o
grestore
gsave
334.8 217.4 54 36 clipbox
/o {
gsave
newpath
translate
1.0 setlinewidth
1 setlinejoin
0 setlinecap
2 -0 m
-2 0 l

gsave
0.839 0.153 0.157 setrgbcolor
fill
grestore
stroke
grestore
} bind def
209.613 54.3867 o
269.764 72.7733 o
312.858 101.648 o
353.761 167.296 o
grestore
gsave
334.8 217.4 54 36 clipbox
/o {
gsave
newpath
translate
1.0 setlinewidth
1 setlinejoin
0 setlinecap
2 -0 m
-2 0 l

gsave
0.839 0.153 0.157 setrgbcolor
fill
grestore
stroke
grestore
} bind def
209.613 55.524 o
269.764 75.048 o
312.858 105.709 o
353.761 175.417 o
grestore
0.122 0.467 0.706 setrgbcolor
gsave
334.8 217.4 54 36 clipbox
/o {
gsave
newpath
translate
1.0 setlinewidth
1 setlinejoin
0 setlinecap
0 -1 m
0.265203 -1 0.51958 -0.894634 0.707107 -0.707107 c
0.894634 -0.51958 1 -0.265203 1 0 c
1 0.265203 0.894634 0.51958 0.707107 0.707107 c
0.51958 0.894634 0.265203 1 0 1 c
-0.265203 1 -0.51958 0.894634 -0.707107 0.707107 c
-0.894634 0.51958 -1 0.265203 -1 0 c
-1 -0.265203 -0.894634 -0.51958 -0.707107 -0.707107 c
-0.51958 -0.894634 -0.265203 -1 0 -1 c
cl

gsave
0.122 0.467 0.706 setrgbcolor
fill
grestore
stroke
grestore
} bind def
224.368 53.3571 o
282.283 70.7143 o
326.212 101.504 o
362.312 167.008 o
grestore
1.000 0.498 0.055 setrgbcolor
gsave
334.8 217.4 54 36 clipbox
/o {
gsave
newpath
translate
1.0 setlinewidth
1 setlinejoin
0 setlinecap
0 -1 m
0.265203 -1 0.51958 -0.894634 0.707107 -0.707107 c
0.894634 -0.51958 1 -0.265203 1 0 c
1 0.265203 0.894634 0.51958 0.707107 0.707107 c
0.51958 0.894634 0.265203 1 0 1 c
-0.265203 1 -0.51958 0.894634 -0.707107 0.707107 c
-0.894634 0.51958 -1 0.265203 -1 0 c
-1 -0.265203 -0.894634 -0.51958 -0.707107 -0.707107 c
-0.51958 -0.894634 -0.265203 -1 0 -1 c
cl

gsave
1.000 0.498 0.055 setrgbcolor
fill
grestore
stroke
grestore
} bind def
210.985 52.4493 o
270.897 68.8987 o
328.578 108.815 o
363.384 181.63 o
grestore
0.173 0.627 0.173 setrgbcolor
gsave
334.8 217.4 54 36 clipbox
/o {
gsave
newpath
translate
1.0 setlinewidth
1 setlinejoin
0 setlinecap
0 -1 m
0.265203 -1 0.51958 -0.894634 0.707107 -0.707107 c
0.894634 -0.51958 1 -0.265203 1 0 c
1 0.265203 0.894634 0.51958 0.707107 0.707107 c
0.51958 0.894634 0.265203 1 0 1 c
-0.265203 1 -0.51958 0.894634 -0.707107 0.707107 c
-0.894634 0.51958 -1 0.265203 -1 0 c
-1 -0.265203 -0.894634 -0.51958 -0.707107 -0.707107 c
-0.51958 -0.894634 -0.265203 -1 0 -1 c
cl

gsave
0.173 0.627 0.173 setrgbcolor
fill
grestore
stroke
grestore
} bind def
216.137 53.5039 o
278.567 71.0078 o
307.351 88.5118 o
345.096 128.629 o
grestore
0.839 0.153 0.157 setrgbcolor
gsave
334.8 217.4 54 36 clipbox
/o {
gsave
newpath
translate
1.0 setlinewidth
1 setlinejoin
0 setlinecap
0 -1 m
0.265203 -1 0.51958 -0.894634 0.707107 -0.707107 c
0.894634 -0.51958 1 -0.265203 1 0 c
1 0.265203 0.894634 0.51958 0.707107 0.707107 c
0.51958 0.894634 0.265203 1 0 1 c
-0.265203 1 -0.51958 0.894634 -0.707107 0.707107 c
-0.894634 0.51958 -1 0.265203 -1 0 c
-1 -0.265203 -0.894634 -0.51958 -0.707107 -0.707107 c
-0.51958 -0.894634 -0.265203 -1 0 -1 c
cl

gsave
0.839 0.153 0.157 setrgbcolor
fill
grestore
stroke
grestore
} bind def
209.613 54.9553 o
269.764 73.9107 o
312.858 103.678 o
353.761 171.356 o
grestore
0.800 setlinewidth
0 setlinejoin
2 setlinecap
[] 0 setdash
0.000 setgray
gsave
54 36 m
54 253.44 l
stroke
grestore
gsave
388.8 36 m
388.8 253.44 l
stroke
grestore
gsave
54 36 m
388.8 36 l
stroke
grestore
gsave
54 253.44 m
388.8 253.44 l
stroke
grestore
1.000 setlinewidth
0 setlinecap
0.800 setgray
gsave
61 186.7525 m
131.0625 186.7525 l
132.395833 186.7525 133.0625 187.419167 133.0625 188.7525 c
133.0625 246.44 l
133.0625 247.773333 132.395833 248.44 131.0625 248.44 c
61 248.44 l
59.666667 248.44 59 247.773333 59 246.44 c
59 188.7525 l
59 187.419167 59.666667 186.7525 61 186.7525 c
cl
gsave
1.000 setgray
fill
grestore
stroke
grestore
1.500 setlinewidth
1 setlinejoin
2 setlinecap
[] 0 setdash
0.122 0.467 0.706 setrgbcolor
gsave
63 240.34625 m
83 240.34625 l
stroke
grestore
0.000 setgray
gsave
91.000000 236.846250 translate
0.000000 rotate
0.000000 0.000000 m /eight glyphshow
6.362305 0.000000 m /zero glyphshow
12.724609 0.000000 m /k glyphshow
18.515625 0.000000 m /V glyphshow
25.356445 0.000000 m /p glyphshow
grestore
1.000 0.498 0.055 setrgbcolor
gsave
63 225.674375 m
83 225.674375 l
stroke
grestore
0.000 setgray
gsave
91.000000 222.174375 translate
0.000000 rotate
0.000000 0.000000 m /one glyphshow
6.362305 0.000000 m /zero glyphshow
12.724609 0.000000 m /zero glyphshow
19.086914 0.000000 m /k glyphshow
24.877930 0.000000 m /V glyphshow
31.718750 0.000000 m /p glyphshow
grestore
0.173 0.627 0.173 setrgbcolor
gsave
63 211.0025 m
83 211.0025 l
stroke
grestore
0.000 setgray
gsave
91.000000 207.502500 translate
0.000000 rotate
0.000000 0.000000 m /one glyphshow
6.362305 0.000000 m /two glyphshow
12.724609 0.000000 m /zero glyphshow
19.086914 0.000000 m /k glyphshow
24.877930 0.000000 m /V glyphshow
31.718750 0.000000 m /p glyphshow
grestore
0.839 0.153 0.157 setrgbcolor
gsave
63 196.330625 m
83 196.330625 l
stroke
grestore
0.000 setgray
gsave
91.000000 192.830625 translate
0.000000 rotate
0.000000 0.000000 m /one glyphshow
6.362305 0.000000 m /four glyphshow
12.724609 0.000000 m /zero glyphshow
19.086914 0.000000 m /k glyphshow
24.877930 0.000000 m /V glyphshow
31.718750 0.000000 m /p glyphshow
grestore

end
showpage
